project/testbenches/tb_ipcore.vcd
$date
	Thu Mar 13 15:51:43 2025
$end
$version
	Icarus Verilog
$end
$timescale
	1ps
$end
$scope module tb_ipcore $end
$var wire 4 ! LEDS_colums [3:0] $end
$var wire 9 " LEDS [8:0] $end
$var wire 1 # JTD2 $end
$var wire 1 $ JTD1 $end
$var reg 1 % JCE1 $end
$var reg 1 & JCE2 $end
$var reg 1 ' JRSNT $end
$var reg 1 ( JRTI1 $end
$var reg 1 ) JRTI2 $end
$var reg 1 * JSHIFT $end
$var reg 1 + JTCK $end
$var reg 1 , JTDI $end
$var reg 1 - JUPDATE $end
$scope module uut $end
$var wire 1 % JCE1 $end
$var wire 1 & JCE2 $end
$var wire 1 ' JRSNT $end
$var wire 1 ( JRTI1 $end
$var wire 1 ) JRTI2 $end
$var wire 1 * JSHIFT $end
$var wire 1 + JTCK $end
$var wire 1 , JTDI $end
$var wire 1 - JUPDATE $end
$var wire 4 . LEDS_colums [3:0] $end
$var wire 9 / LEDS [8:0] $end
$var wire 1 # JTD2 $end
$var wire 1 $ JTD1 $end
$scope module instruction_chain1 $end
$var wire 1 % JCE1 $end
$var wire 1 ' JRSNT $end
$var wire 1 ( JRTI1 $end
$var wire 1 * JSHIFT $end
$var wire 1 + JTCK $end
$var wire 1 , JTDI $end
$var wire 1 - JUPDATE $end
$var reg 1 $ JTD1 $end
$var reg 9 0 LEDS [8:0] $end
$var reg 9 1 data_reg [8:0] $end
$var reg 9 2 shift_reg [8:0] $end
$upscope $end
$scope module instruction_chain2 $end
$var wire 1 & JCE2 $end
$var wire 1 ' JRSNT $end
$var wire 1 ) JRTI2 $end
$var wire 1 * JSHIFT $end
$var wire 1 + JTCK $end
$var wire 1 , JTDI $end
$var wire 1 - JUPDATE $end
$var reg 1 # JTD2 $end
$var reg 4 3 LEDS_colums [3:0] $end
$var reg 4 4 data_reg [3:0] $end
$var reg 4 5 shift_reg [3:0] $end
$upscope $end
$upscope $end
$upscope $end
$enddefinitions $end
$comment Show the parameter values. $end
$dumpall
$end
#0
$dumpvars
bx 5
bx 4
bx 3
bx 2
bx 1
bx 0
bx /
bx .
0-
0,
0+
0*
0)
0(
1'
0&
0%
x$
x#
bx "
bx !
$end
#5
1+
#10
b0 "
b0 /
b0 0
b0 !
b0 .
b0 3
b0 1
b0 2
b0 4
b0 5
0+
0'
#15
1+
#20
0+
1'
#25
1+
#30
0+
1(
#35
1+
#40
0+
#45
1+
#50
0+
1%
0(
#55
1+
#60
0+
1,
1*
#65
b100000000 2
0$
1+
#70
0+
0,
#75
b10000000 2
1+
#80
0+
1,
#85
b101000000 2
1+
#90
0+
0%
0*
#95
1+
#100
0+
1-
#105
b101000000 "
b101000000 /
b101000000 0
b101000000 1
1+
#110
0+
1(
1)
0-
#115
1+
#120
0+
#125
1+
#130
0+
1&
0)
#135
1+
#140
0+
1*
#145
bx000 5
0#
1+
#150
0+
#155
bx00 5
1+
#160
0+
#165
bx0 5
1+
#170
0+
0&
0*
#175
1+
#180
0+
1-
#185
bx0 !
bx0 .
bx0 3
bx0 4
1+
#190
0+
