project/testbenches/test_pingpong.vcd
$date
	Mon Apr  7 22:13:33 2025
$end
$version
	Icarus Verilog
$end
$timescale
	1ps
$end
$scope module tb_pingpongbuffer $end
$var wire 32 ! popData [31:0] $end
$var parameter 32 " bitwidth $end
$var parameter 32 # nrOfEntries $end
$var reg 1 $ clock $end
$var reg 7 % popAddress [6:0] $end
$var reg 1 & push $end
$var reg 7 ' pushAddress [6:0] $end
$var reg 32 ( pushData [31:0] $end
$var reg 1 ) reset $end
$var reg 1 * switch $end
$scope module uut $end
$var wire 1 $ clock $end
$var wire 7 + popAddress [6:0] $end
$var wire 1 & push $end
$var wire 7 , pushAddress [6:0] $end
$var wire 32 - pushData [31:0] $end
$var wire 1 ) reset $end
$var wire 1 * switch $end
$var wire 7 . s_addressB [6:0] $end
$var wire 7 / s_addressA [6:0] $end
$var wire 32 0 popData [31:0] $end
$var parameter 32 1 offset $end
$var reg 1 2 switch_reg $end
$scope module ssram $end
$var wire 7 3 addressA [6:0] $end
$var wire 7 4 addressB [6:0] $end
$var wire 1 $ clockA $end
$var wire 1 $ clockB $end
$var wire 32 5 dataInA [31:0] $end
$var wire 1 & writeEnable $end
$var reg 32 6 dataOutB [31:0] $end
$upscope $end
$upscope $end
$upscope $end
$enddefinitions $end
$comment Show the parameter values. $end
$dumpall
b100000 1
b10000000 #
b100000 "
$end
#0
$dumpvars
bx 6
b0 5
b100000 4
b0 3
02
bx 0
b0 /
b100000 .
b0 -
b0 ,
b0 +
0*
1)
b0 (
b0 '
0&
b0 %
0$
bx !
$end
#2
1$
#4
0$
#6
1$
#8
0$
#10
1$
#11
1&
b11111111111111111111111111110000 (
b11111111111111111111111111110000 -
b11111111111111111111111111110000 5
0)
#12
0$
#14
1$
#15
b1 /
b1 3
b1 '
b1 ,
b11111111111111111111111111110001 (
b11111111111111111111111111110001 -
b11111111111111111111111111110001 5
#16
0$
#18
1$
#19
b10 /
b10 3
b10 '
b10 ,
b11111111111111111111111111110010 (
b11111111111111111111111111110010 -
b11111111111111111111111111110010 5
#20
0$
#22
1$
#23
b11 /
b11 3
b11 '
b11 ,
b11111111111111111111111111110011 (
b11111111111111111111111111110011 -
b11111111111111111111111111110011 5
#24
0$
#26
1$
#27
b100 /
b100 3
b100 '
b100 ,
b11111111111111111111111111110100 (
b11111111111111111111111111110100 -
b11111111111111111111111111110100 5
#28
0$
#30
1$
#31
b101 /
b101 3
b101 '
b101 ,
b11111111111111111111111111110101 (
b11111111111111111111111111110101 -
b11111111111111111111111111110101 5
#32
0$
#34
1$
#35
b110 /
b110 3
b110 '
b110 ,
b11111111111111111111111111110110 (
b11111111111111111111111111110110 -
b11111111111111111111111111110110 5
#36
0$
#38
1$
#39
b111 /
b111 3
b111 '
b111 ,
b11111111111111111111111111110111 (
b11111111111111111111111111110111 -
b11111111111111111111111111110111 5
#40
0$
#42
1$
#43
b1000 /
b1000 3
b1000 '
b1000 ,
b11111111111111111111111111111000 (
b11111111111111111111111111111000 -
b11111111111111111111111111111000 5
#44
0$
#46
1$
#47
b1001 /
b1001 3
b1001 '
b1001 ,
b11111111111111111111111111111001 (
b11111111111111111111111111111001 -
b11111111111111111111111111111001 5
#48
0$
#50
1$
#51
b1010 /
b1010 3
b1010 '
b1010 ,
b11111111111111111111111111111010 (
b11111111111111111111111111111010 -
b11111111111111111111111111111010 5
#52
0$
#54
1$
#55
b1011 /
b1011 3
b1011 '
b1011 ,
b11111111111111111111111111111011 (
b11111111111111111111111111111011 -
b11111111111111111111111111111011 5
#56
0$
#58
1$
#59
b1100 /
b1100 3
b1100 '
b1100 ,
b11111111111111111111111111111100 (
b11111111111111111111111111111100 -
b11111111111111111111111111111100 5
#60
0$
#62
1$
#63
b1101 /
b1101 3
b1101 '
b1101 ,
b11111111111111111111111111111101 (
b11111111111111111111111111111101 -
b11111111111111111111111111111101 5
#64
0$
#66
1$
#67
b1110 /
b1110 3
b1110 '
b1110 ,
b11111111111111111111111111111110 (
b11111111111111111111111111111110 -
b11111111111111111111111111111110 5
#68
0$
#70
1$
#71
b1111 /
b1111 3
b1111 '
b1111 ,
b11111111111111111111111111111111 (
b11111111111111111111111111111111 -
b11111111111111111111111111111111 5
#72
0$
#74
1$
#75
b0 /
b0 3
1*
b0 (
b0 -
b0 5
b0 '
b0 ,
0&
#76
0$
#78
b0 .
b0 4
b100000 /
b100000 3
12
1$
#79
0*
#80
0$
#82
b11111111111111111111111111110000 !
b11111111111111111111111111110000 0
b11111111111111111111111111110000 6
1$
#83
b1 .
b1 4
b1 %
b1 +
#84
0$
#86
b11111111111111111111111111110001 !
b11111111111111111111111111110001 0
b11111111111111111111111111110001 6
1$
#87
b10 .
b10 4
b10 %
b10 +
#88
0$
#90
b11111111111111111111111111110010 !
b11111111111111111111111111110010 0
b11111111111111111111111111110010 6
1$
#91
b11 .
b11 4
b11 %
b11 +
#92
0$
#94
b11111111111111111111111111110011 !
b11111111111111111111111111110011 0
b11111111111111111111111111110011 6
1$
#95
b100 .
b100 4
b100 %
b100 +
#96
0$
#98
b11111111111111111111111111110100 !
b11111111111111111111111111110100 0
b11111111111111111111111111110100 6
1$
