project/modules/jtag_interface/testbenches/test_jtagsupport.vcd
$date
	Mon May  5 16:57:29 2025
$end
$version
	Icarus Verilog
$end
$timescale
	1ps
$end
$scope module tb_jtagsupport $end
$var wire 1 ! JTDO2 $end
$var wire 1 " request $end
$var wire 1 # read_n_writeOUT $end
$var wire 1 $ end_transactionOUT $end
$var wire 1 % data_validOUT $end
$var wire 4 & byte_enableOUT [3:0] $end
$var wire 1 ' busyOUT $end
$var wire 8 ( busrt_sizeOUT [7:0] $end
$var wire 1 ) begin_transactionOUT $end
$var wire 32 * address_dataOUT [31:0] $end
$var wire 1 + JTDO1 $end
$var reg 1 , JCE1 $end
$var reg 1 - JCE2 $end
$var reg 1 . JRSTN $end
$var reg 1 / JRTI1 $end
$var reg 1 0 JRTI2 $end
$var reg 1 1 JSHIFT $end
$var reg 1 2 JTCK $end
$var reg 1 3 JTDI $end
$var reg 1 4 JUPDATE $end
$var reg 32 5 address_dataIN [31:0] $end
$var reg 1 6 busyIN $end
$var reg 1 7 data_validIN $end
$var reg 1 8 end_transactionIN $end
$var reg 1 9 errorIN $end
$var reg 1 : granted $end
$var reg 32 ; memory_0x55555555 [31:0] $end
$var reg 1 < system_clock $end
$var integer 32 = i [31:0] $end
$scope module dut $end
$var wire 1 , JCE1 $end
$var wire 1 - JCE2 $end
$var wire 1 . JRSTN $end
$var wire 1 / JRTI1 $end
$var wire 1 0 JRTI2 $end
$var wire 1 1 JSHIFT $end
$var wire 1 2 JTCK $end
$var wire 1 3 JTDI $end
$var wire 1 ! JTDO2 $end
$var wire 1 4 JUPDATE $end
$var wire 32 > address_dataIN [31:0] $end
$var wire 10 ? blue [9:0] $end
$var wire 1 6 busyIN $end
$var wire 1 7 data_validIN $end
$var wire 1 8 end_transactionIN $end
$var wire 1 9 errorIN $end
$var wire 1 : granted $end
$var wire 10 @ red [9:0] $end
$var wire 4 A rgbRow [3:0] $end
$var wire 9 B s_pp_address_dma [8:0] $end
$var wire 1 < system_clock $end
$var wire 1 C system_reset $end
$var wire 1 D sync_switch_ready $end
$var wire 1 E sync_s_dma_readReady $end
$var wire 1 F sync_s_dma_data_ready $end
$var wire 4 G sync_s_dma_byte_enable [3:0] $end
$var wire 32 H sync_s_dma_address [31:0] $end
$var wire 6 I s_status_reg_out [5:0] $end
$var wire 1 J s_pp_writeEnable_ipcore $end
$var wire 1 K s_pp_writeEnable_dma $end
$var wire 1 L s_pp_switch_ipcore $end
$var wire 32 M s_pp_dataOut_ipcore [31:0] $end
$var wire 32 N s_pp_dataOut_dma [31:0] $end
$var wire 32 O s_pp_dataIn_ipcore [31:0] $end
$var wire 32 P s_pp_dataIn_dma [31:0] $end
$var wire 9 Q s_pp_address_ipcore [8:0] $end
$var wire 1 R s_ipcore_switch_ready $end
$var wire 1 S s_dma_readReady $end
$var wire 1 T s_dma_data_ready $end
$var wire 4 U s_dma_cur_state [3:0] $end
$var wire 4 V s_dma_byte_enable [3:0] $end
$var wire 32 W s_dma_address [31:0] $end
$var wire 1 " request $end
$var wire 1 # read_n_writeOUT $end
$var wire 10 X green [9:0] $end
$var wire 1 $ end_transactionOUT $end
$var wire 1 % data_validOUT $end
$var wire 4 Y byte_enableOUT [3:0] $end
$var wire 1 ' busyOUT $end
$var wire 8 Z busrt_sizeOUT [7:0] $end
$var wire 1 ) begin_transactionOUT $end
$var wire 32 [ address_dataOUT [31:0] $end
$var wire 1 + JTDO1 $end
$scope module clock_synchronizer_address $end
$var wire 1 2 clk_in $end
$var wire 1 < clk_out $end
$var wire 1 . n_reset $end
$var wire 32 \ sync_out [31:0] $end
$var wire 32 ] to_sync [31:0] $end
$var parameter 32 ^ SYNC_WIDTH $end
$var reg 32 _ sync_reg_1 [31:0] $end
$var reg 32 ` sync_reg_2 [31:0] $end
$var reg 32 a sync_reg_3 [31:0] $end
$upscope $end
$scope module clock_synchronizer_byteEnable $end
$var wire 1 2 clk_in $end
$var wire 1 < clk_out $end
$var wire 1 . n_reset $end
$var wire 4 b sync_out [3:0] $end
$var wire 4 c to_sync [3:0] $end
$var parameter 32 d SYNC_WIDTH $end
$var reg 4 e sync_reg_1 [3:0] $end
$var reg 4 f sync_reg_2 [3:0] $end
$var reg 4 g sync_reg_3 [3:0] $end
$upscope $end
$scope module clock_synchronizer_dataREady $end
$var wire 1 2 clk_in $end
$var wire 1 < clk_out $end
$var wire 1 . n_reset $end
$var wire 1 F sync_out $end
$var wire 1 T to_sync $end
$var parameter 32 h SYNC_WIDTH $end
$var reg 1 i sync_reg_1 $end
$var reg 1 j sync_reg_2 $end
$var reg 1 k sync_reg_3 $end
$upscope $end
$scope module clock_synchronizer_readReady $end
$var wire 1 2 clk_in $end
$var wire 1 < clk_out $end
$var wire 1 . n_reset $end
$var wire 1 E sync_out $end
$var wire 1 S to_sync $end
$var parameter 32 l SYNC_WIDTH $end
$var reg 1 m sync_reg_1 $end
$var reg 1 n sync_reg_2 $end
$var reg 1 o sync_reg_3 $end
$upscope $end
$scope module clock_synchronizer_switch $end
$var wire 1 < clk_in $end
$var wire 1 2 clk_out $end
$var wire 1 . n_reset $end
$var wire 1 R to_sync $end
$var wire 1 D sync_out $end
$var parameter 32 p SYNC_WIDTH $end
$var reg 1 q sync_reg_1 $end
$var reg 1 r sync_reg_2 $end
$var reg 1 D sync_reg_3 $end
$upscope $end
$scope module dma_inst $end
$var wire 32 s address_dataIN [31:0] $end
$var wire 9 t bufferAddress [8:0] $end
$var wire 1 6 busyIN $end
$var wire 1 < clock $end
$var wire 1 7 data_validIN $end
$var wire 1 8 end_transactionIN $end
$var wire 1 9 errorIN $end
$var wire 1 : granted $end
$var wire 32 u ipcore_address_to_read [31:0] $end
$var wire 4 v ipcore_byteEnable [3:0] $end
$var wire 1 F ipcore_dataReady $end
$var wire 1 E ipcore_readReady $end
$var wire 1 w reset $end
$var wire 4 x s_dma_cur_state [3:0] $end
$var wire 1 y s_reading_from_buffer_done $end
$var wire 1 K writeEnable $end
$var wire 1 " request $end
$var wire 1 # read_n_writeOUT $end
$var wire 1 R ipcore_switch_ready $end
$var wire 1 $ end_transactionOUT $end
$var wire 1 % data_validOUT $end
$var wire 32 z dataOut [31:0] $end
$var wire 32 { dataIn [31:0] $end
$var wire 4 | byte_enableOUT [3:0] $end
$var wire 1 ' busyOUT $end
$var wire 8 } busrt_sizeOUT [7:0] $end
$var wire 1 ) begin_transactionOUT $end
$var wire 32 ~ address_dataOUT [31:0] $end
$var parameter 32 !" Base $end
$var parameter 32 "" fsm_asking_for_buffer $end
$var parameter 32 #" fsm_end_transaction $end
$var parameter 32 $" fsm_idle $end
$var parameter 32 %" fsm_read_request $end
$var parameter 32 &" fsm_read_sending_handshake $end
$var parameter 32 '" fsm_reading_data $end
$var parameter 32 (" fsm_reading_from_buffer $end
$var parameter 32 )" fsm_sending_data $end
$var parameter 32 *" fsm_write_request $end
$var parameter 32 +" fsm_write_sending_handshake $end
$var parameter 32 ," fsm_writting_buffer $end
$var reg 32 -" buffer_data [31:0] $end
$var reg 4 ." cur_state [3:0] $end
$var reg 4 /" nxt_state [3:0] $end
$var reg 32 0" s_address [31:0] $end
$var reg 4 1" s_byte_enable [3:0] $end
$upscope $end
$scope module ipcore $end
$var wire 1 , JCE1 $end
$var wire 1 - JCE2 $end
$var wire 1 . JRSTN $end
$var wire 1 / JRTI1 $end
$var wire 1 0 JRTI2 $end
$var wire 1 1 JSHIFT $end
$var wire 1 2 JTCK $end
$var wire 1 ! JTD2 $end
$var wire 1 3 JTDI $end
$var wire 1 4 JUPDATE $end
$var wire 1 2" switch_ready $end
$var wire 6 3" s_status_reg_out [5:0] $end
$var wire 1 4" s_JTDI_2 $end
$var wire 1 5" s_JTDI_1 $end
$var wire 1 J pp_writeEnable $end
$var wire 1 L pp_switch $end
$var wire 32 6" pp_dataOut [31:0] $end
$var wire 32 7" pp_dataIn [31:0] $end
$var wire 9 8" pp_address [8:0] $end
$var wire 1 S dma_readReady $end
$var wire 1 T dma_data_ready $end
$var wire 4 9" dma_byte_enable [3:0] $end
$var wire 32 :" dma_address [31:0] $end
$var wire 1 + JTD1 $end
$scope module instruction_chain1 $end
$var wire 1 , JCE1 $end
$var wire 1 . JRSTN $end
$var wire 1 / JRTI1 $end
$var wire 1 1 JSHIFT $end
$var wire 1 2 JTCK $end
$var wire 1 5" JTDI $end
$var wire 1 4 JUPDATE $end
$var wire 1 ;" s_ready_to_switch $end
$var wire 1 2" switch_ready $end
$var wire 6 <" status_reg_out [5:0] $end
$var wire 1 J pp_writeEnable $end
$var wire 1 L pp_switch $end
$var wire 32 =" pp_dataOut [31:0] $end
$var wire 32 >" pp_dataIn [31:0] $end
$var wire 9 ?" pp_address [8:0] $end
$var wire 1 @" is_operation_running $end
$var wire 1 S dma_readReady $end
$var wire 1 T dma_data_ready $end
$var wire 4 A" dma_byte_enable [3:0] $end
$var wire 32 B" dma_address [31:0] $end
$var wire 1 + JTD1 $end
$var parameter 32 C" IDLE $end
$var parameter 32 D" read_ASK_BUFFER $end
$var parameter 32 E" read_DATA_READY_TO_READ $end
$var parameter 32 F" read_LAUNCH_READ $end
$var parameter 32 G" read_STORE_BUFFER_ANSWER $end
$var parameter 32 H" read_SWITCH_BUFFER $end
$var parameter 32 I" read_WAIT_FOR_SWITCH $end
$var parameter 32 J" write_FILL_BUFFER $end
$var parameter 32 K" write_LAUNCH_WRITE $end
$var parameter 32 L" write_SWITCH_BUFFER $end
$var parameter 32 M" write_WAIT_FOR_SWITCH $end
$var reg 32 N" address_reg [31:0] $end
$var reg 8 O" busrt_size_reg [7:0] $end
$var reg 4 P" byte_enable_reg [3:0] $end
$var reg 5 Q" chain1_cur_state [4:0] $end
$var reg 5 R" chain1_nxt_state [4:0] $end
$var reg 32 S" data_reg [31:0] $end
$var reg 8 T" pp_address_reg [7:0] $end
$var reg 1 U" r_data_shifted_in $end
$var reg 1 V" r_data_shifted_out $end
$var reg 1 W" r_launch_read $end
$var reg 32 X" read_data_from_buffer [31:0] $end
$var reg 8 Y" remaining_size_reg [7:0] $end
$var reg 36 Z" shift_reg [35:0] $end
$var reg 6 [" status_reg [5:0] $end
$upscope $end
$upscope $end
$scope module pingpongbuffer_inst $end
$var wire 9 \" addressA [8:0] $end
$var wire 9 ]" addressB [8:0] $end
$var wire 1 2 clockA $end
$var wire 1 < clockB $end
$var wire 32 ^" dataInA [31:0] $end
$var wire 32 _" dataInB [31:0] $end
$var wire 1 `" reset $end
$var wire 1 L switch $end
$var wire 1 J writeEnableA $end
$var wire 1 K writeEnableB $end
$var wire 9 a" s_addressB [8:0] $end
$var wire 9 b" s_addressA [8:0] $end
$var wire 32 c" dataOutB [31:0] $end
$var wire 32 d" dataOutA [31:0] $end
$var reg 1 e" switch_reg $end
$scope module ssram $end
$var wire 9 f" addressA [8:0] $end
$var wire 9 g" addressB [8:0] $end
$var wire 1 2 clockA $end
$var wire 1 < clockB $end
$var wire 32 h" dataInA [31:0] $end
$var wire 32 i" dataInB [31:0] $end
$var wire 1 J writeEnableA $end
$var wire 1 K writeEnableB $end
$var reg 32 j" dataOutA [31:0] $end
$var reg 32 k" dataOutB [31:0] $end
$upscope $end
$upscope $end
$upscope $end
$scope task sendInstruction $end
$var reg 36 l" instruction [35:0] $end
$upscope $end
$upscope $end
$enddefinitions $end
$comment Show the parameter values. $end
$dumpall
b10 M"
b11 L"
b100 K"
b1 J"
b110 I"
b1000 H"
b1010 G"
b101 F"
b111 E"
b1001 D"
b0 C"
b1010 ,"
b10 +"
b1 *"
b11 )"
b101 ("
b1001 '"
b1000 &"
b111 %"
b0 $"
b100 #"
b110 ""
b1000000000000000000000000000000 !"
b1 p
b1 l
b1 h
b100 d
b100000 ^
$end
#0
$dumpvars
bx l"
bx k"
bx j"
bx i"
bx h"
bx00000000 g"
bx f"
xe"
bx d"
bx c"
bx b"
bx00000000 a"
1`"
bx _"
bx ^"
b0 ]"
b0xxxxxxxx \"
bx ["
bx Z"
bx Y"
bx X"
xW"
xV"
xU"
bx T"
bx S"
bx R"
bx Q"
bx P"
bx O"
bx N"
bx B"
bx A"
x@"
b0xxxxxxxx ?"
bx >"
bx ="
b0xxxxx <"
x;"
bx :"
bx 9"
b0xxxxxxxx 8"
bx 7"
bx 6"
z5"
z4"
b0xxxxx 3"
x2"
bx 1"
bx 0"
b0 /"
bx ."
bx -"
bx ~
b0 }
bx |
bx {
bx z
1y
bx x
1w
bx v
bx u
b0 t
b0 s
xr
xq
xo
xn
xm
xk
xj
xi
bx g
bx f
bx e
bx c
bx b
bx a
bx `
bx _
bx ]
bx \
bx [
b0 Z
bx Y
bx X
bx W
bx V
bx U
xT
xS
xR
b0xxxxxxxx Q
bx P
bx O
bx N
bx M
xL
xK
xJ
b0xxxxx I
bx H
bx G
xF
xE
xD
0C
b0 B
b0 A
bz @
bz ?
b0 >
bx =
0<
b11011110101011011011111011101111 ;
0:
09
08
07
06
b0 5
04
03
02
01
10
1/
1.
0-
0,
x+
bx *
x)
b0 (
0'
bx &
x%
x$
x#
x"
z!
$end
#1
0$
b0 &
b0 Y
b0 |
0)
0"
1R
bx11111 X
b0 P
b0 {
b0 _"
b0 i"
0K
b0 *
b0 [
b0 ~
0#
0%
b0xxx /"
b0 U
b0 x
b0 ."
1<
#2
b0 R"
0V"
0W"
0U"
0<
12
#3
x$
bx &
bx Y
bx |
x)
x"
xR
bx1xxxx X
bx *
bx [
bx ~
x%
b0 /"
1q
b0xxx U
b0xxx x
b0xxx ."
1<
#4
0<
02
#5
b0 *
b0 [
b0 ~
0$
b0 &
b0 Y
b0 |
0)
0"
1R
bx11111 X
0%
b0xxx /"
xq
b0 U
b0 x
b0 ."
1<
#6
bx00000000 b"
bx00000000 f"
b1111111111 X
b0 Q
b0 8"
b0 ?"
b0 \"
0L
b0 W
b0 ]
b0 :"
b0 B"
b0 V
b0 c
b0 9"
b0 A"
0J
b0 O
b0 7"
b0 >"
b0 ^"
b0 h"
0T
0S
b0 I
b0 3"
b0 <"
b0 Q"
0<
12
#7
x$
bx &
bx Y
bx |
x)
x"
xR
b111111xxxx X
bx *
bx [
bx ~
x%
b0 /"
1q
b0xxx U
b0xxx x
b0xxx ."
1<
#8
0$
0@"
0)
0"
1R
b1111111111 X
b100000000 a"
b100000000 g"
b0 *
b0 [
b0 ~
0%
b0 b"
b0 f"
b0 &
b0 Y
b0 |
0+
0;"
02"
0e"
b0 U
b0 x
b0 ."
b0 1"
b0 0"
b0 -"
0F
0k
0j
0E
0o
0n
b0 G
b0 b
b0 v
b0 g
b0 f
b0 H
b0 \
b0 u
b0 a
b0 `
0q
b0 X"
b0 T"
b0 Y"
b0 O"
b0 P"
b0 N"
b0 ["
b0 Z"
0i
0m
b0 e
b0 _
0D
0r
0`"
0w
1C
0<
02
0.
#9
1<
#10
0<
12
#11
1<
#12
0<
02
#13
1<
#14
0<
12
#15
1<
#16
1`"
1w
0C
0<
02
1.
#17
1q
1<
#18
1r
0<
12
#19
1<
#20
0<
02
#21
1<
#22
1;"
12"
1D
0<
12
#23
0q
1<
#24
0<
02
0/
b10101010101010101010101010101010001 l"
#25
1<
#26
0;"
02"
0D
0r
0<
12
#27
1q
1<
#28
0<
02
#29
1<
#30
1r
0<
12
#31
1<
#32
05"
0<
02
1,
#33
1<
#34
1;"
12"
1D
0<
12
#35
0q
1<
#36
15"
0<
02
11
13
b0 =
#37
1<
#38
0;"
02"
b100000000000000000000000000000000000 Z"
0D
0r
0<
12
#39
1q
1<
#40
05"
0<
02
03
b1 =
#41
1<
#42
1r
b10000000000000000000000000000000000 Z"
0<
12
#43
1<
#44
0<
02
b10 =
#45
1<
#46
1;"
12"
b1000000000000000000000000000000000 Z"
1D
0<
12
#47
0q
1<
#48
0<
02
b11 =
#49
1<
#50
0;"
02"
0D
0r
b100000000000000000000000000000000 Z"
0<
12
#51
1q
1<
#52
15"
0<
02
13
b100 =
#53
1<
#54
b100010000000000000000000000000000000 Z"
1r
0<
12
#55
1<
#56
05"
0<
02
03
b101 =
#57
1<
#58
1;"
12"
1D
b10001000000000000000000000000000000 Z"
0<
12
#59
0q
1<
#60
15"
0<
02
13
b110 =
#61
1<
#62
0;"
02"
b101000100000000000000000000000000000 Z"
0D
0r
0<
12
#63
1q
1<
#64
05"
0<
02
03
b111 =
#65
1<
#66
1r
b10100010000000000000000000000000000 Z"
0<
12
#67
1<
#68
15"
0<
02
13
b1000 =
#69
1<
#70
1;"
12"
b101010001000000000000000000000000000 Z"
1D
0<
12
#71
0q
1<
#72
05"
0<
02
03
b1001 =
#73
1<
#74
0;"
02"
0D
0r
b10101000100000000000000000000000000 Z"
0<
12
#75
1q
1<
#76
15"
0<
02
13
b1010 =
#77
1<
#78
b101010100010000000000000000000000000 Z"
1r
0<
12
#79
1<
#80
05"
0<
02
03
b1011 =
#81
1<
#82
1;"
12"
1D
b10101010001000000000000000000000000 Z"
0<
12
#83
0q
1<
#84
15"
0<
02
13
b1100 =
#85
1<
#86
0;"
02"
b101010101000100000000000000000000000 Z"
0D
0r
0<
12
#87
1q
1<
#88
05"
0<
02
03
b1101 =
#89
1<
#90
1r
b10101010100010000000000000000000000 Z"
0<
12
#91
1<
#92
15"
0<
02
13
b1110 =
#93
1<
#94
1;"
12"
b101010101010001000000000000000000000 Z"
1D
0<
12
#95
0q
1<
#96
05"
0<
02
03
b1111 =
#97
1<
#98
0;"
02"
0D
0r
b10101010101000100000000000000000000 Z"
0<
12
#99
1q
1<
#100
15"
0<
02
13
b10000 =
#101
1<
#102
b101010101010100010000000000000000000 Z"
1r
0<
12
#103
1<
#104
05"
0<
02
03
b10001 =
#105
1<
#106
1;"
12"
1D
b10101010101010001000000000000000000 Z"
0<
12
#107
0q
1<
#108
15"
0<
02
13
b10010 =
#109
1<
#110
0;"
02"
b101010101010101000100000000000000000 Z"
0D
0r
0<
12
#111
1q
1<
#112
05"
0<
02
03
b10011 =
#113
1<
#114
1r
b10101010101010100010000000000000000 Z"
0<
12
#115
1<
#116
15"
0<
02
13
b10100 =
#117
1<
#118
1;"
12"
b101010101010101010001000000000000000 Z"
1D
0<
12
#119
0q
1<
#120
05"
0<
02
03
b10101 =
#121
1<
#122
0;"
02"
0D
0r
b10101010101010101000100000000000000 Z"
0<
12
#123
1q
1<
#124
15"
0<
02
13
b10110 =
#125
1<
#126
b101010101010101010100010000000000000 Z"
1r
0<
12
#127
1<
#128
05"
0<
02
03
b10111 =
#129
1<
#130
1;"
12"
1D
b10101010101010101010001000000000000 Z"
0<
12
#131
0q
1<
#132
15"
0<
02
13
b11000 =
#133
1<
#134
0;"
02"
b101010101010101010101000100000000000 Z"
0D
0r
0<
12
#135
1q
1<
#136
05"
0<
02
03
b11001 =
#137
1<
#138
1r
b10101010101010101010100010000000000 Z"
0<
12
#139
1<
#140
15"
0<
02
13
b11010 =
#141
1<
#142
1;"
12"
b101010101010101010101010001000000000 Z"
1D
0<
12
#143
0q
1<
#144
05"
0<
02
03
b11011 =
#145
1<
#146
0;"
02"
0D
0r
b10101010101010101010101000100000000 Z"
0<
12
#147
1q
1<
#148
15"
0<
02
13
b11100 =
#149
1<
#150
b101010101010101010101010100010000000 Z"
1r
0<
12
#151
1<
#152
05"
0<
02
03
b11101 =
#153
1<
#154
1;"
12"
1D
b10101010101010101010101010001000000 Z"
0<
12
#155
0q
1<
#156
15"
0<
02
13
b11110 =
#157
1<
#158
0;"
02"
b101010101010101010101010101000100000 Z"
0D
0r
0<
12
#159
1q
1<
#160
05"
0<
02
03
b11111 =
#161
1<
#162
1r
b10101010101010101010101010100010000 Z"
0<
12
#163
1<
#164
15"
0<
02
13
b100000 =
#165
1<
#166
1;"
12"
b101010101010101010101010101010001000 Z"
1D
0<
12
#167
0q
1<
#168
05"
0<
02
03
b100001 =
#169
1<
#170
0;"
02"
0D
0r
b10101010101010101010101010101000100 Z"
0<
12
#171
1q
1<
#172
15"
0<
02
13
b100010 =
#173
1<
#174
b101010101010101010101010101010100010 Z"
1r
0<
12
#175
1<
#176
05"
0<
02
03
b100011 =
#177
1<
#178
1;"
12"
1+
1D
b10101010101010101010101010101010001 Z"
0<
12
#179
0q
1<
#180
z5"
0<
02
01
0,
b100100 =
#181
1<
#182
0;"
02"
0D
0r
0<
12
#183
1q
1<
#184
0<
02
#185
1<
#186
1r
0<
12
#187
1<
#188
0<
02
14
#189
1<
#190
1;"
12"
b1 ["
b1010101010101010101010101010101 N"
1D
0<
12
#191
0q
1<
#192
0<
02
1/
04
#193
1<
#194
0;"
02"
0D
0r
0<
12
#195
1q
1<
#196
0<
02
0/
b11110010 l"
#197
1<
#198
1r
0<
12
#199
1<
#200
0<
02
#201
1<
#202
1;"
12"
1D
0<
12
#203
0q
1<
#204
05"
0<
02
1,
#205
1<
#206
0;"
02"
b1 Z"
0D
0r
0<
12
#207
1q
1<
#208
0<
02
11
b0 =
#209
1<
#210
0+
1r
b0 Z"
0<
12
#211
1<
#212
15"
0<
02
13
b1 =
#213
1<
#214
1;"
12"
b100000000000000000000000000000000000 Z"
1D
0<
12
#215
0q
1<
#216
05"
0<
02
03
b10 =
#217
1<
#218
0;"
02"
0D
0r
b10000000000000000000000000000000000 Z"
0<
12
#219
1q
1<
#220
0<
02
b11 =
#221
1<
#222
b1000000000000000000000000000000000 Z"
1r
0<
12
#223
1<
#224
15"
0<
02
13
b100 =
#225
1<
#226
1;"
12"
1D
b100100000000000000000000000000000000 Z"
0<
12
#227
0q
1<
#228
0<
02
b101 =
#229
1<
#230
0;"
02"
b110010000000000000000000000000000000 Z"
0D
0r
0<
12
#231
1q
1<
#232
0<
02
b110 =
#233
1<
#234
1r
b111001000000000000000000000000000000 Z"
0<
12
#235
1<
#236
0<
02
b111 =
#237
1<
#238
1;"
12"
b111100100000000000000000000000000000 Z"
1D
0<
12
#239
0q
1<
#240
05"
0<
02
03
b1000 =
#241
1<
#242
0;"
02"
0D
0r
b11110010000000000000000000000000000 Z"
0<
12
#243
1q
1<
#244
0<
02
b1001 =
#245
1<
#246
b1111001000000000000000000000000000 Z"
1r
0<
12
#247
1<
#248
0<
02
b1010 =
#249
1<
#250
1;"
12"
1D
b111100100000000000000000000000000 Z"
0<
12
#251
0q
1<
#252
0<
02
b1011 =
#253
1<
#254
0;"
02"
b11110010000000000000000000000000 Z"
0D
0r
0<
12
#255
1q
1<
#256
0<
02
b1100 =
#257
1<
#258
1r
b1111001000000000000000000000000 Z"
0<
12
#259
1<
#260
0<
02
b1101 =
#261
1<
#262
1;"
12"
b111100100000000000000000000000 Z"
1D
0<
12
#263
0q
1<
#264
0<
02
b1110 =
#265
1<
#266
0;"
02"
0D
0r
b11110010000000000000000000000 Z"
0<
12
#267
1q
1<
#268
0<
02
b1111 =
#269
1<
#270
b1111001000000000000000000000 Z"
1r
0<
12
#271
1<
#272
0<
02
b10000 =
#273
1<
#274
1;"
12"
1D
b111100100000000000000000000 Z"
0<
12
#275
0q
1<
#276
0<
02
b10001 =
#277
1<
#278
0;"
02"
b11110010000000000000000000 Z"
0D
0r
0<
12
#279
1q
1<
#280
0<
02
b10010 =
#281
1<
#282
1r
b1111001000000000000000000 Z"
0<
12
#283
1<
#284
0<
02
b10011 =
#285
1<
#286
1;"
12"
b111100100000000000000000 Z"
1D
0<
12
#287
0q
1<
#288
0<
02
b10100 =
#289
1<
#290
0;"
02"
0D
0r
b11110010000000000000000 Z"
0<
12
#291
1q
1<
#292
0<
02
b10101 =
#293
1<
#294
b1111001000000000000000 Z"
1r
0<
12
#295
1<
#296
0<
02
b10110 =
#297
1<
#298
1;"
12"
1D
b111100100000000000000 Z"
0<
12
#299
0q
1<
#300
0<
02
b10111 =
#301
1<
#302
0;"
02"
b11110010000000000000 Z"
0D
0r
0<
12
#303
1q
1<
#304
0<
02
b11000 =
#305
1<
#306
1r
b1111001000000000000 Z"
0<
12
#307
1<
#308
0<
02
b11001 =
#309
1<
#310
1;"
12"
b111100100000000000 Z"
1D
0<
12
#311
0q
1<
#312
0<
02
b11010 =
#313
1<
#314
0;"
02"
0D
0r
b11110010000000000 Z"
0<
12
#315
1q
1<
#316
0<
02
b11011 =
#317
1<
#318
b1111001000000000 Z"
1r
0<
12
#319
1<
#320
0<
02
b11100 =
#321
1<
#322
1;"
12"
1D
b111100100000000 Z"
0<
12
#323
0q
1<
#324
0<
02
b11101 =
#325
1<
#326
0;"
02"
b11110010000000 Z"
0D
0r
0<
12
#327
1q
1<
#328
0<
02
b11110 =
#329
1<
#330
1r
b1111001000000 Z"
0<
12
#331
1<
#332
0<
02
b11111 =
#333
1<
#334
1;"
12"
b111100100000 Z"
1D
0<
12
#335
0q
1<
#336
0<
02
b100000 =
#337
1<
#338
0;"
02"
0D
0r
b11110010000 Z"
0<
12
#339
1q
1<
#340
0<
02
b100001 =
#341
1<
#342
b1111001000 Z"
1r
0<
12
#343
1<
#344
0<
02
b100010 =
#345
1<
#346
1;"
12"
1D
b111100100 Z"
0<
12
#347
0q
1<
#348
0<
02
b100011 =
#349
1<
#350
0;"
02"
b11110010 Z"
0D
0r
0<
12
#351
1q
1<
#352
z5"
0<
02
01
0,
b100100 =
#353
1<
#354
1r
0<
12
#355
1<
#356
0<
02
#357
1<
#358
1;"
12"
1D
0<
12
#359
0q
1<
#360
0<
02
14
#361
1<
#362
0;"
02"
0D
0r
b11 ["
b1111 P"
0<
12
#363
1q
1<
#364
0<
02
1/
04
#365
1<
#366
1r
0<
12
#367
1<
#368
0<
02
0/
b11 l"
#369
1<
#370
1;"
12"
1D
0<
12
#371
0q
1<
#372
0<
02
#373
1<
#374
0;"
02"
0D
0r
0<
12
#375
1q
1<
#376
05"
0<
02
1,
#377
1<
#378
1+
1r
b11 Z"
0<
12
#379
1<
#380
15"
0<
02
11
13
b0 =
#381
1<
#382
1;"
12"
b100000000000000000000000000000000001 Z"
1D
0<
12
#383
0q
1<
#384
0<
02
b1 =
#385
1<
#386
0;"
02"
0+
0D
0r
b110000000000000000000000000000000000 Z"
0<
12
#387
1q
1<
#388
05"
0<
02
03
b10 =
#389
1<
#390
b11000000000000000000000000000000000 Z"
1r
0<
12
#391
1<
#392
0<
02
b11 =
#393
1<
#394
1;"
12"
1D
b1100000000000000000000000000000000 Z"
0<
12
#395
0q
1<
#396
0<
02
b100 =
#397
1<
#398
0;"
02"
b110000000000000000000000000000000 Z"
0D
0r
0<
12
#399
1q
1<
#400
0<
02
b101 =
#401
1<
#402
1r
b11000000000000000000000000000000 Z"
0<
12
#403
1<
#404
0<
02
b110 =
#405
1<
#406
1;"
12"
b1100000000000000000000000000000 Z"
1D
0<
12
#407
0q
1<
#408
0<
02
b111 =
#409
1<
#410
0;"
02"
0D
0r
b110000000000000000000000000000 Z"
0<
12
#411
1q
1<
#412
0<
02
b1000 =
#413
1<
#414
b11000000000000000000000000000 Z"
1r
0<
12
#415
1<
#416
0<
02
b1001 =
#417
1<
#418
1;"
12"
1D
b1100000000000000000000000000 Z"
0<
12
#419
0q
1<
#420
0<
02
b1010 =
#421
1<
#422
0;"
02"
b110000000000000000000000000 Z"
0D
0r
0<
12
#423
1q
1<
#424
0<
02
b1011 =
#425
1<
#426
1r
b11000000000000000000000000 Z"
0<
12
#427
1<
#428
0<
02
b1100 =
#429
1<
#430
1;"
12"
b1100000000000000000000000 Z"
1D
0<
12
#431
0q
1<
#432
0<
02
b1101 =
#433
1<
#434
0;"
02"
0D
0r
b110000000000000000000000 Z"
0<
12
#435
1q
1<
#436
0<
02
b1110 =
#437
1<
#438
b11000000000000000000000 Z"
1r
0<
12
#439
1<
#440
0<
02
b1111 =
#441
1<
#442
1;"
12"
1D
b1100000000000000000000 Z"
0<
12
#443
0q
1<
#444
0<
02
b10000 =
#445
1<
#446
0;"
02"
b110000000000000000000 Z"
0D
0r
0<
12
#447
1q
1<
#448
0<
02
b10001 =
#449
1<
#450
1r
b11000000000000000000 Z"
0<
12
#451
1<
#452
0<
02
b10010 =
#453
1<
#454
1;"
12"
b1100000000000000000 Z"
1D
0<
12
#455
0q
1<
#456
0<
02
b10011 =
#457
1<
#458
0;"
02"
0D
0r
b110000000000000000 Z"
0<
12
#459
1q
1<
#460
0<
02
b10100 =
#461
1<
#462
b11000000000000000 Z"
1r
0<
12
#463
1<
#464
0<
02
b10101 =
#465
1<
#466
1;"
12"
1D
b1100000000000000 Z"
0<
12
#467
0q
1<
#468
0<
02
b10110 =
#469
1<
#470
0;"
02"
b110000000000000 Z"
0D
0r
0<
12
#471
1q
1<
#472
0<
02
b10111 =
#473
1<
#474
1r
b11000000000000 Z"
0<
12
#475
1<
#476
0<
02
b11000 =
#477
1<
#478
1;"
12"
b1100000000000 Z"
1D
0<
12
#479
0q
1<
#480
0<
02
b11001 =
#481
1<
#482
0;"
02"
0D
0r
b110000000000 Z"
0<
12
#483
1q
1<
#484
0<
02
b11010 =
#485
1<
#486
b11000000000 Z"
1r
0<
12
#487
1<
#488
0<
02
b11011 =
#489
1<
#490
1;"
12"
1D
b1100000000 Z"
0<
12
#491
0q
1<
#492
0<
02
b11100 =
#493
1<
#494
0;"
02"
b110000000 Z"
0D
0r
0<
12
#495
1q
1<
#496
0<
02
b11101 =
#497
1<
#498
1r
b11000000 Z"
0<
12
#499
1<
#500
0<
02
b11110 =
#501
1<
#502
1;"
12"
b1100000 Z"
1D
0<
12
#503
0q
1<
#504
0<
02
b11111 =
#505
1<
#506
0;"
02"
0D
0r
b110000 Z"
0<
12
#507
1q
1<
#508
0<
02
b100000 =
#509
1<
#510
b11000 Z"
1r
0<
12
#511
1<
#512
0<
02
b100001 =
#513
1<
#514
1;"
12"
1D
b1100 Z"
0<
12
#515
0q
1<
#516
0<
02
b100010 =
#517
1<
#518
0;"
02"
b110 Z"
0D
0r
0<
12
#519
1q
1<
