project/modules/jtag_interface/testbenches/test_pingpong.vcd
$date
	Thu Apr 17 12:35:01 2025
$end
$version
	Icarus Verilog
$end
$timescale
	1ps
$end
$scope module tb_pingpongbuffer $end
$var wire 32 ! dataOutB [31:0] $end
$var wire 32 " dataOutA [31:0] $end
$var parameter 32 # bitwidth $end
$var parameter 32 $ nrOfEntries $end
$var reg 9 % addressA [8:0] $end
$var reg 9 & addressB [8:0] $end
$var reg 1 ' clock $end
$var reg 32 ( dataInA [31:0] $end
$var reg 32 ) dataInB [31:0] $end
$var reg 1 * reset $end
$var reg 1 + switch $end
$var reg 1 , writeEnableA $end
$var reg 1 - writeEnableB $end
$scope module uut $end
$var wire 9 . addressA [8:0] $end
$var wire 9 / addressB [8:0] $end
$var wire 1 ' clock $end
$var wire 32 0 dataInA [31:0] $end
$var wire 32 1 dataInB [31:0] $end
$var wire 1 * reset $end
$var wire 1 + switch $end
$var wire 1 , writeEnableA $end
$var wire 1 - writeEnableB $end
$var wire 9 2 s_addressB [8:0] $end
$var wire 9 3 s_addressA [8:0] $end
$var wire 32 4 dataOutB [31:0] $end
$var wire 32 5 dataOutA [31:0] $end
$var reg 1 6 switch_reg $end
$scope module ssram $end
$var wire 9 7 addressA [8:0] $end
$var wire 9 8 addressB [8:0] $end
$var wire 1 ' clockA $end
$var wire 1 ' clockB $end
$var wire 32 9 dataInA [31:0] $end
$var wire 32 : dataInB [31:0] $end
$var wire 1 , writeEnableA $end
$var wire 1 - writeEnableB $end
$var reg 32 ; dataOutA [31:0] $end
$var reg 32 < dataOutB [31:0] $end
$upscope $end
$upscope $end
$upscope $end
$enddefinitions $end
$comment Show the parameter values. $end
$dumpall
b1000000000 $
b100000 #
$end
#0
$dumpvars
bx <
bx ;
b0 :
b0 9
b100000000 8
b0 7
06
bx 5
bx 4
b0 3
b100000000 2
b0 1
b0 0
b0 /
b0 .
0-
0,
0+
1*
b0 )
b0 (
0'
b0 &
b0 %
bx "
bx !
$end
#2
1'
#4
0'
#6
1'
#8
0'
#10
1'
#12
0'
1-
1,
b11111111111111111111111111110000 (
b11111111111111111111111111110000 0
b11111111111111111111111111110000 9
0*
#14
b0 !
b0 4
b0 <
b11111111111111111111111111110000 "
b11111111111111111111111111110000 5
b11111111111111111111111111110000 ;
1'
#16
b100000001 2
b100000001 8
b1 3
b1 7
0'
b1 &
b1 /
b1 )
b1 1
b1 :
b1 %
b1 .
b11111111111111111111111111110001 (
b11111111111111111111111111110001 0
b11111111111111111111111111110001 9
#18
b11111111111111111111111111110001 "
b11111111111111111111111111110001 5
b11111111111111111111111111110001 ;
b1 !
b1 4
b1 <
1'
#20
b100000010 2
b100000010 8
b10 3
b10 7
0'
b10 &
b10 /
b10 )
b10 1
b10 :
b10 %
b10 .
b11111111111111111111111111110010 (
b11111111111111111111111111110010 0
b11111111111111111111111111110010 9
#22
b10 !
b10 4
b10 <
b11111111111111111111111111110010 "
b11111111111111111111111111110010 5
b11111111111111111111111111110010 ;
1'
#24
b100000011 2
b100000011 8
b11 3
b11 7
0'
b11 &
b11 /
b11 )
b11 1
b11 :
b11 %
b11 .
b11111111111111111111111111110011 (
b11111111111111111111111111110011 0
b11111111111111111111111111110011 9
#26
b11111111111111111111111111110011 "
b11111111111111111111111111110011 5
b11111111111111111111111111110011 ;
b11 !
b11 4
b11 <
1'
#28
b100000100 2
b100000100 8
b100 3
b100 7
0'
b100 &
b100 /
b100 )
b100 1
b100 :
b100 %
b100 .
b11111111111111111111111111110100 (
b11111111111111111111111111110100 0
b11111111111111111111111111110100 9
#30
b100 !
b100 4
b100 <
b11111111111111111111111111110100 "
b11111111111111111111111111110100 5
b11111111111111111111111111110100 ;
1'
#32
b100000101 2
b100000101 8
b101 3
b101 7
0'
b101 &
b101 /
b101 )
b101 1
b101 :
b101 %
b101 .
b11111111111111111111111111110101 (
b11111111111111111111111111110101 0
b11111111111111111111111111110101 9
#34
b11111111111111111111111111110101 "
b11111111111111111111111111110101 5
b11111111111111111111111111110101 ;
b101 !
b101 4
b101 <
1'
#36
b100000110 2
b100000110 8
b110 3
b110 7
0'
b110 &
b110 /
b110 )
b110 1
b110 :
b110 %
b110 .
b11111111111111111111111111110110 (
b11111111111111111111111111110110 0
b11111111111111111111111111110110 9
#38
b110 !
b110 4
b110 <
b11111111111111111111111111110110 "
b11111111111111111111111111110110 5
b11111111111111111111111111110110 ;
1'
#40
b100000111 2
b100000111 8
b111 3
b111 7
0'
b111 &
b111 /
b111 )
b111 1
b111 :
b111 %
b111 .
b11111111111111111111111111110111 (
b11111111111111111111111111110111 0
b11111111111111111111111111110111 9
#42
b11111111111111111111111111110111 "
b11111111111111111111111111110111 5
b11111111111111111111111111110111 ;
b111 !
b111 4
b111 <
1'
#44
b100001000 2
b100001000 8
b1000 3
b1000 7
0'
b1000 &
b1000 /
b1000 )
b1000 1
b1000 :
b1000 %
b1000 .
b11111111111111111111111111111000 (
b11111111111111111111111111111000 0
b11111111111111111111111111111000 9
#46
b1000 !
b1000 4
b1000 <
b11111111111111111111111111111000 "
b11111111111111111111111111111000 5
b11111111111111111111111111111000 ;
1'
#48
b100001001 2
b100001001 8
b1001 3
b1001 7
0'
b1001 &
b1001 /
b1001 )
b1001 1
b1001 :
b1001 %
b1001 .
b11111111111111111111111111111001 (
b11111111111111111111111111111001 0
b11111111111111111111111111111001 9
#50
b11111111111111111111111111111001 "
b11111111111111111111111111111001 5
b11111111111111111111111111111001 ;
b1001 !
b1001 4
b1001 <
1'
#52
b100001010 2
b100001010 8
b1010 3
b1010 7
0'
b1010 &
b1010 /
b1010 )
b1010 1
b1010 :
b1010 %
b1010 .
b11111111111111111111111111111010 (
b11111111111111111111111111111010 0
b11111111111111111111111111111010 9
#54
b1010 !
b1010 4
b1010 <
b11111111111111111111111111111010 "
b11111111111111111111111111111010 5
b11111111111111111111111111111010 ;
1'
#56
b100000000 2
b100000000 8
b0 3
b0 7
0'
1+
0-
b0 )
b0 1
b0 :
b0 &
b0 /
b0 (
b0 0
b0 9
b0 %
b0 .
0,
#58
b0 2
b0 8
b100000000 3
b100000000 7
16
b11111111111111111111111111110000 "
b11111111111111111111111111110000 5
b11111111111111111111111111110000 ;
b0 !
b0 4
b0 <
1'
#60
0'
0+
#62
b11111111111111111111111111110000 !
b11111111111111111111111111110000 4
b11111111111111111111111111110000 <
b0 "
b0 5
b0 ;
1'
#64
b100000001 3
b100000001 7
b1 2
b1 8
0'
b1 %
b1 .
b1 &
b1 /
#66
b1 "
b1 5
b1 ;
b11111111111111111111111111110001 !
b11111111111111111111111111110001 4
b11111111111111111111111111110001 <
1'
#68
b100000010 3
b100000010 7
b10 2
b10 8
0'
b10 %
b10 .
b10 &
b10 /
#70
b11111111111111111111111111110010 !
b11111111111111111111111111110010 4
b11111111111111111111111111110010 <
b10 "
b10 5
b10 ;
1'
#72
b100000011 3
b100000011 7
b11 2
b11 8
0'
b11 %
b11 .
b11 &
b11 /
#74
b11 "
b11 5
b11 ;
b11111111111111111111111111110011 !
b11111111111111111111111111110011 4
b11111111111111111111111111110011 <
1'
#76
b100000100 3
b100000100 7
b100 2
b100 8
0'
b100 %
b100 .
b100 &
b100 /
#78
b11111111111111111111111111110100 !
b11111111111111111111111111110100 4
b11111111111111111111111111110100 <
b100 "
b100 5
b100 ;
1'
