project/modules/jtag_interface/testbenches/test_jtagsupport.vcd
$date
	Tue May 27 23:34:58 2025
$end
$version
	Icarus Verilog
$end
$timescale
	1ps
$end
$scope module tb_jtagsupport $end
$var wire 1 ! JTDO2 $end
$var wire 1 " busyOUT $end
$var wire 1 # request $end
$var wire 1 $ read_n_writeOUT $end
$var wire 1 % end_transactionOUT $end
$var wire 1 & data_validOUT $end
$var wire 4 ' byte_enableOUT [3:0] $end
$var wire 8 ( busrt_sizeOUT [7:0] $end
$var wire 1 ) begin_transactionOUT $end
$var wire 32 * address_dataOUT [31:0] $end
$var wire 1 + JTDO1 $end
$var reg 1 , JCE1 $end
$var reg 1 - JCE2 $end
$var reg 1 . JRSTN $end
$var reg 1 / JRTI1 $end
$var reg 1 0 JRTI2 $end
$var reg 1 1 JSHIFT $end
$var reg 1 2 JTCK $end
$var reg 1 3 JTDI $end
$var reg 1 4 JUPDATE $end
$var reg 32 5 address_dataIN [31:0] $end
$var reg 1 6 busyIN $end
$var reg 1 7 data_validIN $end
$var reg 1 8 end_transactionIN $end
$var reg 1 9 errorIN $end
$var reg 1 : granted $end
$var reg 32 ; memory_0x55555555 [31:0] $end
$var reg 1 < system_clock $end
$var integer 32 = i [31:0] $end
$scope module dut $end
$var wire 1 , JCE1 $end
$var wire 1 - JCE2 $end
$var wire 1 . JRSTN $end
$var wire 1 / JRTI1 $end
$var wire 1 0 JRTI2 $end
$var wire 1 1 JSHIFT $end
$var wire 1 2 JTCK $end
$var wire 1 3 JTDI $end
$var wire 1 ! JTDO2 $end
$var wire 1 4 JUPDATE $end
$var wire 32 > address_dataIN [31:0] $end
$var wire 10 ? blue [9:0] $end
$var wire 1 6 busyIN $end
$var wire 1 " busyOUT $end
$var wire 1 7 data_validIN $end
$var wire 1 8 end_transactionIN $end
$var wire 1 9 errorIN $end
$var wire 1 : granted $end
$var wire 10 @ red [9:0] $end
$var wire 4 A rgbRow [3:0] $end
$var wire 1 B s_nreset $end
$var wire 1 C s_reset $end
$var wire 1 < system_clock $end
$var wire 1 D system_reset $end
$var wire 6 E s_status_reg_out [5:0] $end
$var wire 1 F s_pp_writeEnable_ipcore $end
$var wire 1 G s_pp_writeEnable_dma $end
$var wire 1 H s_pp_switch_ipcore $end
$var wire 32 I s_pp_dataOut_ipcore [31:0] $end
$var wire 32 J s_pp_dataOut_dma [31:0] $end
$var wire 32 K s_pp_dataIn_ipcore [31:0] $end
$var wire 32 L s_pp_dataIn_dma [31:0] $end
$var wire 9 M s_pp_address_ipcore [8:0] $end
$var wire 9 N s_pp_address_dma [8:0] $end
$var wire 8 O s_dma_cur_state [7:0] $end
$var wire 1 P s_DMA_operation_done $end
$var wire 1 Q s_DMA_launch_write $end
$var wire 1 R s_DMA_launch_simple_switch $end
$var wire 1 S s_DMA_launch_read $end
$var wire 4 T s_DMA_byte_enable [3:0] $end
$var wire 1 U s_DMA_busy $end
$var wire 8 V s_DMA_burst_size_OUT [7:0] $end
$var wire 8 W s_DMA_block_size_OUT [7:0] $end
$var wire 8 X s_DMA_block_size_IN [7:0] $end
$var wire 32 Y s_DMA_address [31:0] $end
$var wire 1 # request $end
$var wire 1 $ read_n_writeOUT $end
$var wire 10 Z green [9:0] $end
$var wire 1 % end_transactionOUT $end
$var wire 1 & data_validOUT $end
$var wire 4 [ byte_enableOUT [3:0] $end
$var wire 8 \ busrt_sizeOUT [7:0] $end
$var wire 1 ) begin_transactionOUT $end
$var wire 32 ] address_dataOUT [31:0] $end
$var wire 1 + JTDO1 $end
$scope module dma_inst $end
$var wire 32 ^ address_dataIN [31:0] $end
$var wire 32 _ address_dataOUT [31:0] $end
$var wire 1 ) begin_transactionOUT $end
$var wire 1 9 bus_errorIN $end
$var wire 8 ` busrt_sizeOUT [7:0] $end
$var wire 1 6 busyIN $end
$var wire 1 " busyOUT $end
$var wire 4 a byte_enableOUT [3:0] $end
$var wire 1 < clock $end
$var wire 1 7 data_validIN $end
$var wire 1 & data_validOUT $end
$var wire 1 8 end_transactionIN $end
$var wire 1 % end_transactionOUT $end
$var wire 1 P ipcore_operation_ended $end
$var wire 1 B n_reset $end
$var wire 32 b pp_dataIn [31:0] $end
$var wire 1 $ read_n_writeOUT $end
$var wire 1 : transactionGranted $end
$var wire 1 c s_dma_done $end
$var wire 8 d s_dma_cur_state [7:0] $end
$var wire 1 # requestTransaction $end
$var wire 1 G pp_writeEnable $end
$var wire 32 e pp_dataOut [31:0] $end
$var wire 9 f pp_address [8:0] $end
$var wire 9 g maxBurstSize [8:0] $end
$var wire 1 Q ipcore_launch_write $end
$var wire 1 R ipcore_launch_simple_switch $end
$var wire 1 S ipcore_launch_read $end
$var wire 1 U ipcore_dma_busy $end
$var wire 4 h ipcore_byte_enable [3:0] $end
$var wire 8 i ipcore_burst_size [7:0] $end
$var wire 8 j ipcore_block_sizeOUT [7:0] $end
$var wire 8 k ipcore_block_sizeIN [7:0] $end
$var wire 32 l ipcore_address [31:0] $end
$var wire 1 m busWrite $end
$var wire 8 n actualBurstSize [7:0] $end
$var parameter 32 o Base $end
$var parameter 5 p fsm_end_transaction_error $end
$var parameter 5 q fsm_end_write_transaction $end
$var parameter 5 r fsm_idle $end
$var parameter 5 s fsm_init $end
$var parameter 5 t fsm_read $end
$var parameter 5 u fsm_request_bus $end
$var parameter 5 v fsm_set_up_transaction $end
$var parameter 5 w fsm_wait_end $end
$var parameter 5 x fsm_write $end
$var reg 32 y address_dataIN_reg [31:0] $end
$var reg 32 z address_dataOUT_reg [31:0] $end
$var reg 1 { begin_transactionOUT_reg $end
$var reg 8 | burst_sizeOUT_reg [7:0] $end
$var reg 32 } bus_block_size_reg [31:0] $end
$var reg 8 ~ bus_burst_size_reg [7:0] $end
$var reg 4 !" bus_byte_enable_reg [3:0] $end
$var reg 32 "" bus_start_address_reg [31:0] $end
$var reg 4 #" byte_enableOUT_reg [3:0] $end
$var reg 5 $" cur_state [4:0] $end
$var reg 1 %" data_validIN_reg $end
$var reg 1 &" data_validOUT_reg $end
$var reg 1 '" end_transactionIN_reg $end
$var reg 1 (" end_transactionOUT_reg $end
$var reg 5 )" nxt_state [4:0] $end
$var reg 1 *" operation_ended_reg $end
$var reg 1 +" operation_launch_reg $end
$var reg 9 ," pp_address_reg [8:0] $end
$var reg 1 -" read_n_writeOUT_reg $end
$var reg 1 ." read_n_write_reg $end
$var reg 9 /" updated_block_size_reg [8:0] $end
$var reg 32 0" updated_bus_start_address_reg [31:0] $end
$var reg 9 1" words_written_reg [8:0] $end
$upscope $end
$scope module ipcore $end
$var wire 8 2" DMA_block_size_IN [7:0] $end
$var wire 1 U DMA_busy $end
$var wire 1 P DMA_operation_done $end
$var wire 1 , JCE1 $end
$var wire 1 - JCE2 $end
$var wire 1 . JRSTN $end
$var wire 1 / JRTI1 $end
$var wire 1 0 JRTI2 $end
$var wire 1 1 JSHIFT $end
$var wire 1 2 JTCK $end
$var wire 1 ! JTD2 $end
$var wire 1 3 JTDI $end
$var wire 1 4 JUPDATE $end
$var wire 1 < system_clk $end
$var wire 6 3" status_reg_out [5:0] $end
$var wire 1 4" s_JTDI_2 $end
$var wire 1 5" s_JTDI_1 $end
$var wire 1 F pp_writeEnable $end
$var wire 1 H pp_switch $end
$var wire 32 6" pp_dataOut [31:0] $end
$var wire 32 7" pp_dataIn [31:0] $end
$var wire 9 8" pp_address [8:0] $end
$var wire 1 + JTD1 $end
$var wire 1 Q DMA_launch_write $end
$var wire 1 R DMA_launch_simple_switch $end
$var wire 1 S DMA_launch_read $end
$var wire 4 9" DMA_byte_enable [3:0] $end
$var wire 8 :" DMA_burst_size_OUT [7:0] $end
$var wire 8 ;" DMA_block_size_OUT [7:0] $end
$var wire 32 <" DMA_address [31:0] $end
$scope module instruction_chain1 $end
$var wire 32 =" DMA_address [31:0] $end
$var wire 8 >" DMA_block_size_IN [7:0] $end
$var wire 8 ?" DMA_block_size_OUT [7:0] $end
$var wire 8 @" DMA_burst_size_OUT [7:0] $end
$var wire 1 U DMA_busy $end
$var wire 4 A" DMA_byte_enable [3:0] $end
$var wire 1 P DMA_operation_done $end
$var wire 1 , JCE1 $end
$var wire 1 . JRSTN $end
$var wire 1 / JRTI1 $end
$var wire 1 1 JSHIFT $end
$var wire 1 2 JTCK $end
$var wire 1 5" JTDI $end
$var wire 1 4 JUPDATE $end
$var wire 1 B" launch_dma $end
$var wire 1 C" n_reset $end
$var wire 1 D" operation_in_progress $end
$var wire 1 < system_clk $end
$var wire 6 E" status_reg_out [5:0] $end
$var wire 1 F" s_launch_write $end
$var wire 1 G" s_launch_simple_switch $end
$var wire 1 H" s_launch_read $end
$var wire 1 I" ready_to_launch $end
$var wire 1 J" read_complete $end
$var wire 1 F pp_writeEnable $end
$var wire 1 H pp_switch $end
$var wire 32 K" pp_dataOut [31:0] $end
$var wire 32 L" pp_dataIn [31:0] $end
$var wire 9 M" pp_address [8:0] $end
$var wire 1 N" buffer_full $end
$var wire 1 + JTD1 $end
$var wire 1 Q DMA_launch_write $end
$var wire 1 R DMA_launch_simple_switch $end
$var wire 1 S DMA_launch_read $end
$var parameter 32 O" ASK_FOR_BUFFER $end
$var parameter 32 P" END_INSTRUCTION $end
$var parameter 32 Q" IDLE $end
$var parameter 32 R" LAUNCH_DMA $end
$var parameter 32 S" READ_BUFFER $end
$var parameter 32 T" SWITCH_BUFFER $end
$var parameter 32 U" WAIT_FOR_DMA $end
$var reg 32 V" address_reg [31:0] $end
$var reg 8 W" block_size_reg [7:0] $end
$var reg 8 X" block_size_reg_shadow [7:0] $end
$var reg 8 Y" buffer_read_reg [7:0] $end
$var reg 8 Z" busrt_size_reg [7:0] $end
$var reg 4 [" byte_enable_reg [3:0] $end
$var reg 3 \" chain1_cur_state [2:0] $end
$var reg 3 ]" chain1_nxt_state [2:0] $end
$var reg 32 ^" data_reg [31:0] $end
$var reg 1 _" launch_read $end
$var reg 1 `" launch_write $end
$var reg 1 a" only_switch $end
$var reg 1 b" read_buffer $end
$var reg 1 c" read_launched $end
$var reg 1 d" read_operation_in_progress $end
$var reg 36 e" shadow_reg [35:0] $end
$var reg 36 f" shift_reg [35:0] $end
$var reg 4 g" status_next [3:0] $end
$var reg 4 h" status_reg [3:0] $end
$var reg 1 i" update_reg $end
$var reg 36 j" updated_data_reg [35:0] $end
$var reg 1 k" write_launched $end
$var reg 1 l" write_operation_in_progress $end
$var reg 1 m" write_to_buffer $end
$scope module synchroFlop1 $end
$var wire 1 F" D $end
$var wire 1 2 clockIn $end
$var wire 1 < clockOut $end
$var wire 1 n" reset $end
$var wire 1 o" s_reset0 $end
$var wire 3 p" s_d [2:0] $end
$var wire 1 Q Q $end
$var reg 3 q" s_states [2:0] $end
$upscope $end
$scope module synchroFlop2 $end
$var wire 1 H" D $end
$var wire 1 2 clockIn $end
$var wire 1 < clockOut $end
$var wire 1 r" reset $end
$var wire 1 s" s_reset0 $end
$var wire 3 t" s_d [2:0] $end
$var wire 1 S Q $end
$var reg 3 u" s_states [2:0] $end
$upscope $end
$scope module synchroFlop3 $end
$var wire 1 G" D $end
$var wire 1 2 clockIn $end
$var wire 1 < clockOut $end
$var wire 1 v" reset $end
$var wire 1 w" s_reset0 $end
$var wire 3 x" s_d [2:0] $end
$var wire 1 R Q $end
$var reg 3 y" s_states [2:0] $end
$upscope $end
$upscope $end
$upscope $end
$scope module pingpongbuffer_inst $end
$var wire 9 z" addressA [8:0] $end
$var wire 9 {" addressB [8:0] $end
$var wire 1 2 clockA $end
$var wire 1 |" clockB $end
$var wire 32 }" dataInA [31:0] $end
$var wire 32 ~" dataInB [31:0] $end
$var wire 1 B reset $end
$var wire 1 H switch $end
$var wire 1 F writeEnableA $end
$var wire 1 G writeEnableB $end
$var wire 9 !# s_addressB [8:0] $end
$var wire 9 "# s_addressA [8:0] $end
$var wire 32 ## dataOutB [31:0] $end
$var wire 32 $# dataOutA [31:0] $end
$var reg 1 %# switch_reg $end
$scope module ssram $end
$var wire 9 &# addressA [8:0] $end
$var wire 9 '# addressB [8:0] $end
$var wire 1 2 clockA $end
$var wire 1 |" clockB $end
$var wire 32 (# dataInA [31:0] $end
$var wire 32 )# dataInB [31:0] $end
$var wire 1 F writeEnableA $end
$var wire 1 G writeEnableB $end
$var reg 32 *# dataOutA [31:0] $end
$var reg 32 +# dataOutB [31:0] $end
$upscope $end
$upscope $end
$upscope $end
$scope task sendInstruction $end
$var reg 36 ,# instruction [35:0] $end
$upscope $end
$upscope $end
$enddefinitions $end
$comment Show the parameter values. $end
$dumpall
b11 U"
b100 T"
b10 S"
b101 R"
b0 Q"
b110 P"
b1 O"
b110 x
b101 w
b11 v
b10 u
b100 t
b1 s
b0 r
b1000 q
b111 p
b1000000000000000000000000000000 o
$end
#0
$dumpvars
bx ,#
bx +#
bx *#
bx )#
bx (#
bx '#
bx &#
x%#
bx $#
bx ##
bx "#
bx !#
bx ~"
bx }"
1|"
bx {"
b0xxxxxxxx z"
bx y"
bx x"
xw"
0v"
bx u"
bx t"
xs"
0r"
bx q"
bx p"
xo"
0n"
xm"
xl"
xk"
bx j"
xi"
bx h"
bx g"
bx f"
bx e"
xd"
xc"
xb"
xa"
x`"
x_"
bx ^"
b0 ]"
bx \"
bx ["
bx Z"
bx Y"
bx X"
bx W"
bx V"
xN"
b0xxxxxxxx M"
bx L"
bx K"
xJ"
xI"
xH"
xG"
xF"
b0x E"
xD"
1C"
xB"
bx A"
bx @"
bx ?"
bx >"
bx ="
bx <"
bx ;"
bx :"
bx 9"
b0xxxxxxxx 8"
bx 7"
bx 6"
z5"
z4"
b0x 3"
bx 2"
bx 1"
bx 0"
bx /"
x."
x-"
bx ,"
x+"
x*"
b0 )"
x("
x'"
x&"
x%"
bx $"
bx #"
bx ""
bx !"
bx ~
bx }
bx |
x{
bx z
bx y
bx n
xm
bx l
bx k
bx j
bx i
bx h
bx g
bx f
bx e
bx d
xc
bx b
bx a
bx `
bx _
b0 ^
bx ]
bx \
bx [
b0xxxxxxxx Z
bx Y
bx X
bx W
bx V
xU
bx T
xS
xR
xQ
xP
bx O
bx N
b0xxxxxxxx M
bx L
bx K
bx J
bx I
xH
xG
xF
b0x E
0D
0C
1B
b0 A
bz @
bz ?
b0 >
bx =
0<
b11011110101011011011111011101111 ;
0:
09
08
07
06
b0 5
04
03
02
01
10
1/
1.
0-
0,
x+
bx *
x)
bx (
bx '
x&
x%
x$
x#
0"
z!
$end
#1
b0x )"
0G
0U
0m
0#
0%"
0'"
b0 L
b0 b
b0 ~"
b0 )#
b0 y
b0 $"
0|"
1<
#2
b0xx ]"
0H
0F"
0H"
0G"
0i"
b0 \"
1|"
0<
12
#3
b0 )"
xU
0&
0&"
0%
0("
b0 *
b0 ]
b0 _
b0 z
b0 (
b0 \
b0 `
b0 |
b0 '
b0 [
b0 a
b0 #"
0$
0-"
0)
0{
b0x $"
0|"
1<
#4
1|"
0<
02
#5
b0x )"
0U
b0 $"
0|"
1<
#6
b0 ]"
b0xx \"
1|"
0<
12
#7
b0 )"
xU
b0x $"
0|"
1<
#8
b1xxxxxxxx !#
b1xxxxxxxx '#
b0 p"
b0 t"
b0 x"
b0xxxxxxxx "#
b0xxxxxxxx &#
0Q
0S
0R
0%#
b0 q"
b0 u"
b0 y"
1C
1o"
1s"
1w"
1|"
0B
1n"
1r"
1v"
1D
0<
02
0C"
0.
#9
b0 n
b1 g
b100000000 !#
b100000000 '#
b0 E
b0 3"
b0 E"
b0 W
b0 j
b0 2"
b0 >"
0U
1c
0c"
0k"
b0 }
b0 !"
b0 ~
b0 ""
b0 $"
0P
0*"
0+"
b0 N
b0 f
b0 ,"
b0 {"
b0 /"
b0 0"
b10100000000000000000000000000000 5
b10100000000000000000000000000000 >
b10100000000000000000000000000000 ^
0|"
1<
#10
b0 ]"
b0 "#
b0 &#
0F
b0 M
b0 8"
b0 M"
b0 z"
0+
0B"
1J"
0D"
b0 K
b0 7"
b0 L"
b0 }"
b0 (#
0I"
0N"
b0 j"
b0 f"
b0 X
b0 k
b0 ;"
b0 ?"
b0 X"
0a"
0`"
0_"
0b"
b0 Y"
0d"
0l"
0m"
b0 ^"
b0 W"
b0 h"
b0 V
b0 i
b0 :"
b0 @"
b0 Z"
b1111 T
b1111 h
b1111 9"
b1111 A"
b1111 ["
b0 Y
b0 l
b0 <"
b0 ="
b0 V"
b0 e"
b0 \"
1|"
0<
12
#11
0."
b10100000000000000000000000000000 L
b10100000000000000000000000000000 b
b10100000000000000000000000000000 ~"
b10100000000000000000000000000000 )#
b10100000000000000000000000000000 y
0|"
1<
#12
1|"
0<
02
#13
0|"
1<
#14
1|"
0<
12
#15
0|"
1<
#16
0C
1B
0o"
0s"
0w"
1|"
0n"
0r"
0v"
0D
0<
02
1C"
1.
#17
0|"
1<
#18
1|"
0<
12
#19
0|"
1<
#20
1|"
0<
02
#21
0|"
1<
#22
1|"
0<
12
#23
0|"
1<
#24
1|"
0<
02
0/
b10101010101010101010101010101010001 ,#
#25
0|"
1<
#26
1|"
0<
12
#27
0|"
1<
#28
1|"
0<
02
#29
0|"
1<
#30
1|"
0<
12
#31
0|"
1<
#32
1|"
05"
0<
02
1,
#33
0|"
1<
#34
1|"
0<
12
#35
0|"
1<
#36
1|"
15"
0<
02
11
13
b0 =
#37
0|"
1<
#38
b100000000000000000000000000000000000 f"
1|"
0<
12
#39
0|"
1<
#40
1|"
05"
0<
02
03
b1 =
#41
0|"
1<
#42
b10000000000000000000000000000000000 f"
1|"
0<
12
#43
0|"
1<
#44
1|"
0<
02
b10 =
#45
0|"
1<
#46
b1000000000000000000000000000000000 f"
1|"
0<
12
#47
0|"
1<
#48
1|"
0<
02
b11 =
#49
0|"
1<
#50
b100000000000000000000000000000000 f"
1|"
0<
12
#51
0|"
1<
#52
1|"
15"
0<
02
13
b100 =
#53
0|"
1<
#54
b100010000000000000000000000000000000 f"
1|"
0<
12
#55
0|"
1<
#56
1|"
05"
0<
02
03
b101 =
#57
0|"
1<
#58
b10001000000000000000000000000000000 f"
1|"
0<
12
#59
0|"
1<
#60
1|"
15"
0<
02
13
b110 =
#61
0|"
1<
#62
b101000100000000000000000000000000000 f"
1|"
0<
12
#63
0|"
1<
#64
1|"
05"
0<
02
03
b111 =
#65
0|"
1<
#66
b10100010000000000000000000000000000 f"
1|"
0<
12
#67
0|"
1<
#68
1|"
15"
0<
02
13
b1000 =
#69
0|"
1<
#70
b101010001000000000000000000000000000 f"
1|"
0<
12
#71
0|"
1<
#72
1|"
05"
0<
02
03
b1001 =
#73
0|"
1<
#74
b10101000100000000000000000000000000 f"
1|"
0<
12
#75
0|"
1<
#76
1|"
15"
0<
02
13
b1010 =
#77
0|"
1<
#78
b101010100010000000000000000000000000 f"
1|"
0<
12
#79
0|"
1<
#80
1|"
05"
0<
02
03
b1011 =
#81
0|"
1<
#82
b10101010001000000000000000000000000 f"
1|"
0<
12
#83
0|"
1<
#84
1|"
15"
0<
02
13
b1100 =
#85
0|"
1<
#86
b101010101000100000000000000000000000 f"
1|"
0<
12
#87
0|"
1<
#88
1|"
05"
0<
02
03
b1101 =
#89
0|"
1<
#90
b10101010100010000000000000000000000 f"
1|"
0<
12
#91
0|"
1<
#92
1|"
15"
0<
02
13
b1110 =
#93
0|"
1<
#94
b101010101010001000000000000000000000 f"
1|"
0<
12
#95
0|"
1<
#96
1|"
05"
0<
02
03
b1111 =
#97
0|"
1<
#98
b10101010101000100000000000000000000 f"
1|"
0<
12
#99
0|"
1<
#100
1|"
15"
0<
02
13
b10000 =
#101
0|"
1<
#102
b101010101010100010000000000000000000 f"
1|"
0<
12
#103
0|"
1<
#104
1|"
05"
0<
02
03
b10001 =
#105
0|"
1<
#106
b10101010101010001000000000000000000 f"
1|"
0<
12
#107
0|"
1<
#108
1|"
15"
0<
02
13
b10010 =
#109
0|"
1<
#110
b101010101010101000100000000000000000 f"
1|"
0<
12
#111
0|"
1<
#112
1|"
05"
0<
02
03
b10011 =
#113
0|"
1<
#114
b10101010101010100010000000000000000 f"
1|"
0<
12
#115
0|"
1<
#116
1|"
15"
0<
02
13
b10100 =
#117
0|"
1<
#118
b101010101010101010001000000000000000 f"
1|"
0<
12
#119
0|"
1<
#120
1|"
05"
0<
02
03
b10101 =
#121
0|"
1<
#122
b10101010101010101000100000000000000 f"
1|"
0<
12
#123
0|"
1<
#124
1|"
15"
0<
02
13
b10110 =
#125
0|"
1<
#126
b101010101010101010100010000000000000 f"
1|"
0<
12
#127
0|"
1<
#128
1|"
05"
0<
02
03
b10111 =
#129
0|"
1<
#130
b10101010101010101010001000000000000 f"
1|"
0<
12
#131
0|"
1<
#132
1|"
15"
0<
02
13
b11000 =
#133
0|"
1<
#134
b101010101010101010101000100000000000 f"
1|"
0<
12
#135
0|"
1<
#136
1|"
05"
0<
02
03
b11001 =
#137
0|"
1<
#138
b10101010101010101010100010000000000 f"
1|"
0<
12
#139
0|"
1<
#140
1|"
15"
0<
02
13
b11010 =
#141
0|"
1<
#142
b101010101010101010101010001000000000 f"
1|"
0<
12
#143
0|"
1<
#144
1|"
05"
0<
02
03
b11011 =
#145
0|"
1<
#146
b10101010101010101010101000100000000 f"
1|"
0<
12
#147
0|"
1<
#148
1|"
15"
0<
02
13
b11100 =
#149
0|"
1<
#150
b101010101010101010101010100010000000 f"
1|"
0<
12
#151
0|"
1<
#152
1|"
05"
0<
02
03
b11101 =
#153
0|"
1<
#154
b10101010101010101010101010001000000 f"
1|"
0<
12
#155
0|"
1<
#156
1|"
15"
0<
02
13
b11110 =
#157
0|"
1<
#158
b101010101010101010101010101000100000 f"
1|"
0<
12
#159
0|"
1<
#160
1|"
05"
0<
02
03
b11111 =
#161
0|"
1<
#162
b10101010101010101010101010100010000 f"
1|"
0<
12
#163
0|"
1<
#164
1|"
15"
0<
02
13
b100000 =
#165
0|"
1<
#166
b101010101010101010101010101010001000 f"
1|"
0<
12
#167
0|"
1<
#168
1|"
05"
0<
02
03
b100001 =
#169
0|"
1<
#170
b10101010101010101010101010101000100 f"
1|"
0<
12
#171
0|"
1<
#172
1|"
15"
0<
02
13
b100010 =
#173
0|"
1<
#174
b101010101010101010101010101010100010 f"
1|"
0<
12
#175
0|"
1<
#176
1|"
05"
0<
02
03
b100011 =
#177
0|"
1<
#178
1+
b10101010101010101010101010101010001 f"
1|"
0<
12
#179
0|"
1<
#180
1|"
z5"
0<
02
01
0,
b100100 =
#181
0|"
1<
#182
1|"
0<
12
#183
0|"
1<
#184
1|"
0<
02
#185
0|"
1<
#186
1|"
0<
12
#187
0|"
1<
#188
1|"
0<
02
14
#189
0|"
1<
#190
b10101010101010101010101010101010001 j"
1i"
1|"
b1 g"
0<
12
#191
0|"
1<
#192
1|"
0<
02
1/
04
#193
0|"
1<
#194
0i"
b1010101010101010101010101010101 Y
b1010101010101010101010101010101 l
b1010101010101010101010101010101 <"
b1010101010101010101010101010101 ="
b1010101010101010101010101010101 V"
b1 e"
b1 h"
1|"
0<
12
#195
0|"
1<
#196
1|"
0<
02
0/
b11110010 ,#
#197
0|"
1<
#198
1|"
0<
12
#199
0|"
1<
#200
1|"
0<
02
#201
0|"
1<
#202
1|"
0<
12
#203
0|"
1<
#204
1|"
05"
0<
02
1,
#205
0|"
1<
#206
b1 f"
1|"
0<
12
#207
0|"
1<
#208
1|"
0<
02
11
b0 =
#209
0|"
1<
#210
0+
b0 f"
1|"
0<
12
#211
0|"
1<
#212
1|"
15"
0<
02
13
b1 =
#213
0|"
1<
#214
b100000000000000000000000000000000000 f"
1|"
0<
12
#215
0|"
1<
#216
1|"
05"
0<
02
03
b10 =
#217
0|"
1<
#218
b10000000000000000000000000000000000 f"
1|"
0<
12
#219
0|"
1<
#220
1|"
0<
02
b11 =
#221
0|"
1<
#222
b1000000000000000000000000000000000 f"
1|"
0<
12
#223
0|"
1<
#224
1|"
15"
0<
02
13
b100 =
#225
0|"
1<
#226
b100100000000000000000000000000000000 f"
1|"
0<
12
#227
0|"
1<
#228
1|"
0<
02
b101 =
#229
0|"
1<
#230
b110010000000000000000000000000000000 f"
1|"
0<
12
#231
0|"
1<
#232
1|"
0<
02
b110 =
#233
0|"
1<
#234
b111001000000000000000000000000000000 f"
1|"
0<
12
#235
0|"
1<
#236
1|"
0<
02
b111 =
#237
0|"
1<
#238
b111100100000000000000000000000000000 f"
1|"
0<
12
#239
0|"
1<
#240
1|"
05"
0<
02
03
b1000 =
#241
0|"
1<
#242
b11110010000000000000000000000000000 f"
1|"
0<
12
#243
0|"
1<
#244
1|"
0<
02
b1001 =
#245
0|"
1<
#246
b1111001000000000000000000000000000 f"
1|"
0<
12
#247
0|"
1<
#248
1|"
0<
02
b1010 =
#249
0|"
1<
#250
b111100100000000000000000000000000 f"
1|"
0<
12
#251
0|"
1<
#252
1|"
0<
02
b1011 =
#253
0|"
1<
#254
b11110010000000000000000000000000 f"
1|"
0<
12
#255
0|"
1<
#256
1|"
0<
02
b1100 =
#257
0|"
1<
#258
b1111001000000000000000000000000 f"
1|"
0<
12
#259
0|"
1<
#260
1|"
0<
02
b1101 =
#261
0|"
1<
#262
b111100100000000000000000000000 f"
1|"
0<
12
#263
0|"
1<
#264
1|"
0<
02
b1110 =
#265
0|"
1<
#266
b11110010000000000000000000000 f"
1|"
0<
12
#267
0|"
1<
#268
1|"
0<
02
b1111 =
#269
0|"
1<
#270
b1111001000000000000000000000 f"
1|"
0<
12
#271
0|"
1<
#272
1|"
0<
02
b10000 =
#273
0|"
1<
#274
b111100100000000000000000000 f"
1|"
0<
12
#275
0|"
1<
#276
1|"
0<
02
b10001 =
#277
0|"
1<
#278
b11110010000000000000000000 f"
1|"
0<
12
#279
0|"
1<
#280
1|"
0<
02
b10010 =
#281
0|"
1<
#282
b1111001000000000000000000 f"
1|"
0<
12
#283
0|"
1<
#284
1|"
0<
02
b10011 =
#285
0|"
1<
#286
b111100100000000000000000 f"
1|"
0<
12
#287
0|"
1<
#288
1|"
0<
02
b10100 =
#289
0|"
1<
#290
b11110010000000000000000 f"
1|"
0<
12
#291
0|"
1<
#292
1|"
0<
02
b10101 =
#293
0|"
1<
#294
b1111001000000000000000 f"
1|"
0<
12
#295
0|"
1<
#296
1|"
0<
02
b10110 =
#297
0|"
1<
#298
b111100100000000000000 f"
1|"
0<
12
#299
0|"
1<
#300
1|"
0<
02
b10111 =
#301
0|"
1<
#302
b11110010000000000000 f"
1|"
0<
12
#303
0|"
1<
#304
1|"
0<
02
b11000 =
#305
0|"
1<
#306
b1111001000000000000 f"
1|"
0<
12
#307
0|"
1<
#308
1|"
0<
02
b11001 =
#309
0|"
1<
#310
b111100100000000000 f"
1|"
0<
12
#311
0|"
1<
#312
1|"
0<
02
b11010 =
#313
0|"
1<
#314
b11110010000000000 f"
1|"
0<
12
#315
0|"
1<
#316
1|"
0<
02
b11011 =
#317
0|"
1<
#318
b1111001000000000 f"
1|"
0<
12
#319
0|"
1<
#320
1|"
0<
02
b11100 =
#321
0|"
1<
#322
b111100100000000 f"
1|"
0<
12
#323
0|"
1<
#324
1|"
0<
02
b11101 =
#325
0|"
1<
#326
b11110010000000 f"
1|"
0<
12
#327
0|"
1<
#328
1|"
0<
02
b11110 =
#329
0|"
1<
#330
b1111001000000 f"
1|"
0<
12
#331
0|"
1<
#332
1|"
0<
02
b11111 =
#333
0|"
1<
#334
b111100100000 f"
1|"
0<
12
#335
0|"
1<
#336
1|"
0<
02
b100000 =
#337
0|"
1<
#338
b11110010000 f"
1|"
0<
12
#339
0|"
1<
#340
1|"
0<
02
b100001 =
#341
0|"
1<
#342
b1111001000 f"
1|"
0<
12
#343
0|"
1<
#344
1|"
0<
02
b100010 =
#345
0|"
1<
#346
b111100100 f"
1|"
0<
12
#347
0|"
1<
#348
1|"
0<
02
b100011 =
#349
0|"
1<
#350
b11110010 f"
1|"
0<
12
#351
0|"
1<
#352
1|"
z5"
0<
02
01
0,
b100100 =
#353
0|"
1<
#354
1|"
0<
12
#355
0|"
1<
#356
1|"
0<
02
#357
0|"
1<
#358
1|"
0<
12
#359
0|"
1<
#360
1|"
0<
02
14
#361
0|"
1<
#362
b11110010 j"
1i"
1|"
b11 g"
0<
12
#363
0|"
1<
#364
1|"
0<
02
1/
04
#365
0|"
1<
#366
b11 e"
b11 h"
0i"
1|"
0<
12
#367
0|"
1<
#368
1|"
0<
02
0/
b11 ,#
#369
0|"
1<
#370
1|"
0<
12
#371
0|"
1<
#372
1|"
0<
02
#373
0|"
1<
#374
1|"
0<
12
#375
0|"
1<
#376
1|"
05"
0<
02
1,
#377
0|"
1<
#378
1+
b11 f"
1|"
0<
12
#379
0|"
1<
#380
1|"
15"
0<
02
11
13
b0 =
#381
0|"
1<
#382
b100000000000000000000000000000000001 f"
1|"
0<
12
#383
0|"
1<
#384
1|"
0<
02
b1 =
#385
0|"
1<
#386
0+
b110000000000000000000000000000000000 f"
1|"
0<
12
#387
0|"
1<
#388
1|"
05"
0<
02
03
b10 =
#389
0|"
1<
#390
b11000000000000000000000000000000000 f"
1|"
0<
12
#391
0|"
1<
#392
1|"
0<
02
b11 =
#393
0|"
1<
#394
b1100000000000000000000000000000000 f"
1|"
0<
12
#395
0|"
1<
#396
1|"
0<
02
b100 =
#397
0|"
1<
#398
b110000000000000000000000000000000 f"
1|"
0<
12
#399
0|"
1<
#400
1|"
0<
02
b101 =
#401
0|"
1<
#402
b11000000000000000000000000000000 f"
1|"
0<
12
#403
0|"
1<
#404
1|"
0<
02
b110 =
#405
0|"
1<
#406
b1100000000000000000000000000000 f"
1|"
0<
12
#407
0|"
1<
#408
1|"
0<
02
b111 =
#409
0|"
1<
#410
b110000000000000000000000000000 f"
1|"
0<
12
#411
0|"
1<
#412
1|"
0<
02
b1000 =
#413
0|"
1<
