project/modules/jtag_interface/testbenches/test_jtagsupport.vcd
$date
	Thu May 22 16:51:32 2025
$end
$version
	Icarus Verilog
$end
$timescale
	1ps
$end
$scope module tb_jtagsupport $end
$var wire 1 ! JTDO2 $end
$var wire 1 " busyOUT $end
$var wire 1 # request $end
$var wire 1 $ read_n_writeOUT $end
$var wire 1 % end_transactionOUT $end
$var wire 1 & data_validOUT $end
$var wire 4 ' byte_enableOUT [3:0] $end
$var wire 8 ( busrt_sizeOUT [7:0] $end
$var wire 1 ) begin_transactionOUT $end
$var wire 32 * address_dataOUT [31:0] $end
$var wire 1 + JTDO1 $end
$var reg 1 , JCE1 $end
$var reg 1 - JCE2 $end
$var reg 1 . JRSTN $end
$var reg 1 / JRTI1 $end
$var reg 1 0 JRTI2 $end
$var reg 1 1 JSHIFT $end
$var reg 1 2 JTCK $end
$var reg 1 3 JTDI $end
$var reg 1 4 JUPDATE $end
$var reg 32 5 address_dataIN [31:0] $end
$var reg 1 6 busyIN $end
$var reg 1 7 data_validIN $end
$var reg 1 8 end_transactionIN $end
$var reg 1 9 errorIN $end
$var reg 1 : granted $end
$var reg 32 ; memory_0x55555555 [31:0] $end
$var reg 1 < system_clock $end
$var integer 32 = i [31:0] $end
$scope module dut $end
$var wire 1 , JCE1 $end
$var wire 1 - JCE2 $end
$var wire 1 . JRSTN $end
$var wire 1 / JRTI1 $end
$var wire 1 0 JRTI2 $end
$var wire 1 1 JSHIFT $end
$var wire 1 2 JTCK $end
$var wire 1 3 JTDI $end
$var wire 1 ! JTDO2 $end
$var wire 1 4 JUPDATE $end
$var wire 32 > address_dataIN [31:0] $end
$var wire 10 ? blue [9:0] $end
$var wire 1 6 busyIN $end
$var wire 1 " busyOUT $end
$var wire 1 7 data_validIN $end
$var wire 1 8 end_transactionIN $end
$var wire 1 9 errorIN $end
$var wire 1 : granted $end
$var wire 10 @ red [9:0] $end
$var wire 4 A rgbRow [3:0] $end
$var wire 1 B s_nreset $end
$var wire 1 C s_reset $end
$var wire 1 < system_clock $end
$var wire 1 D system_reset $end
$var wire 6 E s_status_reg_out [5:0] $end
$var wire 1 F s_pp_writeEnable_ipcore $end
$var wire 1 G s_pp_writeEnable_dma $end
$var wire 1 H s_pp_switch_ipcore $end
$var wire 32 I s_pp_dataOut_ipcore [31:0] $end
$var wire 32 J s_pp_dataOut_dma [31:0] $end
$var wire 32 K s_pp_dataIn_ipcore [31:0] $end
$var wire 32 L s_pp_dataIn_dma [31:0] $end
$var wire 9 M s_pp_address_ipcore [8:0] $end
$var wire 9 N s_pp_address_dma [8:0] $end
$var wire 4 O s_dma_cur_state [3:0] $end
$var wire 1 P s_DMA_launch_write $end
$var wire 1 Q s_DMA_launch_simple_switch $end
$var wire 1 R s_DMA_launch_read $end
$var wire 4 S s_DMA_byte_enable [3:0] $end
$var wire 1 T s_DMA_busy $end
$var wire 8 U s_DMA_burst_size_OUT [7:0] $end
$var wire 8 V s_DMA_block_size_OUT [7:0] $end
$var wire 8 W s_DMA_block_size_IN [7:0] $end
$var wire 32 X s_DMA_address [31:0] $end
$var wire 1 # request $end
$var wire 1 $ read_n_writeOUT $end
$var wire 10 Y green [9:0] $end
$var wire 1 % end_transactionOUT $end
$var wire 1 & data_validOUT $end
$var wire 4 Z byte_enableOUT [3:0] $end
$var wire 8 [ busrt_sizeOUT [7:0] $end
$var wire 1 ) begin_transactionOUT $end
$var wire 32 \ address_dataOUT [31:0] $end
$var wire 1 + JTDO1 $end
$scope module dma_inst $end
$var wire 32 ] address_dataIN [31:0] $end
$var wire 1 ) begin_transactionOUT $end
$var wire 1 9 bus_errorIN $end
$var wire 8 ^ busrt_sizeOUT [7:0] $end
$var wire 1 6 busyIN $end
$var wire 1 " busyOUT $end
$var wire 4 _ byte_enableOUT [3:0] $end
$var wire 1 < clock $end
$var wire 1 7 data_validIN $end
$var wire 1 & data_validOUT $end
$var wire 1 8 end_transactionIN $end
$var wire 1 % end_transactionOUT $end
$var wire 1 B n_reset $end
$var wire 32 ` pp_dataIn [31:0] $end
$var wire 1 $ read_n_writeOUT $end
$var wire 1 : transactionGranted $end
$var wire 1 a s_dma_done $end
$var wire 4 b s_dma_cur_state [3:0] $end
$var wire 8 c s_actual_burst_size [7:0] $end
$var wire 1 # requestTransaction $end
$var wire 1 G pp_writeEnable $end
$var wire 32 d pp_dataOut [31:0] $end
$var wire 9 e pp_address [8:0] $end
$var wire 1 P ipcore_launch_write $end
$var wire 1 Q ipcore_launch_simple_switch $end
$var wire 1 R ipcore_launch_read $end
$var wire 1 T ipcore_dma_busy $end
$var wire 4 f ipcore_byte_enable [3:0] $end
$var wire 8 g ipcore_burst_size [7:0] $end
$var wire 8 h ipcore_block_sizeOUT [7:0] $end
$var wire 8 i ipcore_block_sizeIN [7:0] $end
$var wire 32 j ipcore_address [31:0] $end
$var wire 1 k busWrite $end
$var wire 32 l address_dataOUT [31:0] $end
$var parameter 32 m Base $end
$var parameter 5 n fsm_end_transaction_error $end
$var parameter 5 o fsm_end_write_transaction $end
$var parameter 5 p fsm_idle $end
$var parameter 5 q fsm_init $end
$var parameter 5 r fsm_read $end
$var parameter 5 s fsm_request_bus $end
$var parameter 5 t fsm_set_up_transaction $end
$var parameter 5 u fsm_wait_end $end
$var parameter 5 v fsm_write $end
$var reg 32 w address_dataIN_reg [31:0] $end
$var reg 32 x address_dataOUT_reg [31:0] $end
$var reg 1 y begin_transactionOUT_reg $end
$var reg 8 z burst_sizeOUT_reg [7:0] $end
$var reg 32 { bus_block_size_reg [31:0] $end
$var reg 8 | bus_burst_size_reg [7:0] $end
$var reg 4 } bus_byte_enable_reg [3:0] $end
$var reg 32 ~ bus_start_address_reg [31:0] $end
$var reg 4 !" byte_enableOUT_reg [3:0] $end
$var reg 5 "" cur_state [4:0] $end
$var reg 1 #" data_validIN_reg $end
$var reg 1 $" data_validOUT_reg $end
$var reg 1 %" end_transactionIN_reg $end
$var reg 1 &" end_transactionOUT_reg $end
$var reg 5 '" nxt_state [4:0] $end
$var reg 9 (" pp_address_reg [8:0] $end
$var reg 1 )" read_n_writeOUT_reg $end
$var reg 1 *" read_n_write_reg $end
$var reg 9 +" updated_block_size_reg [8:0] $end
$var reg 32 ," updated_bus_start_address_reg [31:0] $end
$var reg 9 -" words_written_reg [8:0] $end
$upscope $end
$scope module ipcore $end
$var wire 8 ." DMA_block_size_IN [7:0] $end
$var wire 1 T DMA_busy $end
$var wire 1 , JCE1 $end
$var wire 1 - JCE2 $end
$var wire 1 . JRSTN $end
$var wire 1 / JRTI1 $end
$var wire 1 0 JRTI2 $end
$var wire 1 1 JSHIFT $end
$var wire 1 2 JTCK $end
$var wire 1 ! JTD2 $end
$var wire 1 3 JTDI $end
$var wire 1 4 JUPDATE $end
$var wire 1 < system_clk $end
$var wire 6 /" status_reg_out [5:0] $end
$var wire 1 0" s_JTDI_2 $end
$var wire 1 1" s_JTDI_1 $end
$var wire 1 F pp_writeEnable $end
$var wire 1 H pp_switch $end
$var wire 32 2" pp_dataOut [31:0] $end
$var wire 32 3" pp_dataIn [31:0] $end
$var wire 9 4" pp_address [8:0] $end
$var wire 1 + JTD1 $end
$var wire 1 P DMA_launch_write $end
$var wire 1 Q DMA_launch_simple_switch $end
$var wire 1 R DMA_launch_read $end
$var wire 4 5" DMA_byte_enable [3:0] $end
$var wire 8 6" DMA_burst_size_OUT [7:0] $end
$var wire 8 7" DMA_block_size_OUT [7:0] $end
$var wire 32 8" DMA_address [31:0] $end
$scope module instruction_chain1 $end
$var wire 32 9" DMA_address [31:0] $end
$var wire 8 :" DMA_block_size_IN [7:0] $end
$var wire 8 ;" DMA_block_size_OUT [7:0] $end
$var wire 8 <" DMA_burst_size_OUT [7:0] $end
$var wire 1 T DMA_busy $end
$var wire 4 =" DMA_byte_enable [3:0] $end
$var wire 1 , JCE1 $end
$var wire 1 . JRSTN $end
$var wire 1 / JRTI1 $end
$var wire 1 1 JSHIFT $end
$var wire 1 2 JTCK $end
$var wire 1 1" JTDI $end
$var wire 1 4 JUPDATE $end
$var wire 1 >" launch_dma $end
$var wire 1 ?" n_reset $end
$var wire 1 @" operation_in_progress $end
$var wire 1 < system_clk $end
$var wire 6 A" status_reg_out [5:0] $end
$var wire 1 B" s_launch_write $end
$var wire 1 C" s_launch_simple_switch $end
$var wire 1 D" s_launch_read $end
$var wire 1 E" ready_to_launch $end
$var wire 1 F" read_complete $end
$var wire 1 F pp_writeEnable $end
$var wire 1 H pp_switch $end
$var wire 32 G" pp_dataOut [31:0] $end
$var wire 32 H" pp_dataIn [31:0] $end
$var wire 9 I" pp_address [8:0] $end
$var wire 1 J" buffer_full $end
$var wire 1 + JTD1 $end
$var wire 1 P DMA_launch_write $end
$var wire 1 Q DMA_launch_simple_switch $end
$var wire 1 R DMA_launch_read $end
$var parameter 32 K" ASK_FOR_BUFFER $end
$var parameter 32 L" END_INSTRUCTION $end
$var parameter 32 M" IDLE $end
$var parameter 32 N" LAUNCH_DMA $end
$var parameter 32 O" READ_BUFFER $end
$var parameter 32 P" SWITCH_BUFFER $end
$var parameter 32 Q" WAIT_FOR_DMA $end
$var reg 32 R" address_reg [31:0] $end
$var reg 8 S" block_size_reg [7:0] $end
$var reg 8 T" block_size_reg_shadow [7:0] $end
$var reg 8 U" buffer_read_reg [7:0] $end
$var reg 8 V" busrt_size_reg [7:0] $end
$var reg 4 W" byte_enable_reg [3:0] $end
$var reg 3 X" chain1_cur_state [2:0] $end
$var reg 3 Y" chain1_nxt_state [2:0] $end
$var reg 32 Z" data_reg [31:0] $end
$var reg 1 [" launch_read $end
$var reg 1 \" launch_write $end
$var reg 1 ]" only_switch $end
$var reg 1 ^" read_buffer $end
$var reg 1 _" read_launched $end
$var reg 1 `" read_operation_in_progress $end
$var reg 36 a" shadow_reg [35:0] $end
$var reg 36 b" shift_reg [35:0] $end
$var reg 4 c" status_next [3:0] $end
$var reg 4 d" status_reg [3:0] $end
$var reg 1 e" update_reg $end
$var reg 36 f" updated_data_reg [35:0] $end
$var reg 1 g" write_launched $end
$var reg 1 h" write_operation_in_progress $end
$var reg 1 i" write_to_buffer $end
$scope module synchroFlop1 $end
$var wire 1 B" D $end
$var wire 1 2 clockIn $end
$var wire 1 < clockOut $end
$var wire 1 j" reset $end
$var wire 1 k" s_reset0 $end
$var wire 3 l" s_d [2:0] $end
$var wire 1 P Q $end
$var reg 3 m" s_states [2:0] $end
$upscope $end
$scope module synchroFlop2 $end
$var wire 1 D" D $end
$var wire 1 2 clockIn $end
$var wire 1 < clockOut $end
$var wire 1 n" reset $end
$var wire 1 o" s_reset0 $end
$var wire 3 p" s_d [2:0] $end
$var wire 1 R Q $end
$var reg 3 q" s_states [2:0] $end
$upscope $end
$scope module synchroFlop3 $end
$var wire 1 C" D $end
$var wire 1 2 clockIn $end
$var wire 1 < clockOut $end
$var wire 1 r" reset $end
$var wire 1 s" s_reset0 $end
$var wire 3 t" s_d [2:0] $end
$var wire 1 Q Q $end
$var reg 3 u" s_states [2:0] $end
$upscope $end
$upscope $end
$upscope $end
$scope module pingpongbuffer_inst $end
$var wire 9 v" addressA [8:0] $end
$var wire 9 w" addressB [8:0] $end
$var wire 1 2 clockA $end
$var wire 1 < clockB $end
$var wire 32 x" dataInA [31:0] $end
$var wire 32 y" dataInB [31:0] $end
$var wire 1 B reset $end
$var wire 1 H switch $end
$var wire 1 F writeEnableA $end
$var wire 1 G writeEnableB $end
$var wire 9 z" s_addressB [8:0] $end
$var wire 9 {" s_addressA [8:0] $end
$var wire 32 |" dataOutB [31:0] $end
$var wire 32 }" dataOutA [31:0] $end
$var reg 1 ~" switch_reg $end
$scope module ssram $end
$var wire 9 !# addressA [8:0] $end
$var wire 9 "# addressB [8:0] $end
$var wire 1 2 clockA $end
$var wire 1 < clockB $end
$var wire 32 ## dataInA [31:0] $end
$var wire 32 $# dataInB [31:0] $end
$var wire 1 F writeEnableA $end
$var wire 1 G writeEnableB $end
$var reg 32 %# dataOutA [31:0] $end
$var reg 32 &# dataOutB [31:0] $end
$upscope $end
$upscope $end
$upscope $end
$scope task sendInstruction $end
$var reg 36 '# instruction [35:0] $end
$upscope $end
$upscope $end
$enddefinitions $end
$comment Show the parameter values. $end
$dumpall
b11 Q"
b100 P"
b10 O"
b101 N"
b0 M"
b110 L"
b1 K"
b110 v
b101 u
b11 t
b10 s
b100 r
b1 q
b0 p
b1000 o
b111 n
b1000000000000000000000000000000 m
$end
#0
$dumpvars
bx '#
bx &#
bx %#
bx $#
bx ##
bx "#
bx !#
x~"
bx }"
bx |"
bx {"
bx z"
bx y"
bx x"
bx w"
b0xxxxxxxx v"
bx u"
bx t"
xs"
0r"
bx q"
bx p"
xo"
0n"
bx m"
bx l"
xk"
0j"
xi"
xh"
xg"
bx f"
xe"
bx d"
bx c"
bx b"
bx a"
x`"
x_"
x^"
x]"
x\"
x["
bx Z"
b0 Y"
bx X"
bx W"
bx V"
bx U"
bx T"
bx S"
bx R"
xJ"
b0xxxxxxxx I"
bx H"
bx G"
xF"
xE"
xD"
xC"
xB"
bx A"
x@"
1?"
x>"
bx ="
bx <"
bx ;"
bx :"
bx 9"
bx 8"
bx 7"
bx 6"
bx 5"
b0xxxxxxxx 4"
bx 3"
bx 2"
z1"
z0"
bx /"
bx ."
bx -"
bx ,"
bx +"
x*"
x)"
bx ("
b0 '"
x&"
x%"
x$"
x#"
bx ""
bx !"
bx ~
bx }
bx |
bx {
bx z
xy
bx x
bx w
bx l
xk
bx j
bx i
bx h
bx g
bx f
bx e
bx d
bx c
b0xxx b
xa
bx `
bx _
bx ^
b0 ]
bx \
bx [
bx Z
bx1xxx Y
bx X
bx W
bx V
bx U
xT
bx S
xR
xQ
xP
b0xxx O
bx N
b0xxxxxxxx M
bx L
bx K
bx J
bx I
xH
xG
xF
bx E
0D
0C
1B
b0 A
bz @
bz ?
b0 >
bx =
0<
b11011110101011011011111011101111 ;
0:
09
08
07
06
b0 5
04
03
02
01
10
1/
1.
0-
0,
x+
bx *
x)
bx (
bx '
x&
x%
x$
x#
0"
z!
$end
#1
b0x '"
0G
0T
0k
0#
0#"
0%"
b0 L
b0 `
b0 y"
b0 $#
b0 w
b0 ""
1<
#2
b0xx Y"
b111xx11xxx Y
0H
0B"
0D"
0C"
b0xx0 E
b0xx0 /"
b0xx0 A"
0e"
b0 X"
0<
12
#3
b0 '"
b0 *
b0 \
b0 l
xT
0&
0$"
0%
0&"
b0 x
b0 (
b0 [
b0 ^
b0 z
b0 '
b0 Z
b0 _
b0 !"
0$
0)"
0)
0y
b0x ""
1<
#4
0<
02
#5
b0x '"
0T
b0 ""
1<
#6
b0 Y"
b1xxxx11xxx Y
b0xxxx0 E
b0xxxx0 /"
b0xxxx0 A"
b0xx X"
0<
12
#7
b0 '"
xT
b0x ""
1<
#8
b1xxxx11111 Y
b0 O
b0 b
b1xxxxxxxx z"
b1xxxxxxxx "#
b0 l"
b0 p"
b0 t"
b0xxxxxxxx {"
b0xxxxxxxx !#
0P
0R
0Q
0~"
b0 m"
b0 q"
b0 u"
1C
1k"
1o"
1s"
0B
1j"
1n"
1r"
1D
0<
02
0?"
0.
#9
b100000000 z"
b100000000 "#
b0 V
b0 h
b0 ."
b0 :"
0T
1a
0_"
0g"
b0 {
b0 }
b1 c
b0 |
b0 ~
b0 ""
b0 N
b0 e
b0 ("
b0 w"
b0 +"
b0 ,"
b0 -"
b10100000000000000000000000000000 5
b10100000000000000000000000000000 >
b10100000000000000000000000000000 ]
1<
#10
b0 Y"
b0 {"
b0 !#
b1111111111 Y
0F
b0 M
b0 4"
b0 I"
b0 v"
0+
0E"
0>"
1F"
0@"
b0 K
b0 3"
b0 H"
b0 x"
b0 ##
0J"
b0 E
b0 /"
b0 A"
b0 f"
b0 b"
b0 W
b0 i
b0 7"
b0 ;"
b0 T"
0]"
0\"
0["
0^"
b0 U"
0`"
0h"
0i"
b0 Z"
b0 S"
b0 d"
b0 U
b0 g
b0 6"
b0 <"
b0 V"
b1111 S
b1111 f
b1111 5"
b1111 ="
b1111 W"
b0 X
b0 j
b0 8"
b0 9"
b0 R"
b0 a"
b0 X"
0<
12
#11
0*"
b10100000000000000000000000000000 L
b10100000000000000000000000000000 `
b10100000000000000000000000000000 y"
b10100000000000000000000000000000 $#
b10100000000000000000000000000000 w
1<
#12
0<
02
#13
1<
#14
0<
12
#15
1<
#16
0C
1B
0k"
0o"
0s"
0j"
0n"
0r"
0D
0<
02
1?"
1.
#17
1<
#18
0<
12
#19
1<
#20
0<
02
#21
1<
#22
0<
12
#23
1<
#24
0<
02
0/
b10101010101010101010101010101010001 '#
#25
1<
#26
0<
12
#27
1<
#28
0<
02
#29
1<
#30
0<
12
#31
1<
#32
01"
0<
02
1,
#33
1<
#34
0<
12
#35
1<
#36
11"
0<
02
11
13
b0 =
#37
1<
#38
b100000000000000000000000000000000000 b"
0<
12
#39
1<
#40
01"
0<
02
03
b1 =
#41
1<
#42
b10000000000000000000000000000000000 b"
0<
12
#43
1<
#44
0<
02
b10 =
#45
1<
#46
b1000000000000000000000000000000000 b"
0<
12
#47
1<
#48
0<
02
b11 =
#49
1<
#50
b100000000000000000000000000000000 b"
0<
12
#51
1<
#52
11"
0<
02
13
b100 =
#53
1<
#54
b100010000000000000000000000000000000 b"
0<
12
#55
1<
#56
01"
0<
02
03
b101 =
#57
1<
#58
b10001000000000000000000000000000000 b"
0<
12
#59
1<
#60
11"
0<
02
13
b110 =
#61
1<
#62
b101000100000000000000000000000000000 b"
0<
12
#63
1<
#64
01"
0<
02
03
b111 =
#65
1<
#66
b10100010000000000000000000000000000 b"
0<
12
#67
1<
#68
11"
0<
02
13
b1000 =
#69
1<
#70
b101010001000000000000000000000000000 b"
0<
12
#71
1<
#72
01"
0<
02
03
b1001 =
#73
1<
#74
b10101000100000000000000000000000000 b"
0<
12
#75
1<
#76
11"
0<
02
13
b1010 =
#77
1<
#78
b101010100010000000000000000000000000 b"
0<
12
#79
1<
#80
01"
0<
02
03
b1011 =
#81
1<
#82
b10101010001000000000000000000000000 b"
0<
12
#83
1<
#84
11"
0<
02
13
b1100 =
#85
1<
#86
b101010101000100000000000000000000000 b"
0<
12
#87
1<
#88
01"
0<
02
03
b1101 =
#89
1<
#90
b10101010100010000000000000000000000 b"
0<
12
#91
1<
#92
11"
0<
02
13
b1110 =
#93
1<
#94
b101010101010001000000000000000000000 b"
0<
12
#95
1<
#96
01"
0<
02
03
b1111 =
#97
1<
#98
b10101010101000100000000000000000000 b"
0<
12
#99
1<
#100
11"
0<
02
13
b10000 =
#101
1<
#102
b101010101010100010000000000000000000 b"
0<
12
#103
1<
#104
01"
0<
02
03
b10001 =
#105
1<
#106
b10101010101010001000000000000000000 b"
0<
12
#107
1<
#108
11"
0<
02
13
b10010 =
#109
1<
#110
b101010101010101000100000000000000000 b"
0<
12
#111
1<
#112
01"
0<
02
03
b10011 =
#113
1<
#114
b10101010101010100010000000000000000 b"
0<
12
#115
1<
#116
11"
0<
02
13
b10100 =
#117
1<
#118
b101010101010101010001000000000000000 b"
0<
12
#119
1<
#120
01"
0<
02
03
b10101 =
#121
1<
#122
b10101010101010101000100000000000000 b"
0<
12
#123
1<
#124
11"
0<
02
13
b10110 =
#125
1<
#126
b101010101010101010100010000000000000 b"
0<
12
#127
1<
#128
01"
0<
02
03
b10111 =
#129
1<
#130
b10101010101010101010001000000000000 b"
0<
12
#131
1<
#132
11"
0<
02
13
b11000 =
#133
1<
#134
b101010101010101010101000100000000000 b"
0<
12
#135
1<
#136
01"
0<
02
03
b11001 =
#137
1<
#138
b10101010101010101010100010000000000 b"
0<
12
#139
1<
#140
11"
0<
02
13
b11010 =
#141
1<
#142
b101010101010101010101010001000000000 b"
0<
12
#143
1<
#144
01"
0<
02
03
b11011 =
#145
1<
#146
b10101010101010101010101000100000000 b"
0<
12
#147
1<
#148
11"
0<
02
13
b11100 =
#149
1<
#150
b101010101010101010101010100010000000 b"
0<
12
#151
1<
#152
01"
0<
02
03
b11101 =
#153
1<
#154
b10101010101010101010101010001000000 b"
0<
12
#155
1<
#156
11"
0<
02
13
b11110 =
#157
1<
#158
b101010101010101010101010101000100000 b"
0<
12
#159
1<
#160
01"
0<
02
03
b11111 =
#161
1<
#162
b10101010101010101010101010100010000 b"
0<
12
#163
1<
#164
11"
0<
02
13
b100000 =
#165
1<
#166
b101010101010101010101010101010001000 b"
0<
12
#167
1<
#168
01"
0<
02
03
b100001 =
#169
1<
#170
b10101010101010101010101010101000100 b"
0<
12
#171
1<
#172
11"
0<
02
13
b100010 =
#173
1<
#174
b101010101010101010101010101010100010 b"
0<
12
#175
1<
#176
01"
0<
02
03
b100011 =
#177
1<
#178
1+
b10101010101010101010101010101010001 b"
0<
12
#179
1<
#180
z1"
0<
02
01
0,
b100100 =
#181
1<
#182
0<
12
#183
1<
#184
0<
02
#185
1<
#186
0<
12
#187
1<
#188
0<
02
14
#189
1<
#190
b10101010101010101010101010101010001 f"
1e"
b1 c"
0<
12
#191
1<
#192
0<
02
1/
04
#193
1<
#194
0e"
b1010101010101010101010101010101 X
b1010101010101010101010101010101 j
b1010101010101010101010101010101 8"
b1010101010101010101010101010101 9"
b1010101010101010101010101010101 R"
b1 a"
b1 d"
0<
12
#195
1<
#196
0<
02
0/
b11110010 '#
#197
1<
#198
0<
12
#199
1<
#200
0<
02
#201
1<
#202
0<
12
#203
1<
#204
01"
0<
02
1,
#205
1<
#206
b1 b"
0<
12
#207
1<
#208
0<
02
11
b0 =
#209
1<
#210
0+
b0 b"
0<
12
#211
1<
#212
11"
0<
02
13
b1 =
#213
1<
#214
b100000000000000000000000000000000000 b"
0<
12
#215
1<
#216
01"
0<
02
03
b10 =
#217
1<
#218
b10000000000000000000000000000000000 b"
0<
12
#219
1<
#220
0<
02
b11 =
#221
1<
#222
b1000000000000000000000000000000000 b"
0<
12
#223
1<
#224
11"
0<
02
13
b100 =
#225
1<
#226
b100100000000000000000000000000000000 b"
0<
12
#227
1<
#228
0<
02
b101 =
#229
1<
#230
b110010000000000000000000000000000000 b"
0<
12
#231
1<
#232
0<
02
b110 =
#233
1<
#234
b111001000000000000000000000000000000 b"
0<
12
#235
1<
#236
0<
02
b111 =
#237
1<
#238
b111100100000000000000000000000000000 b"
0<
12
#239
1<
#240
01"
0<
02
03
b1000 =
#241
1<
#242
b11110010000000000000000000000000000 b"
0<
12
#243
1<
#244
0<
02
b1001 =
#245
1<
#246
b1111001000000000000000000000000000 b"
0<
12
#247
1<
#248
0<
02
b1010 =
#249
1<
#250
b111100100000000000000000000000000 b"
0<
12
#251
1<
#252
0<
02
b1011 =
#253
1<
#254
b11110010000000000000000000000000 b"
0<
12
#255
1<
#256
0<
02
b1100 =
#257
1<
#258
b1111001000000000000000000000000 b"
0<
12
#259
1<
#260
0<
02
b1101 =
#261
1<
#262
b111100100000000000000000000000 b"
0<
12
#263
1<
#264
0<
02
b1110 =
#265
1<
#266
b11110010000000000000000000000 b"
0<
12
#267
1<
#268
0<
02
b1111 =
#269
1<
#270
b1111001000000000000000000000 b"
0<
12
#271
1<
#272
0<
02
b10000 =
#273
1<
#274
b111100100000000000000000000 b"
0<
12
#275
1<
#276
0<
02
b10001 =
#277
1<
#278
b11110010000000000000000000 b"
0<
12
#279
1<
#280
0<
02
b10010 =
#281
1<
#282
b1111001000000000000000000 b"
0<
12
#283
1<
#284
0<
02
b10011 =
#285
1<
#286
b111100100000000000000000 b"
0<
12
#287
1<
#288
0<
02
b10100 =
#289
1<
#290
b11110010000000000000000 b"
0<
12
#291
1<
#292
0<
02
b10101 =
#293
1<
#294
b1111001000000000000000 b"
0<
12
#295
1<
#296
0<
02
b10110 =
#297
1<
#298
b111100100000000000000 b"
0<
12
#299
1<
#300
0<
02
b10111 =
#301
1<
#302
b11110010000000000000 b"
0<
12
#303
1<
#304
0<
02
b11000 =
#305
1<
#306
b1111001000000000000 b"
0<
12
#307
1<
#308
0<
02
b11001 =
#309
1<
#310
b111100100000000000 b"
0<
12
#311
1<
#312
0<
02
b11010 =
#313
1<
#314
b11110010000000000 b"
0<
12
#315
1<
#316
0<
02
b11011 =
#317
1<
#318
b1111001000000000 b"
0<
12
#319
1<
#320
0<
02
b11100 =
#321
1<
#322
b111100100000000 b"
0<
12
#323
1<
#324
0<
02
b11101 =
#325
1<
#326
b11110010000000 b"
0<
12
#327
1<
#328
0<
02
b11110 =
#329
1<
#330
b1111001000000 b"
0<
12
#331
1<
#332
0<
02
b11111 =
#333
1<
#334
b111100100000 b"
0<
12
#335
1<
#336
0<
02
b100000 =
#337
1<
#338
b11110010000 b"
0<
12
#339
1<
#340
0<
02
b100001 =
#341
1<
#342
b1111001000 b"
0<
12
#343
1<
#344
0<
02
b100010 =
#345
1<
#346
b111100100 b"
0<
12
#347
1<
#348
0<
02
b100011 =
#349
1<
#350
b11110010 b"
0<
12
#351
1<
#352
z1"
0<
02
01
0,
b100100 =
#353
1<
#354
0<
12
#355
1<
#356
0<
02
#357
1<
#358
0<
12
#359
1<
#360
0<
02
14
#361
1<
#362
b11110010 f"
1e"
b11 c"
0<
12
#363
1<
#364
0<
02
1/
04
#365
1<
#366
b11 a"
b11 d"
0e"
0<
12
#367
1<
#368
0<
02
0/
b111110011 '#
#369
1<
#370
0<
12
#371
1<
#372
0<
02
#373
1<
#374
0<
12
#375
1<
#376
01"
0<
02
1,
#377
1<
#378
1+
b11 b"
0<
12
#379
1<
#380
11"
0<
02
11
13
b0 =
#381
1<
#382
b100000000000000000000000000000000001 b"
0<
12
#383
1<
#384
0<
02
b1 =
#385
1<
#386
0+
b110000000000000000000000000000000000 b"
0<
12
#387
1<
#388
01"
0<
02
03
b10 =
#389
1<
#390
b11000000000000000000000000000000000 b"
0<
12
#391
1<
#392
0<
02
b11 =
#393
1<
#394
b1100000000000000000000000000000000 b"
0<
12
#395
1<
#396
11"
0<
02
13
b100 =
#397
1<
#398
b100110000000000000000000000000000000 b"
0<
12
#399
1<
#400
0<
02
b101 =
#401
1<
#402
b110011000000000000000000000000000000 b"
0<
12
#403
1<
#404
0<
02
b110 =
#405
1<
#406
b111001100000000000000000000000000000 b"
0<
12
#407
1<
#408
0<
02
b111 =
#409
1<
#410
b111100110000000000000000000000000000 b"
0<
12
#411
1<
#412
0<
02
b1000 =
#413
1<
#414
b111110011000000000000000000000000000 b"
0<
12
#415
1<
#416
01"
0<
02
03
b1001 =
#417
1<
#418
b11111001100000000000000000000000000 b"
0<
12
#419
1<
#420
0<
02
b1010 =
#421
1<
#422
b1111100110000000000000000000000000 b"
0<
12
#423
1<
#424
0<
02
b1011 =
#425
1<
#426
b111110011000000000000000000000000 b"
0<
12
#427
1<
#428
0<
02
b1100 =
#429
1<
#430
b11111001100000000000000000000000 b"
0<
12
#431
1<
#432
0<
02
b1101 =
#433
1<
#434
b1111100110000000000000000000000 b"
0<
12
#435
1<
#436
0<
02
b1110 =
#437
1<
#438
b111110011000000000000000000000 b"
0<
12
#439
1<
#440
0<
02
b1111 =
#441
1<
#442
b11111001100000000000000000000 b"
0<
12
#443
1<
#444
0<
02
b10000 =
#445
1<
#446
b1111100110000000000000000000 b"
0<
12
#447
1<
#448
0<
02
b10001 =
#449
1<
#450
b111110011000000000000000000 b"
0<
12
#451
1<
#452
0<
02
b10010 =
#453
1<
#454
b11111001100000000000000000 b"
0<
12
#455
1<
#456
0<
02
b10011 =
#457
1<
#458
b1111100110000000000000000 b"
0<
12
#459
1<
#460
0<
02
b10100 =
#461
1<
#462
b111110011000000000000000 b"
0<
12
#463
1<
#464
0<
02
b10101 =
#465
1<
#466
b11111001100000000000000 b"
0<
12
#467
1<
#468
0<
02
b10110 =
#469
1<
#470
b1111100110000000000000 b"
0<
12
#471
1<
#472
0<
02
b10111 =
#473
1<
#474
b111110011000000000000 b"
0<
12
#475
1<
#476
0<
02
b11000 =
#477
1<
#478
b11111001100000000000 b"
0<
12
#479
1<
#480
0<
02
b11001 =
#481
1<
#482
b1111100110000000000 b"
0<
12
#483
1<
#484
0<
02
b11010 =
#485
1<
#486
b111110011000000000 b"
0<
12
#487
1<
#488
0<
02
b11011 =
#489
1<
#490
b11111001100000000 b"
0<
12
#491
1<
#492
0<
02
b11100 =
#493
1<
#494
b1111100110000000 b"
0<
12
#495
1<
#496
0<
02
b11101 =
#497
1<
#498
b111110011000000 b"
0<
12
#499
1<
#500
0<
02
b11110 =
#501
1<
#502
b11111001100000 b"
0<
12
#503
1<
#504
0<
02
b11111 =
#505
1<
#506
b1111100110000 b"
0<
12
#507
1<
#508
0<
02
b100000 =
#509
1<
#510
b111110011000 b"
0<
12
#511
1<
#512
0<
02
b100001 =
#513
1<
#514
b11111001100 b"
0<
12
#515
1<
#516
0<
02
b100010 =
#517
1<
#518
b1111100110 b"
0<
12
#519
1<
#520
0<
02
b100011 =
#521
1<
#522
1+
b111110011 b"
0<
12
#523
1<
#524
z1"
0<
02
01
0,
b100100 =
#525
1<
#526
0<
12
#527
1<
#528
0<
02
#529
1<
#530
0<
12
#531
1<
#532
0<
02
14
#533
1<
#534
b111110011 f"
1e"
b111 c"
0<
12
#535
1<
#536
0<
02
1/
04
#537
1<
#538
0e"
b11111 U
b11111 g
b11111 6"
b11111 <"
b11111 V"
b111 a"
b111 d"
0<
12
#539
1<
#540
0<
02
0/
b0 '#
#541
1<
#542
0<
12
#543
1<
#544
0<
02
#545
1<
#546
0<
12
#547
1<
#548
01"
0<
02
1,
#549
1<
#550
b111 b"
0<
12
#551
1<
#552
0<
02
11
b0 =
#553
1<
#554
b11 b"
0<
12
#555
1<
#556
0<
02
b1 =
#557
1<
#558
b1 b"
0<
12
#559
1<
#560
0<
02
b10 =
#561
1<
#562
0+
b0 b"
0<
12
#563
1<
#564
0<
02
b11 =
