project/modules/jtag_interface/testbenches/test_fullyDualPortSSRAM.vcd
$date
	Sun Apr 20 18:46:30 2025
$end
$version
	Icarus Verilog
$end
$timescale
	1ps
$end
$scope module tb_fullyDualPortSSRAM $end
$var wire 32 ! dataOutB [31:0] $end
$var wire 32 " dataOutA [31:0] $end
$var reg 9 # addressA [8:0] $end
$var reg 9 $ addressB [8:0] $end
$var reg 1 % clockA $end
$var reg 1 & clockB $end
$var reg 32 ' dataInA [31:0] $end
$var reg 32 ( dataInB [31:0] $end
$var reg 1 ) writeEnableA $end
$var reg 1 * writeEnableB $end
$scope module uut $end
$var wire 9 + addressA [8:0] $end
$var wire 9 , addressB [8:0] $end
$var wire 1 % clockA $end
$var wire 1 & clockB $end
$var wire 32 - dataInA [31:0] $end
$var wire 32 . dataInB [31:0] $end
$var wire 1 ) writeEnableA $end
$var wire 1 * writeEnableB $end
$var reg 32 / dataOutA [31:0] $end
$var reg 32 0 dataOutB [31:0] $end
$upscope $end
$upscope $end
$enddefinitions $end
$comment Show the parameter values. $end
$dumpall
$end
#0
$dumpvars
bx 0
bx /
b0 .
b0 -
b0 ,
b0 +
0*
0)
b0 (
b0 '
0&
0%
b0 $
b0 #
bx "
bx !
$end
#2000
1&
1%
#4000
0&
0%
#6000
1&
1%
#8000
0&
0%
#10000
1&
1%
#12000
0&
0%
1)
b11011110101011011011111011101111 '
b11011110101011011011111011101111 -
b1 #
b1 +
#14000
1&
1%
#16000
0&
0%
b0 '
b0 -
0)
b0 #
b0 +
#18000
1&
1%
#20000
0&
0%
#22000
1&
1%
#24000
0&
0%
#26000
1&
1%
#28000
0&
0%
b1 $
b1 ,
#30000
b11011110101011011011111011101111 !
b11011110101011011011111011101111 0
1&
1%
#32000
0&
0%
b0 $
b0 ,
#34000
bx !
bx 0
1&
1%
#36000
0&
0%
1*
b11001010111111101011101010111110 (
b11001010111111101011101010111110 .
b10 $
b10 ,
#38000
1&
1%
#40000
0&
0%
0*
b0 (
b0 .
b0 $
b0 ,
#42000
1&
1%
#44000
0&
0%
#46000
1&
1%
#48000
0&
0%
#50000
1&
1%
#52000
0&
0%
b10 #
b10 +
b1 $
b1 ,
#54000
b11011110101011011011111011101111 !
b11011110101011011011111011101111 0
b11001010111111101011101010111110 "
b11001010111111101011101010111110 /
1&
1%
#56000
0&
0%
b0 $
b0 ,
b0 #
b0 +
#58000
bx !
bx 0
bx "
bx /
1&
1%
#60000
0&
0%
1*
b10000111011001010100001100100001 (
b10000111011001010100001100100001 .
b111111110 $
b111111110 ,
1)
b10010001101000101011001111000 '
b10010001101000101011001111000 -
b111111111 #
b111111111 +
#62000
1&
1%
#64000
0&
0%
b0 (
b0 .
b0 $
b0 ,
0*
b0 '
b0 -
b0 #
b0 +
0)
#66000
1&
1%
#68000
0&
0%
#70000
1&
1%
#72000
0&
0%
#74000
1&
1%
#76000
0&
0%
b111111110 $
b111111110 ,
b111111111 #
b111111111 +
#78000
b10000111011001010100001100100001 !
b10000111011001010100001100100001 0
b10010001101000101011001111000 "
b10010001101000101011001111000 /
1&
1%
