project/modules/jtag_interface/testbenches/test_jtagsupport.vcd
$date
	Mon May 12 21:27:05 2025
$end
$version
	Icarus Verilog
$end
$timescale
	1ps
$end
$scope module tb_jtagsupport $end
$var wire 1 ! JTDO2 $end
$var wire 1 " request $end
$var wire 1 # read_n_writeOUT $end
$var wire 1 $ end_transactionOUT $end
$var wire 1 % data_validOUT $end
$var wire 4 & byte_enableOUT [3:0] $end
$var wire 1 ' busyOUT $end
$var wire 8 ( busrt_sizeOUT [7:0] $end
$var wire 1 ) begin_transactionOUT $end
$var wire 32 * address_dataOUT [31:0] $end
$var wire 1 + JTDO1 $end
$var reg 1 , JCE1 $end
$var reg 1 - JCE2 $end
$var reg 1 . JRSTN $end
$var reg 1 / JRTI1 $end
$var reg 1 0 JRTI2 $end
$var reg 1 1 JSHIFT $end
$var reg 1 2 JTCK $end
$var reg 1 3 JTDI $end
$var reg 1 4 JUPDATE $end
$var reg 32 5 address_dataIN [31:0] $end
$var reg 1 6 busyIN $end
$var reg 1 7 data_validIN $end
$var reg 1 8 end_transactionIN $end
$var reg 1 9 errorIN $end
$var reg 1 : granted $end
$var reg 32 ; memory_0x55555555 [31:0] $end
$var reg 1 < system_clock $end
$var integer 32 = i [31:0] $end
$scope module dut $end
$var wire 1 , JCE1 $end
$var wire 1 - JCE2 $end
$var wire 1 . JRSTN $end
$var wire 1 / JRTI1 $end
$var wire 1 0 JRTI2 $end
$var wire 1 1 JSHIFT $end
$var wire 1 2 JTCK $end
$var wire 1 3 JTDI $end
$var wire 1 ! JTDO2 $end
$var wire 1 4 JUPDATE $end
$var wire 32 > address_dataIN [31:0] $end
$var wire 10 ? blue [9:0] $end
$var wire 1 6 busyIN $end
$var wire 1 7 data_validIN $end
$var wire 1 8 end_transactionIN $end
$var wire 1 9 errorIN $end
$var wire 1 : granted $end
$var wire 10 @ red [9:0] $end
$var wire 4 A rgbRow [3:0] $end
$var wire 1 B s_nreset $end
$var wire 9 C s_pp_address_dma [8:0] $end
$var wire 1 D s_reset $end
$var wire 1 < system_clock $end
$var wire 1 E system_reset $end
$var wire 1 F sync_switch_ready $end
$var wire 1 G sync_s_dma_readReady $end
$var wire 1 H sync_s_dma_data_ready $end
$var wire 4 I sync_s_dma_byte_enable [3:0] $end
$var wire 32 J sync_s_dma_address [31:0] $end
$var wire 6 K s_status_reg_out [5:0] $end
$var wire 1 L s_pp_writeEnable_ipcore $end
$var wire 1 M s_pp_writeEnable_dma $end
$var wire 1 N s_pp_switch_ipcore $end
$var wire 32 O s_pp_dataOut_ipcore [31:0] $end
$var wire 32 P s_pp_dataOut_dma [31:0] $end
$var wire 32 Q s_pp_dataIn_ipcore [31:0] $end
$var wire 32 R s_pp_dataIn_dma [31:0] $end
$var wire 9 S s_pp_address_ipcore [8:0] $end
$var wire 1 T s_ipcore_switch_ready $end
$var wire 1 U s_dma_readReady $end
$var wire 1 V s_dma_data_ready $end
$var wire 4 W s_dma_cur_state [3:0] $end
$var wire 4 X s_dma_byte_enable [3:0] $end
$var wire 32 Y s_dma_address [31:0] $end
$var wire 1 " request $end
$var wire 1 # read_n_writeOUT $end
$var wire 10 Z green [9:0] $end
$var wire 1 $ end_transactionOUT $end
$var wire 1 % data_validOUT $end
$var wire 4 [ byte_enableOUT [3:0] $end
$var wire 1 ' busyOUT $end
$var wire 8 \ busrt_sizeOUT [7:0] $end
$var wire 1 ) begin_transactionOUT $end
$var wire 32 ] address_dataOUT [31:0] $end
$var wire 1 + JTDO1 $end
$scope module clock_synchronizer_address $end
$var wire 1 2 clockIn $end
$var wire 1 < clockOut $end
$var wire 1 D reset $end
$var wire 32 ^ Q [31:0] $end
$var wire 32 _ D [31:0] $end
$var parameter 32 ` WIDTH $end
$scope begin sync_logic[0] $end
$var parameter 2 a i $end
$upscope $end
$scope begin sync_logic[1] $end
$var parameter 2 b i $end
$upscope $end
$scope begin sync_logic[2] $end
$var parameter 3 c i $end
$upscope $end
$scope begin sync_logic[3] $end
$var parameter 3 d i $end
$upscope $end
$scope begin sync_logic[4] $end
$var parameter 4 e i $end
$upscope $end
$scope begin sync_logic[5] $end
$var parameter 4 f i $end
$upscope $end
$scope begin sync_logic[6] $end
$var parameter 4 g i $end
$upscope $end
$scope begin sync_logic[7] $end
$var parameter 4 h i $end
$upscope $end
$scope begin sync_logic[8] $end
$var parameter 5 i i $end
$upscope $end
$scope begin sync_logic[9] $end
$var parameter 5 j i $end
$upscope $end
$scope begin sync_logic[10] $end
$var parameter 5 k i $end
$upscope $end
$scope begin sync_logic[11] $end
$var parameter 5 l i $end
$upscope $end
$scope begin sync_logic[12] $end
$var parameter 5 m i $end
$upscope $end
$scope begin sync_logic[13] $end
$var parameter 5 n i $end
$upscope $end
$scope begin sync_logic[14] $end
$var parameter 5 o i $end
$upscope $end
$scope begin sync_logic[15] $end
$var parameter 5 p i $end
$upscope $end
$scope begin sync_logic[16] $end
$var parameter 6 q i $end
$upscope $end
$scope begin sync_logic[17] $end
$var parameter 6 r i $end
$upscope $end
$scope begin sync_logic[18] $end
$var parameter 6 s i $end
$upscope $end
$scope begin sync_logic[19] $end
$var parameter 6 t i $end
$upscope $end
$scope begin sync_logic[20] $end
$var parameter 6 u i $end
$upscope $end
$scope begin sync_logic[21] $end
$var parameter 6 v i $end
$upscope $end
$scope begin sync_logic[22] $end
$var parameter 6 w i $end
$upscope $end
$scope begin sync_logic[23] $end
$var parameter 6 x i $end
$upscope $end
$scope begin sync_logic[24] $end
$var parameter 6 y i $end
$upscope $end
$scope begin sync_logic[25] $end
$var parameter 6 z i $end
$upscope $end
$scope begin sync_logic[26] $end
$var parameter 6 { i $end
$upscope $end
$scope begin sync_logic[27] $end
$var parameter 6 | i $end
$upscope $end
$scope begin sync_logic[28] $end
$var parameter 6 } i $end
$upscope $end
$scope begin sync_logic[29] $end
$var parameter 6 ~ i $end
$upscope $end
$scope begin sync_logic[30] $end
$var parameter 6 !" i $end
$upscope $end
$scope begin sync_logic[31] $end
$var parameter 6 "" i $end
$upscope $end
$upscope $end
$scope module clock_synchronizer_byteEnable $end
$var wire 1 2 clockIn $end
$var wire 1 < clockOut $end
$var wire 1 D reset $end
$var wire 4 #" Q [3:0] $end
$var wire 4 $" D [3:0] $end
$var parameter 32 %" WIDTH $end
$scope begin sync_logic[0] $end
$var parameter 2 &" i $end
$upscope $end
$scope begin sync_logic[1] $end
$var parameter 2 '" i $end
$upscope $end
$scope begin sync_logic[2] $end
$var parameter 3 (" i $end
$upscope $end
$scope begin sync_logic[3] $end
$var parameter 3 )" i $end
$upscope $end
$upscope $end
$scope module clock_synchronizer_dataREady $end
$var wire 1 2 clockIn $end
$var wire 1 < clockOut $end
$var wire 1 E reset $end
$var wire 1 *" s_reset0 $end
$var wire 3 +" s_d [2:0] $end
$var wire 1 H Q $end
$var wire 1 V D $end
$var reg 3 ," s_states [2:0] $end
$upscope $end
$scope module clock_synchronizer_readReady $end
$var wire 1 2 clockIn $end
$var wire 1 < clockOut $end
$var wire 1 D reset $end
$var wire 1 -" s_reset0 $end
$var wire 3 ." s_d [2:0] $end
$var wire 1 G Q $end
$var wire 1 U D $end
$var reg 3 /" s_states [2:0] $end
$upscope $end
$scope module clock_synchronizer_switch $end
$var wire 1 < clockIn $end
$var wire 1 2 clockOut $end
$var wire 1 D reset $end
$var wire 1 0" s_reset0 $end
$var wire 3 1" s_d [2:0] $end
$var wire 1 F Q $end
$var wire 1 T D $end
$var reg 3 2" s_states [2:0] $end
$upscope $end
$scope module dma_inst $end
$var wire 32 3" address_dataIN [31:0] $end
$var wire 9 4" bufferAddress [8:0] $end
$var wire 1 6 busyIN $end
$var wire 1 < clock $end
$var wire 1 7 data_validIN $end
$var wire 1 8 end_transactionIN $end
$var wire 1 9 errorIN $end
$var wire 1 : granted $end
$var wire 32 5" ipcore_address_to_read [31:0] $end
$var wire 4 6" ipcore_byteEnable [3:0] $end
$var wire 1 H ipcore_dataReady $end
$var wire 1 G ipcore_readReady $end
$var wire 1 B reset $end
$var wire 1 7" s_reading_from_buffer_done $end
$var wire 1 M writeEnable $end
$var wire 4 8" s_dma_cur_state [3:0] $end
$var wire 1 " request $end
$var wire 1 # read_n_writeOUT $end
$var wire 1 T ipcore_switch_ready $end
$var wire 1 $ end_transactionOUT $end
$var wire 1 % data_validOUT $end
$var wire 32 9" dataOut [31:0] $end
$var wire 32 :" dataIn [31:0] $end
$var wire 4 ;" byte_enableOUT [3:0] $end
$var wire 1 ' busyOUT $end
$var wire 8 <" busrt_sizeOUT [7:0] $end
$var wire 1 ) begin_transactionOUT $end
$var wire 32 =" address_dataOUT [31:0] $end
$var parameter 32 >" Base $end
$var parameter 32 ?" fsm_asking_for_buffer $end
$var parameter 32 @" fsm_end_transaction $end
$var parameter 32 A" fsm_idle $end
$var parameter 32 B" fsm_read_request $end
$var parameter 32 C" fsm_read_sending_handshake $end
$var parameter 32 D" fsm_reading_data $end
$var parameter 32 E" fsm_reading_from_buffer $end
$var parameter 32 F" fsm_sending_data $end
$var parameter 32 G" fsm_test $end
$var parameter 32 H" fsm_write_request $end
$var parameter 32 I" fsm_write_sending_handshake $end
$var parameter 32 J" fsm_writting_buffer $end
$var reg 32 K" buffer_data [31:0] $end
$var reg 4 L" cur_state [3:0] $end
$var reg 4 M" nxt_state [3:0] $end
$var reg 32 N" s_address [31:0] $end
$var reg 4 O" s_byte_enable [3:0] $end
$upscope $end
$scope module ipcore $end
$var wire 1 , JCE1 $end
$var wire 1 - JCE2 $end
$var wire 1 . JRSTN $end
$var wire 1 / JRTI1 $end
$var wire 1 0 JRTI2 $end
$var wire 1 1 JSHIFT $end
$var wire 1 2 JTCK $end
$var wire 1 ! JTD2 $end
$var wire 1 3 JTDI $end
$var wire 1 4 JUPDATE $end
$var wire 1 P" switch_ready $end
$var wire 6 Q" s_status_reg_out [5:0] $end
$var wire 1 R" s_JTDI_2 $end
$var wire 1 S" s_JTDI_1 $end
$var wire 1 L pp_writeEnable $end
$var wire 1 N pp_switch $end
$var wire 32 T" pp_dataOut [31:0] $end
$var wire 32 U" pp_dataIn [31:0] $end
$var wire 9 V" pp_address [8:0] $end
$var wire 1 U dma_readReady $end
$var wire 1 V dma_data_ready $end
$var wire 4 W" dma_byte_enable [3:0] $end
$var wire 32 X" dma_address [31:0] $end
$var wire 1 + JTD1 $end
$scope module instruction_chain1 $end
$var wire 1 , JCE1 $end
$var wire 1 . JRSTN $end
$var wire 1 / JRTI1 $end
$var wire 1 1 JSHIFT $end
$var wire 1 2 JTCK $end
$var wire 1 S" JTDI $end
$var wire 1 4 JUPDATE $end
$var wire 1 Y" s_ready_to_switch $end
$var wire 1 P" switch_ready $end
$var wire 6 Z" status_reg_out [5:0] $end
$var wire 1 L pp_writeEnable $end
$var wire 1 N pp_switch $end
$var wire 32 [" pp_dataOut [31:0] $end
$var wire 32 \" pp_dataIn [31:0] $end
$var wire 9 ]" pp_address [8:0] $end
$var wire 1 ^" is_operation_running $end
$var wire 1 U dma_readReady $end
$var wire 1 V dma_data_ready $end
$var wire 4 _" dma_byte_enable [3:0] $end
$var wire 32 `" dma_address [31:0] $end
$var wire 1 + JTD1 $end
$var parameter 32 a" IDLE $end
$var parameter 32 b" read_ASK_BUFFER $end
$var parameter 32 c" read_DATA_READY_TO_READ $end
$var parameter 32 d" read_LAUNCH_READ $end
$var parameter 32 e" read_STORE_BUFFER_ANSWER $end
$var parameter 32 f" read_SWITCH_BUFFER $end
$var parameter 32 g" read_WAIT_FOR_SWITCH $end
$var parameter 32 h" write_FILL_BUFFER $end
$var parameter 32 i" write_LAUNCH_WRITE $end
$var parameter 32 j" write_SWITCH_BUFFER $end
$var parameter 32 k" write_WAIT_FOR_SWITCH $end
$var reg 32 l" address_reg [31:0] $end
$var reg 8 m" busrt_size_reg [7:0] $end
$var reg 4 n" byte_enable_reg [3:0] $end
$var reg 5 o" chain1_cur_state [4:0] $end
$var reg 5 p" chain1_nxt_state [4:0] $end
$var reg 32 q" data_reg [31:0] $end
$var reg 8 r" pp_address_reg [7:0] $end
$var reg 1 s" r_data_shifted_in $end
$var reg 1 t" r_data_shifted_out $end
$var reg 1 u" r_launch_read $end
$var reg 32 v" read_data_from_buffer [31:0] $end
$var reg 8 w" remaining_size_reg [7:0] $end
$var reg 36 x" shift_reg [35:0] $end
$var reg 6 y" status_reg [5:0] $end
$upscope $end
$upscope $end
$scope module pingpongbuffer_inst $end
$var wire 9 z" addressA [8:0] $end
$var wire 9 {" addressB [8:0] $end
$var wire 1 2 clockA $end
$var wire 1 < clockB $end
$var wire 32 |" dataInA [31:0] $end
$var wire 32 }" dataInB [31:0] $end
$var wire 1 B reset $end
$var wire 1 N switch $end
$var wire 1 L writeEnableA $end
$var wire 1 M writeEnableB $end
$var wire 9 ~" s_addressB [8:0] $end
$var wire 9 !# s_addressA [8:0] $end
$var wire 32 "# dataOutB [31:0] $end
$var wire 32 ## dataOutA [31:0] $end
$var reg 1 $# switch_reg $end
$scope module ssram $end
$var wire 9 %# addressA [8:0] $end
$var wire 9 &# addressB [8:0] $end
$var wire 1 2 clockA $end
$var wire 1 < clockB $end
$var wire 32 '# dataInA [31:0] $end
$var wire 32 (# dataInB [31:0] $end
$var wire 1 L writeEnableA $end
$var wire 1 M writeEnableB $end
$var reg 32 )# dataOutA [31:0] $end
$var reg 32 *# dataOutB [31:0] $end
$upscope $end
$upscope $end
$upscope $end
$scope task sendInstruction $end
$var reg 36 +# instruction [35:0] $end
$upscope $end
$upscope $end
$enddefinitions $end
$comment Show the parameter values. $end
$dumpall
b10 k"
b11 j"
b100 i"
b1 h"
b110 g"
b1000 f"
b1010 e"
b101 d"
b111 c"
b1001 b"
b0 a"
b1010 J"
b10 I"
b1 H"
b1110 G"
b11 F"
b101 E"
b1001 D"
b1000 C"
b111 B"
b1111 A"
b100 @"
b110 ?"
b1000000000000000000000000000000 >"
b11 )"
b10 ("
b1 '"
b0 &"
b100 %"
b11111 ""
b11110 !"
b11101 ~
b11100 }
b11011 |
b11010 {
b11001 z
b11000 y
b10111 x
b10110 w
b10101 v
b10100 u
b10011 t
b10010 s
b10001 r
b10000 q
b1111 p
b1110 o
b1101 n
b1100 m
b1011 l
b1010 k
b1001 j
b1000 i
b111 h
b110 g
b101 f
b100 e
b11 d
b10 c
b1 b
b0 a
b100000 `
$end
#0
$dumpvars
bx +#
bx *#
bx )#
bx (#
bx '#
bx00000000 &#
bx %#
x$#
bx ##
bx "#
bx !#
bx00000000 ~"
bx }"
bx |"
b0 {"
b0xxxxxxxx z"
bx y"
bx x"
bx w"
bx v"
xu"
xt"
xs"
bx r"
bx q"
bx p"
bx o"
bx n"
bx m"
bx l"
bx `"
bx _"
x^"
b0xxxxxxxx ]"
bx \"
bx ["
bx Z"
xY"
bx X"
bx W"
b0xxxxxxxx V"
bx U"
bx T"
zS"
zR"
bx Q"
xP"
bx O"
bx N"
b1110 M"
bx L"
bx K"
bx ="
b0 <"
bx ;"
bx :"
bx 9"
bx 8"
17"
bx 6"
bx 5"
b0 4"
b0 3"
bx 2"
bx 1"
x0"
bx /"
bx ."
x-"
bx ,"
bx +"
x*"
bx $"
bx #"
bx _
bx ^
bx ]
b0 \
bx [
b0xxxxxxxx1 Z
bx Y
bx X
bx W
xV
xU
xT
b0xxxxxxxx S
bx R
bx Q
bx P
bx O
xN
xM
xL
bx K
bx J
bx I
xH
xG
xF
0E
0D
b0 C
1B
b0 A
bz @
bz ?
b0 >
bx =
0<
b11011110101011011011111011101111 ;
0:
09
08
07
06
b0 5
04
03
02
01
10
1/
1.
0-
0,
x+
bx *
x)
b0 (
0'
bx &
x%
x$
x#
x"
z!
$end
#1
b0 p"
b1x1xxx1 Z
0$
0Y"
0P"
b0 &
b0 [
b0 ;"
0)
0"
0T
b110x W
b110x 8"
b0 R
b0 :"
b0 }"
b0 (#
0M
b0 *
b0 ]
b0 ="
0#
0%
b1110 L"
1<
#2
b1x1x1x1 Z
bx00000000 !#
bx00000000 %#
b0 S
b0 V"
b0 ]"
b0 z"
0N
b0 Y
b0 _
b0 X"
b0 `"
b0 X
b0 $"
b0 W"
b0 _"
bx00000 K
bx00000 Q"
bx00000 Z"
0L
b0 Q
b0 U"
b0 \"
b0 |"
b0 '#
0V
0U
b0 o"
0t"
0u"
0s"
0<
12
#3
1<
#4
0<
02
#5
1<
#6
0<
12
#7
1<
#8
b0 J
b0 ^
b0 5"
0^"
b0 ."
b0 I
b0 #"
b0 6"
b0 1"
b100000000 ~"
b100000000 &#
b0 +"
b1100 W
b1100 8"
0G
0F
b0 !#
b0 %#
0H
0+
b0 /"
b0 2"
0$#
b0 ,"
b0 v"
b0 r"
b0 w"
b0 m"
b0 n"
b0 l"
b0 y"
b0 x"
b1111110 Z
1-"
10"
1D
1*"
0B
1E
0<
02
0.
#9
b1111 M"
b101110 Z
b1 1"
1T
b1110 W
b1110 8"
b1111 L"
b0 O"
b0 N"
b0 K"
1<
#10
0<
12
#11
1<
#12
0<
02
#13
1<
#14
0<
12
#15
1<
#16
b101111 Z
0-"
00"
0D
1B
0*"
0E
0<
02
1.
#17
b11 1"
b1 2"
1<
#18
b101 1"
10"
b10 2"
0<
12
#19
1<
#20
0<
02
#21
1<
#22
b100111 Z
b1 1"
00"
1Y"
1P"
1F
b100 2"
0<
12
#23
b11 1"
b101 2"
1<
#24
0<
02
0/
b10101010101010101010101010101010001 +#
#25
1<
#26
b101111 Z
b101 1"
10"
0Y"
0P"
0F
b10 2"
0<
12
#27
1<
#28
0<
02
#29
1<
#30
b100111 Z
b1 1"
00"
1Y"
1P"
1F
b100 2"
0<
12
#31
b11 1"
b101 2"
1<
#32
0S"
0<
02
1,
#33
1<
#34
b101111 Z
b101 1"
10"
0Y"
0P"
0F
b10 2"
0<
12
#35
1<
#36
1S"
0<
02
11
13
b0 =
#37
1<
#38
b100111 Z
b1 1"
00"
1Y"
1P"
1F
b100 2"
b100000000000000000000000000000000000 x"
0<
12
#39
b11 1"
b101 2"
1<
#40
0S"
0<
02
03
b1 =
#41
1<
#42
b101111 Z
b101 1"
10"
0Y"
0P"
0F
b10 2"
b10000000000000000000000000000000000 x"
0<
12
#43
1<
#44
0<
02
b10 =
#45
1<
#46
b100111 Z
b1 1"
00"
1Y"
1P"
1F
b100 2"
b1000000000000000000000000000000000 x"
0<
12
#47
b11 1"
b101 2"
1<
#48
0<
02
b11 =
#49
1<
#50
b101111 Z
b101 1"
10"
0Y"
0P"
0F
b10 2"
b100000000000000000000000000000000 x"
0<
12
#51
1<
#52
1S"
0<
02
13
b100 =
#53
1<
#54
b100111 Z
b1 1"
00"
1Y"
1P"
1F
b100 2"
b100010000000000000000000000000000000 x"
0<
12
#55
b11 1"
b101 2"
1<
#56
0S"
0<
02
03
b101 =
#57
1<
#58
b101111 Z
b101 1"
10"
0Y"
0P"
0F
b10 2"
b10001000000000000000000000000000000 x"
0<
12
#59
1<
#60
1S"
0<
02
13
b110 =
#61
1<
#62
b100111 Z
b1 1"
00"
1Y"
1P"
1F
b100 2"
b101000100000000000000000000000000000 x"
0<
12
#63
b11 1"
b101 2"
1<
#64
0S"
0<
02
03
b111 =
#65
1<
#66
b101111 Z
b101 1"
10"
0Y"
0P"
0F
b10 2"
b10100010000000000000000000000000000 x"
0<
12
#67
1<
#68
1S"
0<
02
13
b1000 =
#69
1<
#70
b100111 Z
b1 1"
00"
1Y"
1P"
1F
b100 2"
b101010001000000000000000000000000000 x"
0<
12
#71
b11 1"
b101 2"
1<
#72
0S"
0<
02
03
b1001 =
#73
1<
#74
b101111 Z
b101 1"
10"
0Y"
0P"
0F
b10 2"
b10101000100000000000000000000000000 x"
0<
12
#75
1<
#76
1S"
0<
02
13
b1010 =
#77
1<
#78
b100111 Z
b1 1"
00"
1Y"
1P"
1F
b100 2"
b101010100010000000000000000000000000 x"
0<
12
#79
b11 1"
b101 2"
1<
#80
0S"
0<
02
03
b1011 =
#81
1<
#82
b101111 Z
b101 1"
10"
0Y"
0P"
0F
b10 2"
b10101010001000000000000000000000000 x"
0<
12
#83
1<
#84
1S"
0<
02
13
b1100 =
#85
1<
#86
b100111 Z
b1 1"
00"
1Y"
1P"
1F
b100 2"
b101010101000100000000000000000000000 x"
0<
12
#87
b11 1"
b101 2"
1<
#88
0S"
0<
02
03
b1101 =
#89
1<
#90
b101111 Z
b101 1"
10"
0Y"
0P"
0F
b10 2"
b10101010100010000000000000000000000 x"
0<
12
#91
1<
#92
1S"
0<
02
13
b1110 =
#93
1<
#94
b100111 Z
b1 1"
00"
1Y"
1P"
1F
b100 2"
b101010101010001000000000000000000000 x"
0<
12
#95
b11 1"
b101 2"
1<
#96
0S"
0<
02
03
b1111 =
#97
1<
#98
b101111 Z
b101 1"
10"
0Y"
0P"
0F
b10 2"
b10101010101000100000000000000000000 x"
0<
12
#99
1<
#100
1S"
0<
02
13
b10000 =
#101
1<
#102
b100111 Z
b1 1"
00"
1Y"
1P"
1F
b100 2"
b101010101010100010000000000000000000 x"
0<
12
#103
b11 1"
b101 2"
1<
#104
0S"
0<
02
03
b10001 =
#105
1<
#106
b101111 Z
b101 1"
10"
0Y"
0P"
0F
b10 2"
b10101010101010001000000000000000000 x"
0<
12
#107
1<
#108
1S"
0<
02
13
b10010 =
#109
1<
#110
b100111 Z
b1 1"
00"
1Y"
1P"
1F
b100 2"
b101010101010101000100000000000000000 x"
0<
12
#111
b11 1"
b101 2"
1<
#112
0S"
0<
02
03
b10011 =
#113
1<
#114
b101111 Z
b101 1"
10"
0Y"
0P"
0F
b10 2"
b10101010101010100010000000000000000 x"
0<
12
#115
1<
#116
1S"
0<
02
13
b10100 =
#117
1<
#118
b100111 Z
b1 1"
00"
1Y"
1P"
1F
b100 2"
b101010101010101010001000000000000000 x"
0<
12
#119
b11 1"
b101 2"
1<
#120
0S"
0<
02
03
b10101 =
#121
1<
#122
b101111 Z
b101 1"
10"
0Y"
0P"
0F
b10 2"
b10101010101010101000100000000000000 x"
0<
12
#123
1<
#124
1S"
0<
02
13
b10110 =
#125
1<
#126
b100111 Z
b1 1"
00"
1Y"
1P"
1F
b100 2"
b101010101010101010100010000000000000 x"
0<
12
#127
b11 1"
b101 2"
1<
#128
0S"
0<
02
03
b10111 =
#129
1<
#130
b101111 Z
b101 1"
10"
0Y"
0P"
0F
b10 2"
b10101010101010101010001000000000000 x"
0<
12
#131
1<
#132
1S"
0<
02
13
b11000 =
#133
1<
#134
b100111 Z
b1 1"
00"
1Y"
1P"
1F
b100 2"
b101010101010101010101000100000000000 x"
0<
12
#135
b11 1"
b101 2"
1<
#136
0S"
0<
02
03
b11001 =
#137
1<
#138
b101111 Z
b101 1"
10"
0Y"
0P"
0F
b10 2"
b10101010101010101010100010000000000 x"
0<
12
#139
1<
#140
1S"
0<
02
13
b11010 =
#141
1<
#142
b100111 Z
b1 1"
00"
1Y"
1P"
1F
b100 2"
b101010101010101010101010001000000000 x"
0<
12
#143
b11 1"
b101 2"
1<
#144
0S"
0<
02
03
b11011 =
#145
1<
#146
b101111 Z
b101 1"
10"
0Y"
0P"
0F
b10 2"
b10101010101010101010101000100000000 x"
0<
12
#147
1<
#148
1S"
0<
02
13
b11100 =
#149
1<
#150
b100111 Z
b1 1"
00"
1Y"
1P"
1F
b100 2"
b101010101010101010101010100010000000 x"
0<
12
#151
b11 1"
b101 2"
1<
#152
0S"
0<
02
03
b11101 =
#153
1<
#154
b101111 Z
b101 1"
10"
0Y"
0P"
0F
b10 2"
b10101010101010101010101010001000000 x"
0<
12
#155
1<
#156
1S"
0<
02
13
b11110 =
#157
1<
#158
b100111 Z
b1 1"
00"
1Y"
1P"
1F
b100 2"
b101010101010101010101010101000100000 x"
0<
12
#159
b11 1"
b101 2"
1<
#160
0S"
0<
02
03
b11111 =
#161
1<
#162
b101111 Z
b101 1"
10"
0Y"
0P"
0F
b10 2"
b10101010101010101010101010100010000 x"
0<
12
#163
1<
#164
1S"
0<
02
13
b100000 =
#165
1<
#166
b100111 Z
b1 1"
00"
1Y"
1P"
1F
b100 2"
b101010101010101010101010101010001000 x"
0<
12
#167
b11 1"
b101 2"
1<
#168
0S"
0<
02
03
b100001 =
#169
1<
#170
b101111 Z
b101 1"
10"
0Y"
0P"
0F
b10 2"
b10101010101010101010101010101000100 x"
0<
12
#171
1<
#172
1S"
0<
02
13
b100010 =
#173
1<
#174
b100111 Z
b1 1"
00"
1Y"
1P"
1F
b100 2"
b101010101010101010101010101010100010 x"
0<
12
#175
b11 1"
b101 2"
1<
#176
0S"
0<
02
03
b100011 =
#177
1<
#178
b101111 Z
b101 1"
10"
0Y"
0P"
0F
1+
b10 2"
b10101010101010101010101010101010001 x"
0<
12
#179
1<
#180
zS"
0<
02
01
0,
b100100 =
#181
1<
#182
b100111 Z
b1 1"
00"
1Y"
1P"
1F
b100 2"
0<
12
#183
b11 1"
b101 2"
1<
#184
0<
02
#185
1<
#186
b101111 Z
b101 1"
10"
0Y"
0P"
0F
b10 2"
0<
12
#187
1<
#188
0<
02
14
#189
1<
#190
b100111 Z
b1 1"
00"
1Y"
1P"
1F
b100 2"
b1 y"
b1010101010101010101010101010101 l"
0<
12
#191
b11 1"
b101 2"
1<
#192
0<
02
1/
04
#193
1<
#194
b101111 Z
b101 1"
10"
0Y"
0P"
0F
b10 2"
0<
12
#195
1<
#196
0<
02
0/
b11110010 +#
#197
1<
#198
b100111 Z
b1 1"
00"
1Y"
1P"
1F
b100 2"
0<
12
#199
b11 1"
b101 2"
1<
#200
0<
02
#201
1<
#202
b101111 Z
b101 1"
10"
0Y"
0P"
0F
b10 2"
0<
12
#203
1<
#204
0S"
0<
02
1,
#205
1<
#206
b100111 Z
b1 1"
00"
1Y"
1P"
1F
b100 2"
b1 x"
0<
12
#207
b11 1"
b101 2"
1<
#208
0<
02
11
b0 =
#209
1<
#210
b101111 Z
b101 1"
10"
0Y"
0P"
0F
0+
b10 2"
b0 x"
0<
12
#211
1<
#212
1S"
0<
02
13
b1 =
#213
1<
#214
b100111 Z
b1 1"
00"
1Y"
1P"
1F
b100 2"
b100000000000000000000000000000000000 x"
0<
12
#215
b11 1"
b101 2"
1<
#216
0S"
0<
02
03
b10 =
#217
1<
#218
b101111 Z
b101 1"
10"
0Y"
0P"
0F
b10 2"
b10000000000000000000000000000000000 x"
0<
12
#219
1<
#220
0<
02
b11 =
#221
1<
#222
b100111 Z
b1 1"
00"
1Y"
1P"
1F
b100 2"
b1000000000000000000000000000000000 x"
0<
12
#223
b11 1"
b101 2"
1<
#224
1S"
0<
02
13
b100 =
#225
1<
#226
b101111 Z
b101 1"
10"
0Y"
0P"
0F
b10 2"
b100100000000000000000000000000000000 x"
0<
12
#227
1<
#228
0<
02
b101 =
#229
1<
#230
b100111 Z
b1 1"
00"
1Y"
1P"
1F
b100 2"
b110010000000000000000000000000000000 x"
0<
12
#231
b11 1"
b101 2"
1<
#232
0<
02
b110 =
#233
1<
#234
b101111 Z
b101 1"
10"
0Y"
0P"
0F
b10 2"
b111001000000000000000000000000000000 x"
0<
12
#235
1<
#236
0<
02
b111 =
#237
1<
#238
b100111 Z
b1 1"
00"
1Y"
1P"
1F
b100 2"
b111100100000000000000000000000000000 x"
0<
12
#239
b11 1"
b101 2"
1<
#240
0S"
0<
02
03
b1000 =
#241
1<
#242
b101111 Z
b101 1"
10"
0Y"
0P"
0F
b10 2"
b11110010000000000000000000000000000 x"
0<
12
#243
1<
#244
0<
02
b1001 =
#245
1<
#246
b100111 Z
b1 1"
00"
1Y"
1P"
1F
b100 2"
b1111001000000000000000000000000000 x"
0<
12
#247
b11 1"
b101 2"
1<
#248
0<
02
b1010 =
#249
1<
#250
b101111 Z
b101 1"
10"
0Y"
0P"
0F
b10 2"
b111100100000000000000000000000000 x"
0<
12
#251
1<
#252
0<
02
b1011 =
#253
1<
#254
b100111 Z
b1 1"
00"
1Y"
1P"
1F
b100 2"
b11110010000000000000000000000000 x"
0<
12
#255
b11 1"
b101 2"
1<
#256
0<
02
b1100 =
#257
1<
#258
b101111 Z
b101 1"
10"
0Y"
0P"
0F
b10 2"
b1111001000000000000000000000000 x"
0<
12
#259
1<
#260
0<
02
b1101 =
#261
1<
#262
b100111 Z
b1 1"
00"
1Y"
1P"
1F
b100 2"
b111100100000000000000000000000 x"
0<
12
#263
b11 1"
b101 2"
1<
#264
0<
02
b1110 =
#265
1<
#266
b101111 Z
b101 1"
10"
0Y"
0P"
0F
b10 2"
b11110010000000000000000000000 x"
0<
12
#267
1<
#268
0<
02
b1111 =
#269
1<
#270
b100111 Z
b1 1"
00"
1Y"
1P"
1F
b100 2"
b1111001000000000000000000000 x"
0<
12
#271
b11 1"
b101 2"
1<
#272
0<
02
b10000 =
#273
1<
#274
b101111 Z
b101 1"
10"
0Y"
0P"
0F
b10 2"
b111100100000000000000000000 x"
0<
12
#275
1<
#276
0<
02
b10001 =
#277
1<
#278
b100111 Z
b1 1"
00"
1Y"
1P"
1F
b100 2"
b11110010000000000000000000 x"
0<
12
#279
b11 1"
b101 2"
1<
#280
0<
02
b10010 =
#281
1<
#282
b101111 Z
b101 1"
10"
0Y"
0P"
0F
b10 2"
b1111001000000000000000000 x"
0<
12
#283
1<
#284
0<
02
b10011 =
#285
1<
#286
b100111 Z
b1 1"
00"
1Y"
1P"
1F
b100 2"
b111100100000000000000000 x"
0<
12
#287
b11 1"
b101 2"
1<
#288
0<
02
b10100 =
#289
1<
#290
b101111 Z
b101 1"
10"
0Y"
0P"
0F
b10 2"
b11110010000000000000000 x"
0<
12
#291
1<
#292
0<
02
b10101 =
#293
1<
#294
b100111 Z
b1 1"
00"
1Y"
1P"
1F
b100 2"
b1111001000000000000000 x"
0<
12
#295
b11 1"
b101 2"
1<
#296
0<
02
b10110 =
#297
1<
