project/modules/jtag_interface/testbenches/test_jtagsupport.vcd
$date
	Thu May 22 18:30:57 2025
$end
$version
	Icarus Verilog
$end
$timescale
	1ps
$end
$scope module tb_jtagsupport $end
$var wire 1 ! JTDO2 $end
$var wire 1 " busyOUT $end
$var wire 1 # request $end
$var wire 1 $ read_n_writeOUT $end
$var wire 1 % end_transactionOUT $end
$var wire 1 & data_validOUT $end
$var wire 4 ' byte_enableOUT [3:0] $end
$var wire 8 ( busrt_sizeOUT [7:0] $end
$var wire 1 ) begin_transactionOUT $end
$var wire 32 * address_dataOUT [31:0] $end
$var wire 1 + JTDO1 $end
$var reg 1 , JCE1 $end
$var reg 1 - JCE2 $end
$var reg 1 . JRSTN $end
$var reg 1 / JRTI1 $end
$var reg 1 0 JRTI2 $end
$var reg 1 1 JSHIFT $end
$var reg 1 2 JTCK $end
$var reg 1 3 JTDI $end
$var reg 1 4 JUPDATE $end
$var reg 32 5 address_dataIN [31:0] $end
$var reg 1 6 busyIN $end
$var reg 1 7 data_validIN $end
$var reg 1 8 end_transactionIN $end
$var reg 1 9 errorIN $end
$var reg 1 : granted $end
$var reg 32 ; memory_0x55555555 [31:0] $end
$var reg 1 < system_clock $end
$var integer 32 = i [31:0] $end
$scope module dut $end
$var wire 1 , JCE1 $end
$var wire 1 - JCE2 $end
$var wire 1 . JRSTN $end
$var wire 1 / JRTI1 $end
$var wire 1 0 JRTI2 $end
$var wire 1 1 JSHIFT $end
$var wire 1 2 JTCK $end
$var wire 1 3 JTDI $end
$var wire 1 ! JTDO2 $end
$var wire 1 4 JUPDATE $end
$var wire 32 > address_dataIN [31:0] $end
$var wire 10 ? blue [9:0] $end
$var wire 1 6 busyIN $end
$var wire 1 " busyOUT $end
$var wire 1 7 data_validIN $end
$var wire 1 8 end_transactionIN $end
$var wire 1 9 errorIN $end
$var wire 1 : granted $end
$var wire 10 @ red [9:0] $end
$var wire 4 A rgbRow [3:0] $end
$var wire 1 B s_nreset $end
$var wire 1 C s_reset $end
$var wire 1 < system_clock $end
$var wire 1 D system_reset $end
$var wire 6 E s_status_reg_out [5:0] $end
$var wire 1 F s_pp_writeEnable_ipcore $end
$var wire 1 G s_pp_writeEnable_dma $end
$var wire 1 H s_pp_switch_ipcore $end
$var wire 32 I s_pp_dataOut_ipcore [31:0] $end
$var wire 32 J s_pp_dataOut_dma [31:0] $end
$var wire 32 K s_pp_dataIn_ipcore [31:0] $end
$var wire 32 L s_pp_dataIn_dma [31:0] $end
$var wire 9 M s_pp_address_ipcore [8:0] $end
$var wire 9 N s_pp_address_dma [8:0] $end
$var wire 4 O s_dma_cur_state [3:0] $end
$var wire 1 P s_DMA_operation_done $end
$var wire 1 Q s_DMA_launch_write $end
$var wire 1 R s_DMA_launch_simple_switch $end
$var wire 1 S s_DMA_launch_read $end
$var wire 4 T s_DMA_byte_enable [3:0] $end
$var wire 1 U s_DMA_busy $end
$var wire 8 V s_DMA_burst_size_OUT [7:0] $end
$var wire 8 W s_DMA_block_size_OUT [7:0] $end
$var wire 8 X s_DMA_block_size_IN [7:0] $end
$var wire 32 Y s_DMA_address [31:0] $end
$var wire 1 # request $end
$var wire 1 $ read_n_writeOUT $end
$var wire 10 Z green [9:0] $end
$var wire 1 % end_transactionOUT $end
$var wire 1 & data_validOUT $end
$var wire 4 [ byte_enableOUT [3:0] $end
$var wire 8 \ busrt_sizeOUT [7:0] $end
$var wire 1 ) begin_transactionOUT $end
$var wire 32 ] address_dataOUT [31:0] $end
$var wire 1 + JTDO1 $end
$scope module dma_inst $end
$var wire 32 ^ address_dataIN [31:0] $end
$var wire 1 ) begin_transactionOUT $end
$var wire 1 9 bus_errorIN $end
$var wire 8 _ busrt_sizeOUT [7:0] $end
$var wire 1 6 busyIN $end
$var wire 1 " busyOUT $end
$var wire 4 ` byte_enableOUT [3:0] $end
$var wire 1 < clock $end
$var wire 1 7 data_validIN $end
$var wire 1 & data_validOUT $end
$var wire 1 8 end_transactionIN $end
$var wire 1 % end_transactionOUT $end
$var wire 1 P ipcore_operation_ended $end
$var wire 1 B n_reset $end
$var wire 32 a pp_dataIn [31:0] $end
$var wire 1 $ read_n_writeOUT $end
$var wire 1 : transactionGranted $end
$var wire 1 b s_dma_done $end
$var wire 4 c s_dma_cur_state [3:0] $end
$var wire 8 d s_actual_burst_size [7:0] $end
$var wire 1 # requestTransaction $end
$var wire 1 G pp_writeEnable $end
$var wire 32 e pp_dataOut [31:0] $end
$var wire 9 f pp_address [8:0] $end
$var wire 1 Q ipcore_launch_write $end
$var wire 1 R ipcore_launch_simple_switch $end
$var wire 1 S ipcore_launch_read $end
$var wire 1 U ipcore_dma_busy $end
$var wire 4 g ipcore_byte_enable [3:0] $end
$var wire 8 h ipcore_burst_size [7:0] $end
$var wire 8 i ipcore_block_sizeOUT [7:0] $end
$var wire 8 j ipcore_block_sizeIN [7:0] $end
$var wire 32 k ipcore_address [31:0] $end
$var wire 1 l busWrite $end
$var wire 32 m address_dataOUT [31:0] $end
$var parameter 32 n Base $end
$var parameter 5 o fsm_end_transaction_error $end
$var parameter 5 p fsm_end_write_transaction $end
$var parameter 5 q fsm_idle $end
$var parameter 5 r fsm_init $end
$var parameter 5 s fsm_read $end
$var parameter 5 t fsm_request_bus $end
$var parameter 5 u fsm_set_up_transaction $end
$var parameter 5 v fsm_wait_end $end
$var parameter 5 w fsm_write $end
$var reg 32 x address_dataIN_reg [31:0] $end
$var reg 32 y address_dataOUT_reg [31:0] $end
$var reg 1 z begin_transactionOUT_reg $end
$var reg 8 { burst_sizeOUT_reg [7:0] $end
$var reg 32 | bus_block_size_reg [31:0] $end
$var reg 8 } bus_burst_size_reg [7:0] $end
$var reg 4 ~ bus_byte_enable_reg [3:0] $end
$var reg 32 !" bus_start_address_reg [31:0] $end
$var reg 4 "" byte_enableOUT_reg [3:0] $end
$var reg 5 #" cur_state [4:0] $end
$var reg 1 $" data_validIN_reg $end
$var reg 1 %" data_validOUT_reg $end
$var reg 1 &" end_transactionIN_reg $end
$var reg 1 '" end_transactionOUT_reg $end
$var reg 5 (" nxt_state [4:0] $end
$var reg 1 )" operation_ended_reg $end
$var reg 1 *" operation_launch_reg $end
$var reg 9 +" pp_address_reg [8:0] $end
$var reg 1 ," read_n_writeOUT_reg $end
$var reg 1 -" read_n_write_reg $end
$var reg 9 ." updated_block_size_reg [8:0] $end
$var reg 32 /" updated_bus_start_address_reg [31:0] $end
$var reg 9 0" words_written_reg [8:0] $end
$upscope $end
$scope module ipcore $end
$var wire 8 1" DMA_block_size_IN [7:0] $end
$var wire 1 U DMA_busy $end
$var wire 1 P DMA_operation_done $end
$var wire 1 , JCE1 $end
$var wire 1 - JCE2 $end
$var wire 1 . JRSTN $end
$var wire 1 / JRTI1 $end
$var wire 1 0 JRTI2 $end
$var wire 1 1 JSHIFT $end
$var wire 1 2 JTCK $end
$var wire 1 ! JTD2 $end
$var wire 1 3 JTDI $end
$var wire 1 4 JUPDATE $end
$var wire 1 < system_clk $end
$var wire 6 2" status_reg_out [5:0] $end
$var wire 1 3" s_JTDI_2 $end
$var wire 1 4" s_JTDI_1 $end
$var wire 1 F pp_writeEnable $end
$var wire 1 H pp_switch $end
$var wire 32 5" pp_dataOut [31:0] $end
$var wire 32 6" pp_dataIn [31:0] $end
$var wire 9 7" pp_address [8:0] $end
$var wire 1 + JTD1 $end
$var wire 1 Q DMA_launch_write $end
$var wire 1 R DMA_launch_simple_switch $end
$var wire 1 S DMA_launch_read $end
$var wire 4 8" DMA_byte_enable [3:0] $end
$var wire 8 9" DMA_burst_size_OUT [7:0] $end
$var wire 8 :" DMA_block_size_OUT [7:0] $end
$var wire 32 ;" DMA_address [31:0] $end
$scope module instruction_chain1 $end
$var wire 32 <" DMA_address [31:0] $end
$var wire 8 =" DMA_block_size_IN [7:0] $end
$var wire 8 >" DMA_block_size_OUT [7:0] $end
$var wire 8 ?" DMA_burst_size_OUT [7:0] $end
$var wire 1 U DMA_busy $end
$var wire 4 @" DMA_byte_enable [3:0] $end
$var wire 1 P DMA_operation_done $end
$var wire 1 , JCE1 $end
$var wire 1 . JRSTN $end
$var wire 1 / JRTI1 $end
$var wire 1 1 JSHIFT $end
$var wire 1 2 JTCK $end
$var wire 1 4" JTDI $end
$var wire 1 4 JUPDATE $end
$var wire 1 A" launch_dma $end
$var wire 1 B" n_reset $end
$var wire 1 C" operation_in_progress $end
$var wire 1 < system_clk $end
$var wire 6 D" status_reg_out [5:0] $end
$var wire 1 E" s_launch_write $end
$var wire 1 F" s_launch_simple_switch $end
$var wire 1 G" s_launch_read $end
$var wire 1 H" ready_to_launch $end
$var wire 1 I" read_complete $end
$var wire 1 F pp_writeEnable $end
$var wire 1 H pp_switch $end
$var wire 32 J" pp_dataOut [31:0] $end
$var wire 32 K" pp_dataIn [31:0] $end
$var wire 9 L" pp_address [8:0] $end
$var wire 1 M" buffer_full $end
$var wire 1 + JTD1 $end
$var wire 1 Q DMA_launch_write $end
$var wire 1 R DMA_launch_simple_switch $end
$var wire 1 S DMA_launch_read $end
$var parameter 32 N" ASK_FOR_BUFFER $end
$var parameter 32 O" END_INSTRUCTION $end
$var parameter 32 P" IDLE $end
$var parameter 32 Q" LAUNCH_DMA $end
$var parameter 32 R" READ_BUFFER $end
$var parameter 32 S" SWITCH_BUFFER $end
$var parameter 32 T" WAIT_FOR_DMA $end
$var reg 32 U" address_reg [31:0] $end
$var reg 8 V" block_size_reg [7:0] $end
$var reg 8 W" block_size_reg_shadow [7:0] $end
$var reg 8 X" buffer_read_reg [7:0] $end
$var reg 8 Y" busrt_size_reg [7:0] $end
$var reg 4 Z" byte_enable_reg [3:0] $end
$var reg 3 [" chain1_cur_state [2:0] $end
$var reg 3 \" chain1_nxt_state [2:0] $end
$var reg 32 ]" data_reg [31:0] $end
$var reg 1 ^" launch_read $end
$var reg 1 _" launch_write $end
$var reg 1 `" only_switch $end
$var reg 1 a" read_buffer $end
$var reg 1 b" read_launched $end
$var reg 1 c" read_operation_in_progress $end
$var reg 36 d" shadow_reg [35:0] $end
$var reg 36 e" shift_reg [35:0] $end
$var reg 4 f" status_next [3:0] $end
$var reg 4 g" status_reg [3:0] $end
$var reg 1 h" update_reg $end
$var reg 36 i" updated_data_reg [35:0] $end
$var reg 1 j" write_launched $end
$var reg 1 k" write_operation_in_progress $end
$var reg 1 l" write_to_buffer $end
$scope module synchroFlop1 $end
$var wire 1 E" D $end
$var wire 1 2 clockIn $end
$var wire 1 < clockOut $end
$var wire 1 m" reset $end
$var wire 1 n" s_reset0 $end
$var wire 3 o" s_d [2:0] $end
$var wire 1 Q Q $end
$var reg 3 p" s_states [2:0] $end
$upscope $end
$scope module synchroFlop2 $end
$var wire 1 G" D $end
$var wire 1 2 clockIn $end
$var wire 1 < clockOut $end
$var wire 1 q" reset $end
$var wire 1 r" s_reset0 $end
$var wire 3 s" s_d [2:0] $end
$var wire 1 S Q $end
$var reg 3 t" s_states [2:0] $end
$upscope $end
$scope module synchroFlop3 $end
$var wire 1 F" D $end
$var wire 1 2 clockIn $end
$var wire 1 < clockOut $end
$var wire 1 u" reset $end
$var wire 1 v" s_reset0 $end
$var wire 3 w" s_d [2:0] $end
$var wire 1 R Q $end
$var reg 3 x" s_states [2:0] $end
$upscope $end
$upscope $end
$upscope $end
$scope module pingpongbuffer_inst $end
$var wire 9 y" addressA [8:0] $end
$var wire 9 z" addressB [8:0] $end
$var wire 1 2 clockA $end
$var wire 1 < clockB $end
$var wire 32 {" dataInA [31:0] $end
$var wire 32 |" dataInB [31:0] $end
$var wire 1 B reset $end
$var wire 1 H switch $end
$var wire 1 F writeEnableA $end
$var wire 1 G writeEnableB $end
$var wire 9 }" s_addressB [8:0] $end
$var wire 9 ~" s_addressA [8:0] $end
$var wire 32 !# dataOutB [31:0] $end
$var wire 32 "# dataOutA [31:0] $end
$var reg 1 ## switch_reg $end
$scope module ssram $end
$var wire 9 $# addressA [8:0] $end
$var wire 9 %# addressB [8:0] $end
$var wire 1 2 clockA $end
$var wire 1 < clockB $end
$var wire 32 &# dataInA [31:0] $end
$var wire 32 '# dataInB [31:0] $end
$var wire 1 F writeEnableA $end
$var wire 1 G writeEnableB $end
$var reg 32 (# dataOutA [31:0] $end
$var reg 32 )# dataOutB [31:0] $end
$upscope $end
$upscope $end
$upscope $end
$scope task sendInstruction $end
$var reg 36 *# instruction [35:0] $end
$upscope $end
$upscope $end
$enddefinitions $end
$comment Show the parameter values. $end
$dumpall
b11 T"
b100 S"
b10 R"
b101 Q"
b0 P"
b110 O"
b1 N"
b110 w
b101 v
b11 u
b10 t
b100 s
b1 r
b0 q
b1000 p
b111 o
b1000000000000000000000000000000 n
$end
#0
$dumpvars
bx *#
bx )#
bx (#
bx '#
bx &#
bx %#
bx $#
x##
bx "#
bx !#
bx ~"
bx }"
bx |"
bx {"
bx z"
b0xxxxxxxx y"
bx x"
bx w"
xv"
0u"
bx t"
bx s"
xr"
0q"
bx p"
bx o"
xn"
0m"
xl"
xk"
xj"
bx i"
xh"
bx g"
bx f"
bx e"
bx d"
xc"
xb"
xa"
x`"
x_"
x^"
bx ]"
b0 \"
bx ["
bx Z"
bx Y"
bx X"
bx W"
bx V"
bx U"
xM"
b0xxxxxxxx L"
bx K"
bx J"
xI"
xH"
xG"
xF"
xE"
bx D"
xC"
1B"
xA"
bx @"
bx ?"
bx >"
bx ="
bx <"
bx ;"
bx :"
bx 9"
bx 8"
b0xxxxxxxx 7"
bx 6"
bx 5"
z4"
z3"
bx 2"
bx 1"
bx 0"
bx /"
bx ."
x-"
x,"
bx +"
x*"
x)"
b0 ("
x'"
x&"
x%"
x$"
bx #"
bx ""
bx !"
bx ~
bx }
bx |
bx {
xz
bx y
bx x
bx m
xl
bx k
bx j
bx i
bx h
bx g
bx f
bx e
bx d
bx c
xb
bx a
bx `
bx _
b0 ^
bx ]
bx \
bx [
b0xxxx Z
bx Y
bx X
bx W
bx V
xU
bx T
xS
xR
xQ
xP
bx O
bx N
b0xxxxxxxx M
bx L
bx K
bx J
bx I
xH
xG
xF
bx E
0D
0C
1B
b0 A
bz @
bz ?
b0 >
bx =
0<
b11011110101011011011111011101111 ;
0:
09
08
07
06
b0 5
04
03
02
01
10
1/
1.
0-
0,
x+
bx *
x)
bx (
bx '
x&
x%
x$
x#
0"
z!
$end
#1
b0x ("
b111x Z
0G
b0x O
b0x c
0U
0l
0#
0$"
0&"
b0 L
b0 a
b0 |"
b0 '#
b0 x
b0 #"
1<
#2
b0xx \"
0H
0E"
0G"
0F"
b0xx0 E
b0xx0 2"
b0xx0 D"
0h"
b0 ["
0<
12
#3
b0 ("
b11xx Z
b0 *
b0 ]
b0 m
b0xx O
b0xx c
xU
0&
0%"
0%
0'"
b0 y
b0 (
b0 \
b0 _
b0 {
b0 '
b0 [
b0 `
b0 ""
0$
0,"
0)
0z
b0x #"
1<
#4
0<
02
#5
b0x ("
b111x Z
b0x O
b0x c
0U
b0 #"
1<
#6
b0 \"
b0xxxx0 E
b0xxxx0 2"
b0xxxx0 D"
b0xx ["
0<
12
#7
b0 ("
b11xx Z
b0xx O
b0xx c
xU
b0x #"
1<
#8
b1xxxxxxxx }"
b1xxxxxxxx %#
b0 o"
b0 s"
b0 w"
b0xxxxxxxx ~"
b0xxxxxxxx $#
0Q
0S
0R
0##
b0 p"
b0 t"
b0 x"
1C
1n"
1r"
1v"
0B
1m"
1q"
1u"
1D
0<
02
0B"
0.
#9
b1111 Z
b100000000 }"
b100000000 %#
b0 W
b0 i
b0 1"
b0 ="
0U
b0 O
b0 c
1b
0b"
0j"
b0 |
b0 ~
b1 d
b0 }
b0 !"
b0 #"
0P
0)"
0*"
b0 N
b0 f
b0 +"
b0 z"
b0 ."
b0 /"
b0 0"
b10100000000000000000000000000000 5
b10100000000000000000000000000000 >
b10100000000000000000000000000000 ^
1<
#10
b0 \"
b0 ~"
b0 $#
0F
b0 M
b0 7"
b0 L"
b0 y"
0+
0H"
0A"
1I"
0C"
b0 K
b0 6"
b0 K"
b0 {"
b0 &#
0M"
b0 E
b0 2"
b0 D"
b0 i"
b0 e"
b0 X
b0 j
b0 :"
b0 >"
b0 W"
0`"
0_"
0^"
0a"
b0 X"
0c"
0k"
0l"
b0 ]"
b0 V"
b0 g"
b0 V
b0 h
b0 9"
b0 ?"
b0 Y"
b1111 T
b1111 g
b1111 8"
b1111 @"
b1111 Z"
b0 Y
b0 k
b0 ;"
b0 <"
b0 U"
b0 d"
b0 ["
0<
12
#11
0-"
b10100000000000000000000000000000 L
b10100000000000000000000000000000 a
b10100000000000000000000000000000 |"
b10100000000000000000000000000000 '#
b10100000000000000000000000000000 x
1<
#12
0<
02
#13
1<
#14
0<
12
#15
1<
#16
0C
1B
0n"
0r"
0v"
0m"
0q"
0u"
0D
0<
02
1B"
1.
#17
1<
#18
0<
12
#19
1<
#20
0<
02
#21
1<
#22
0<
12
#23
1<
#24
0<
02
0/
b10101010101010101010101010101010001 *#
#25
1<
#26
0<
12
#27
1<
#28
0<
02
#29
1<
#30
0<
12
#31
1<
#32
04"
0<
02
1,
#33
1<
#34
0<
12
#35
1<
#36
14"
0<
02
11
13
b0 =
#37
1<
#38
b100000000000000000000000000000000000 e"
0<
12
#39
1<
#40
04"
0<
02
03
b1 =
#41
1<
#42
b10000000000000000000000000000000000 e"
0<
12
#43
1<
#44
0<
02
b10 =
#45
1<
#46
b1000000000000000000000000000000000 e"
0<
12
#47
1<
#48
0<
02
b11 =
#49
1<
#50
b100000000000000000000000000000000 e"
0<
12
#51
1<
#52
14"
0<
02
13
b100 =
#53
1<
#54
b100010000000000000000000000000000000 e"
0<
12
#55
1<
#56
04"
0<
02
03
b101 =
#57
1<
#58
b10001000000000000000000000000000000 e"
0<
12
#59
1<
#60
14"
0<
02
13
b110 =
#61
1<
#62
b101000100000000000000000000000000000 e"
0<
12
#63
1<
#64
04"
0<
02
03
b111 =
#65
1<
#66
b10100010000000000000000000000000000 e"
0<
12
#67
1<
#68
14"
0<
02
13
b1000 =
#69
1<
#70
b101010001000000000000000000000000000 e"
0<
12
#71
1<
#72
04"
0<
02
03
b1001 =
#73
1<
#74
b10101000100000000000000000000000000 e"
0<
12
#75
1<
#76
14"
0<
02
13
b1010 =
#77
1<
#78
b101010100010000000000000000000000000 e"
0<
12
#79
1<
#80
04"
0<
02
03
b1011 =
#81
1<
#82
b10101010001000000000000000000000000 e"
0<
12
#83
1<
#84
14"
0<
02
13
b1100 =
#85
1<
#86
b101010101000100000000000000000000000 e"
0<
12
#87
1<
#88
04"
0<
02
03
b1101 =
#89
1<
#90
b10101010100010000000000000000000000 e"
0<
12
#91
1<
#92
14"
0<
02
13
b1110 =
#93
1<
#94
b101010101010001000000000000000000000 e"
0<
12
#95
1<
#96
04"
0<
02
03
b1111 =
#97
1<
#98
b10101010101000100000000000000000000 e"
0<
12
#99
1<
#100
14"
0<
02
13
b10000 =
#101
1<
#102
b101010101010100010000000000000000000 e"
0<
12
#103
1<
#104
04"
0<
02
03
b10001 =
#105
1<
#106
b10101010101010001000000000000000000 e"
0<
12
#107
1<
#108
14"
0<
02
13
b10010 =
#109
1<
#110
b101010101010101000100000000000000000 e"
0<
12
#111
1<
#112
04"
0<
02
03
b10011 =
#113
1<
#114
b10101010101010100010000000000000000 e"
0<
12
#115
1<
#116
14"
0<
02
13
b10100 =
#117
1<
#118
b101010101010101010001000000000000000 e"
0<
12
#119
1<
#120
04"
0<
02
03
b10101 =
#121
1<
#122
b10101010101010101000100000000000000 e"
0<
12
#123
1<
#124
14"
0<
02
13
b10110 =
#125
1<
#126
b101010101010101010100010000000000000 e"
0<
12
#127
1<
#128
04"
0<
02
03
b10111 =
#129
1<
#130
b10101010101010101010001000000000000 e"
0<
12
#131
1<
#132
14"
0<
02
13
b11000 =
#133
1<
#134
b101010101010101010101000100000000000 e"
0<
12
#135
1<
#136
04"
0<
02
03
b11001 =
#137
1<
#138
b10101010101010101010100010000000000 e"
0<
12
#139
1<
#140
14"
0<
02
13
b11010 =
#141
1<
#142
b101010101010101010101010001000000000 e"
0<
12
#143
1<
#144
04"
0<
02
03
b11011 =
#145
1<
#146
b10101010101010101010101000100000000 e"
0<
12
#147
1<
#148
14"
0<
02
13
b11100 =
#149
1<
#150
b101010101010101010101010100010000000 e"
0<
12
#151
1<
#152
04"
0<
02
03
b11101 =
#153
1<
#154
b10101010101010101010101010001000000 e"
0<
12
#155
1<
#156
14"
0<
02
13
b11110 =
#157
1<
#158
b101010101010101010101010101000100000 e"
0<
12
#159
1<
#160
04"
0<
02
03
b11111 =
#161
1<
#162
b10101010101010101010101010100010000 e"
0<
12
#163
1<
#164
14"
0<
02
13
b100000 =
#165
1<
#166
b101010101010101010101010101010001000 e"
0<
12
#167
1<
#168
04"
0<
02
03
b100001 =
#169
1<
#170
b10101010101010101010101010101000100 e"
0<
12
#171
1<
#172
14"
0<
02
13
b100010 =
#173
1<
#174
b101010101010101010101010101010100010 e"
0<
12
#175
1<
#176
04"
0<
02
03
b100011 =
#177
1<
#178
1+
b10101010101010101010101010101010001 e"
0<
12
#179
1<
#180
z4"
0<
02
01
0,
b100100 =
#181
1<
#182
0<
12
#183
1<
#184
0<
02
#185
1<
#186
0<
12
#187
1<
#188
0<
02
14
#189
1<
#190
b10101010101010101010101010101010001 i"
1h"
b1 f"
0<
12
#191
1<
#192
0<
02
1/
04
#193
1<
#194
0h"
b1010101010101010101010101010101 Y
b1010101010101010101010101010101 k
b1010101010101010101010101010101 ;"
b1010101010101010101010101010101 <"
b1010101010101010101010101010101 U"
b1 d"
b1 g"
0<
12
#195
1<
#196
0<
02
0/
b11110010 *#
#197
1<
#198
0<
12
#199
1<
#200
0<
02
#201
1<
#202
0<
12
#203
1<
#204
04"
0<
02
1,
#205
1<
#206
b1 e"
0<
12
#207
1<
#208
0<
02
11
b0 =
#209
1<
#210
0+
b0 e"
0<
12
#211
1<
#212
14"
0<
02
13
b1 =
#213
1<
#214
b100000000000000000000000000000000000 e"
0<
12
#215
1<
#216
04"
0<
02
03
b10 =
#217
1<
#218
b10000000000000000000000000000000000 e"
0<
12
#219
1<
#220
0<
02
b11 =
#221
1<
#222
b1000000000000000000000000000000000 e"
0<
12
#223
1<
#224
14"
0<
02
13
b100 =
#225
1<
#226
b100100000000000000000000000000000000 e"
0<
12
#227
1<
#228
0<
02
b101 =
#229
1<
#230
b110010000000000000000000000000000000 e"
0<
12
#231
1<
#232
0<
02
b110 =
#233
1<
#234
b111001000000000000000000000000000000 e"
0<
12
#235
1<
#236
0<
02
b111 =
#237
1<
#238
b111100100000000000000000000000000000 e"
0<
12
#239
1<
#240
04"
0<
02
03
b1000 =
#241
1<
#242
b11110010000000000000000000000000000 e"
0<
12
#243
1<
#244
0<
02
b1001 =
#245
1<
#246
b1111001000000000000000000000000000 e"
0<
12
#247
1<
#248
0<
02
b1010 =
#249
1<
#250
b111100100000000000000000000000000 e"
0<
12
#251
1<
#252
0<
02
b1011 =
#253
1<
#254
b11110010000000000000000000000000 e"
0<
12
#255
1<
#256
0<
02
b1100 =
#257
1<
#258
b1111001000000000000000000000000 e"
0<
12
#259
1<
#260
0<
02
b1101 =
#261
1<
#262
b111100100000000000000000000000 e"
0<
12
#263
1<
#264
0<
02
b1110 =
#265
1<
#266
b11110010000000000000000000000 e"
0<
12
#267
1<
#268
0<
02
b1111 =
#269
1<
#270
b1111001000000000000000000000 e"
0<
12
#271
1<
#272
0<
02
b10000 =
#273
1<
#274
b111100100000000000000000000 e"
0<
12
#275
1<
#276
0<
02
b10001 =
#277
1<
#278
b11110010000000000000000000 e"
0<
12
#279
1<
#280
0<
02
b10010 =
#281
1<
#282
b1111001000000000000000000 e"
0<
12
#283
1<
#284
0<
02
b10011 =
#285
1<
#286
b111100100000000000000000 e"
0<
12
#287
1<
#288
0<
02
b10100 =
#289
1<
#290
b11110010000000000000000 e"
0<
12
#291
1<
#292
0<
02
b10101 =
#293
1<
#294
b1111001000000000000000 e"
0<
12
#295
1<
#296
0<
02
b10110 =
#297
1<
#298
b111100100000000000000 e"
0<
12
#299
1<
#300
0<
02
b10111 =
#301
1<
#302
b11110010000000000000 e"
0<
12
#303
1<
#304
0<
02
b11000 =
#305
1<
#306
b1111001000000000000 e"
0<
12
#307
1<
#308
0<
02
b11001 =
#309
1<
#310
b111100100000000000 e"
0<
12
#311
1<
#312
0<
02
b11010 =
#313
1<
#314
b11110010000000000 e"
0<
12
#315
1<
#316
0<
02
b11011 =
#317
1<
#318
b1111001000000000 e"
0<
12
#319
1<
#320
0<
02
b11100 =
#321
1<
#322
b111100100000000 e"
0<
12
#323
1<
#324
0<
02
b11101 =
#325
1<
#326
b11110010000000 e"
0<
12
#327
1<
#328
0<
02
b11110 =
#329
1<
#330
b1111001000000 e"
0<
12
#331
1<
#332
0<
02
b11111 =
#333
1<
#334
b111100100000 e"
0<
12
#335
1<
#336
0<
02
b100000 =
#337
1<
#338
b11110010000 e"
0<
12
#339
1<
#340
0<
02
b100001 =
#341
1<
#342
b1111001000 e"
0<
12
#343
1<
#344
0<
02
b100010 =
#345
1<
#346
b111100100 e"
0<
12
#347
1<
#348
0<
02
b100011 =
#349
1<
#350
b11110010 e"
0<
12
#351
1<
#352
z4"
0<
02
01
0,
b100100 =
#353
1<
#354
0<
12
#355
1<
#356
0<
02
#357
1<
#358
0<
12
#359
1<
#360
0<
02
14
#361
1<
#362
b11110010 i"
1h"
b11 f"
0<
12
#363
1<
#364
0<
02
1/
04
#365
1<
#366
b11 d"
b11 g"
0h"
0<
12
#367
1<
#368
0<
02
0/
b111110011 *#
#369
1<
#370
0<
12
#371
1<
#372
0<
02
#373
1<
#374
0<
12
#375
1<
#376
04"
0<
02
1,
#377
1<
#378
1+
b11 e"
0<
12
#379
1<
#380
14"
0<
02
11
13
b0 =
#381
1<
#382
b100000000000000000000000000000000001 e"
0<
12
#383
1<
#384
0<
02
b1 =
#385
1<
#386
0+
b110000000000000000000000000000000000 e"
0<
12
#387
1<
#388
04"
0<
02
03
b10 =
#389
1<
#390
b11000000000000000000000000000000000 e"
0<
12
#391
1<
#392
0<
02
b11 =
#393
1<
#394
b1100000000000000000000000000000000 e"
0<
12
#395
1<
#396
14"
0<
02
13
b100 =
#397
1<
#398
b100110000000000000000000000000000000 e"
0<
12
#399
1<
#400
0<
02
b101 =
#401
1<
#402
b110011000000000000000000000000000000 e"
0<
12
#403
1<
#404
0<
02
b110 =
#405
1<
#406
b111001100000000000000000000000000000 e"
0<
12
#407
1<
#408
0<
02
b111 =
#409
1<
#410
b111100110000000000000000000000000000 e"
0<
12
#411
1<
#412
0<
02
b1000 =
#413
1<
#414
b111110011000000000000000000000000000 e"
0<
12
#415
1<
#416
04"
0<
02
03
b1001 =
#417
1<
#418
b11111001100000000000000000000000000 e"
0<
12
#419
1<
#420
0<
02
b1010 =
#421
1<
#422
b1111100110000000000000000000000000 e"
0<
12
#423
1<
#424
0<
02
b1011 =
#425
1<
#426
b111110011000000000000000000000000 e"
0<
12
#427
1<
#428
0<
02
b1100 =
#429
1<
#430
b11111001100000000000000000000000 e"
0<
12
#431
1<
#432
0<
02
b1101 =
#433
1<
#434
b1111100110000000000000000000000 e"
0<
12
#435
1<
#436
0<
02
b1110 =
#437
1<
#438
b111110011000000000000000000000 e"
0<
12
#439
1<
#440
0<
02
b1111 =
#441
1<
#442
b11111001100000000000000000000 e"
0<
12
#443
1<
#444
0<
02
b10000 =
#445
1<
#446
b1111100110000000000000000000 e"
0<
12
#447
1<
#448
0<
02
b10001 =
#449
1<
#450
b111110011000000000000000000 e"
0<
12
#451
1<
#452
0<
02
b10010 =
#453
1<
#454
b11111001100000000000000000 e"
0<
12
#455
1<
#456
0<
02
b10011 =
#457
1<
#458
b1111100110000000000000000 e"
0<
12
#459
1<
#460
0<
02
b10100 =
#461
1<
#462
b111110011000000000000000 e"
0<
12
#463
1<
#464
0<
02
b10101 =
#465
1<
#466
b11111001100000000000000 e"
0<
12
#467
1<
#468
0<
02
b10110 =
#469
1<
#470
b1111100110000000000000 e"
0<
12
#471
1<
#472
0<
02
b10111 =
#473
1<
#474
b111110011000000000000 e"
0<
12
#475
1<
#476
0<
02
b11000 =
#477
1<
#478
b11111001100000000000 e"
0<
12
#479
1<
#480
0<
02
b11001 =
#481
1<
#482
b1111100110000000000 e"
0<
12
#483
1<
#484
0<
02
b11010 =
#485
1<
#486
b111110011000000000 e"
0<
12
#487
1<
#488
0<
02
b11011 =
#489
1<
#490
b11111001100000000 e"
0<
12
#491
1<
#492
0<
02
b11100 =
#493
1<
#494
b1111100110000000 e"
0<
12
#495
1<
#496
0<
02
b11101 =
#497
1<
#498
b111110011000000 e"
0<
12
#499
1<
#500
0<
02
b11110 =
#501
1<
#502
b11111001100000 e"
0<
12
#503
1<
#504
0<
02
b11111 =
#505
1<
#506
b1111100110000 e"
0<
12
#507
1<
#508
0<
02
b100000 =
#509
1<
#510
b111110011000 e"
0<
12
#511
1<
#512
0<
02
b100001 =
#513
1<
#514
b11111001100 e"
0<
12
#515
1<
#516
0<
02
b100010 =
#517
1<
#518
b1111100110 e"
0<
12
#519
1<
#520
0<
02
b100011 =
#521
1<
#522
1+
b111110011 e"
0<
12
#523
1<
#524
z4"
0<
02
01
0,
b100100 =
#525
1<
#526
0<
12
#527
1<
#528
0<
02
#529
1<
#530
0<
12
#531
1<
#532
0<
02
14
#533
1<
#534
b111110011 i"
1h"
b111 f"
0<
12
#535
1<
#536
0<
02
1/
04
#537
1<
#538
0h"
b11111 V
b11111 h
b11111 9"
b11111 ?"
b11111 Y"
b111 d"
b111 g"
0<
12
#539
1<
#540
0<
02
0/
b0 *#
#541
1<
#542
0<
12
#543
1<
#544
0<
02
#545
1<
#546
0<
12
