project/modules/jtag_interface/testbenches/test_jtagsupport.vcd
$date
	Thu May  8 21:49:08 2025
$end
$version
	Icarus Verilog
$end
$timescale
	1ps
$end
$scope module tb_jtagsupport $end
$var wire 1 ! JTDO2 $end
$var wire 1 " request $end
$var wire 1 # read_n_writeOUT $end
$var wire 1 $ end_transactionOUT $end
$var wire 1 % data_validOUT $end
$var wire 4 & byte_enableOUT [3:0] $end
$var wire 1 ' busyOUT $end
$var wire 8 ( busrt_sizeOUT [7:0] $end
$var wire 1 ) begin_transactionOUT $end
$var wire 32 * address_dataOUT [31:0] $end
$var wire 1 + JTDO1 $end
$var reg 1 , JCE1 $end
$var reg 1 - JCE2 $end
$var reg 1 . JRSTN $end
$var reg 1 / JRTI1 $end
$var reg 1 0 JRTI2 $end
$var reg 1 1 JSHIFT $end
$var reg 1 2 JTCK $end
$var reg 1 3 JTDI $end
$var reg 1 4 JUPDATE $end
$var reg 32 5 address_dataIN [31:0] $end
$var reg 1 6 busyIN $end
$var reg 1 7 data_validIN $end
$var reg 1 8 end_transactionIN $end
$var reg 1 9 errorIN $end
$var reg 1 : granted $end
$var reg 32 ; memory_0x55555555 [31:0] $end
$var reg 1 < system_clock $end
$var integer 32 = i [31:0] $end
$scope module dut $end
$var wire 1 , JCE1 $end
$var wire 1 - JCE2 $end
$var wire 1 . JRSTN $end
$var wire 1 / JRTI1 $end
$var wire 1 0 JRTI2 $end
$var wire 1 1 JSHIFT $end
$var wire 1 2 JTCK $end
$var wire 1 3 JTDI $end
$var wire 1 ! JTDO2 $end
$var wire 1 4 JUPDATE $end
$var wire 32 > address_dataIN [31:0] $end
$var wire 10 ? blue [9:0] $end
$var wire 1 6 busyIN $end
$var wire 1 7 data_validIN $end
$var wire 1 8 end_transactionIN $end
$var wire 1 9 errorIN $end
$var wire 1 : granted $end
$var wire 10 @ red [9:0] $end
$var wire 4 A rgbRow [3:0] $end
$var wire 9 B s_pp_address_dma [8:0] $end
$var wire 1 < system_clock $end
$var wire 1 C system_reset $end
$var wire 1 D sync_switch_ready $end
$var wire 1 E sync_s_dma_readReady $end
$var wire 1 F sync_s_dma_data_ready $end
$var wire 4 G sync_s_dma_byte_enable [3:0] $end
$var wire 32 H sync_s_dma_address [31:0] $end
$var wire 6 I s_status_reg_out [5:0] $end
$var wire 1 J s_pp_writeEnable_ipcore $end
$var wire 1 K s_pp_writeEnable_dma $end
$var wire 1 L s_pp_switch_ipcore $end
$var wire 32 M s_pp_dataOut_ipcore [31:0] $end
$var wire 32 N s_pp_dataOut_dma [31:0] $end
$var wire 32 O s_pp_dataIn_ipcore [31:0] $end
$var wire 32 P s_pp_dataIn_dma [31:0] $end
$var wire 9 Q s_pp_address_ipcore [8:0] $end
$var wire 1 R s_ipcore_switch_ready $end
$var wire 1 S s_dma_readReady $end
$var wire 1 T s_dma_data_ready $end
$var wire 4 U s_dma_cur_state [3:0] $end
$var wire 4 V s_dma_byte_enable [3:0] $end
$var wire 32 W s_dma_address [31:0] $end
$var wire 1 " request $end
$var wire 1 # read_n_writeOUT $end
$var wire 10 X green [9:0] $end
$var wire 1 $ end_transactionOUT $end
$var wire 1 % data_validOUT $end
$var wire 4 Y byte_enableOUT [3:0] $end
$var wire 1 ' busyOUT $end
$var wire 8 Z busrt_sizeOUT [7:0] $end
$var wire 1 ) begin_transactionOUT $end
$var wire 32 [ address_dataOUT [31:0] $end
$var wire 1 + JTDO1 $end
$scope module clock_synchronizer_address $end
$var wire 1 2 clockIn $end
$var wire 1 < clockOut $end
$var wire 1 \ reset $end
$var wire 32 ] Q [31:0] $end
$var wire 32 ^ D [31:0] $end
$var parameter 32 _ WIDTH $end
$scope begin sync_logic[0] $end
$var parameter 2 ` i $end
$upscope $end
$scope begin sync_logic[1] $end
$var parameter 2 a i $end
$upscope $end
$scope begin sync_logic[2] $end
$var parameter 3 b i $end
$upscope $end
$scope begin sync_logic[3] $end
$var parameter 3 c i $end
$upscope $end
$scope begin sync_logic[4] $end
$var parameter 4 d i $end
$upscope $end
$scope begin sync_logic[5] $end
$var parameter 4 e i $end
$upscope $end
$scope begin sync_logic[6] $end
$var parameter 4 f i $end
$upscope $end
$scope begin sync_logic[7] $end
$var parameter 4 g i $end
$upscope $end
$scope begin sync_logic[8] $end
$var parameter 5 h i $end
$upscope $end
$scope begin sync_logic[9] $end
$var parameter 5 i i $end
$upscope $end
$scope begin sync_logic[10] $end
$var parameter 5 j i $end
$upscope $end
$scope begin sync_logic[11] $end
$var parameter 5 k i $end
$upscope $end
$scope begin sync_logic[12] $end
$var parameter 5 l i $end
$upscope $end
$scope begin sync_logic[13] $end
$var parameter 5 m i $end
$upscope $end
$scope begin sync_logic[14] $end
$var parameter 5 n i $end
$upscope $end
$scope begin sync_logic[15] $end
$var parameter 5 o i $end
$upscope $end
$scope begin sync_logic[16] $end
$var parameter 6 p i $end
$upscope $end
$scope begin sync_logic[17] $end
$var parameter 6 q i $end
$upscope $end
$scope begin sync_logic[18] $end
$var parameter 6 r i $end
$upscope $end
$scope begin sync_logic[19] $end
$var parameter 6 s i $end
$upscope $end
$scope begin sync_logic[20] $end
$var parameter 6 t i $end
$upscope $end
$scope begin sync_logic[21] $end
$var parameter 6 u i $end
$upscope $end
$scope begin sync_logic[22] $end
$var parameter 6 v i $end
$upscope $end
$scope begin sync_logic[23] $end
$var parameter 6 w i $end
$upscope $end
$scope begin sync_logic[24] $end
$var parameter 6 x i $end
$upscope $end
$scope begin sync_logic[25] $end
$var parameter 6 y i $end
$upscope $end
$scope begin sync_logic[26] $end
$var parameter 6 z i $end
$upscope $end
$scope begin sync_logic[27] $end
$var parameter 6 { i $end
$upscope $end
$scope begin sync_logic[28] $end
$var parameter 6 | i $end
$upscope $end
$scope begin sync_logic[29] $end
$var parameter 6 } i $end
$upscope $end
$scope begin sync_logic[30] $end
$var parameter 6 ~ i $end
$upscope $end
$scope begin sync_logic[31] $end
$var parameter 6 !" i $end
$upscope $end
$upscope $end
$scope module clock_synchronizer_byteEnable $end
$var wire 1 2 clockIn $end
$var wire 1 < clockOut $end
$var wire 1 "" reset $end
$var wire 4 #" Q [3:0] $end
$var wire 4 $" D [3:0] $end
$var parameter 32 %" WIDTH $end
$scope begin sync_logic[0] $end
$var parameter 2 &" i $end
$upscope $end
$scope begin sync_logic[1] $end
$var parameter 2 '" i $end
$upscope $end
$scope begin sync_logic[2] $end
$var parameter 3 (" i $end
$upscope $end
$scope begin sync_logic[3] $end
$var parameter 3 )" i $end
$upscope $end
$upscope $end
$scope module clock_synchronizer_dataREady $end
$var wire 1 2 clockIn $end
$var wire 1 < clockOut $end
$var wire 1 *" reset $end
$var wire 1 F Q $end
$var wire 1 T D $end
$var parameter 32 +" WIDTH $end
$scope begin sync_logic[0] $end
$var parameter 2 ," i $end
$upscope $end
$upscope $end
$scope module clock_synchronizer_readReady $end
$var wire 1 2 clockIn $end
$var wire 1 < clockOut $end
$var wire 1 -" reset $end
$var wire 1 E Q $end
$var wire 1 S D $end
$var parameter 32 ." WIDTH $end
$scope begin sync_logic[0] $end
$var parameter 2 /" i $end
$upscope $end
$upscope $end
$scope module clock_synchronizer_switch $end
$var wire 1 < clockIn $end
$var wire 1 2 clockOut $end
$var wire 1 0" reset $end
$var wire 1 D Q $end
$var wire 1 R D $end
$var parameter 32 1" WIDTH $end
$scope begin sync_logic[0] $end
$var parameter 2 2" i $end
$upscope $end
$upscope $end
$scope module dma_inst $end
$var wire 32 3" address_dataIN [31:0] $end
$var wire 9 4" bufferAddress [8:0] $end
$var wire 1 6 busyIN $end
$var wire 1 < clock $end
$var wire 1 7 data_validIN $end
$var wire 1 8 end_transactionIN $end
$var wire 1 9 errorIN $end
$var wire 1 : granted $end
$var wire 32 5" ipcore_address_to_read [31:0] $end
$var wire 4 6" ipcore_byteEnable [3:0] $end
$var wire 1 F ipcore_dataReady $end
$var wire 1 E ipcore_readReady $end
$var wire 1 7" reset $end
$var wire 1 8" s_reading_from_buffer_done $end
$var wire 1 K writeEnable $end
$var wire 4 9" s_dma_cur_state [3:0] $end
$var wire 1 " request $end
$var wire 1 # read_n_writeOUT $end
$var wire 1 R ipcore_switch_ready $end
$var wire 1 $ end_transactionOUT $end
$var wire 1 % data_validOUT $end
$var wire 32 :" dataOut [31:0] $end
$var wire 32 ;" dataIn [31:0] $end
$var wire 4 <" byte_enableOUT [3:0] $end
$var wire 1 ' busyOUT $end
$var wire 8 =" busrt_sizeOUT [7:0] $end
$var wire 1 ) begin_transactionOUT $end
$var wire 32 >" address_dataOUT [31:0] $end
$var parameter 32 ?" Base $end
$var parameter 32 @" fsm_asking_for_buffer $end
$var parameter 32 A" fsm_end_transaction $end
$var parameter 32 B" fsm_idle $end
$var parameter 32 C" fsm_read_request $end
$var parameter 32 D" fsm_read_sending_handshake $end
$var parameter 32 E" fsm_reading_data $end
$var parameter 32 F" fsm_reading_from_buffer $end
$var parameter 32 G" fsm_sending_data $end
$var parameter 32 H" fsm_write_request $end
$var parameter 32 I" fsm_write_sending_handshake $end
$var parameter 32 J" fsm_writting_buffer $end
$var reg 32 K" buffer_data [31:0] $end
$var reg 4 L" cur_state [3:0] $end
$var reg 4 M" nxt_state [3:0] $end
$var reg 32 N" s_address [31:0] $end
$var reg 4 O" s_byte_enable [3:0] $end
$upscope $end
$scope module ipcore $end
$var wire 1 , JCE1 $end
$var wire 1 - JCE2 $end
$var wire 1 . JRSTN $end
$var wire 1 / JRTI1 $end
$var wire 1 0 JRTI2 $end
$var wire 1 1 JSHIFT $end
$var wire 1 2 JTCK $end
$var wire 1 ! JTD2 $end
$var wire 1 3 JTDI $end
$var wire 1 4 JUPDATE $end
$var wire 1 P" switch_ready $end
$var wire 6 Q" s_status_reg_out [5:0] $end
$var wire 1 R" s_JTDI_2 $end
$var wire 1 S" s_JTDI_1 $end
$var wire 1 J pp_writeEnable $end
$var wire 1 L pp_switch $end
$var wire 32 T" pp_dataOut [31:0] $end
$var wire 32 U" pp_dataIn [31:0] $end
$var wire 9 V" pp_address [8:0] $end
$var wire 1 S dma_readReady $end
$var wire 1 T dma_data_ready $end
$var wire 4 W" dma_byte_enable [3:0] $end
$var wire 32 X" dma_address [31:0] $end
$var wire 1 + JTD1 $end
$scope module instruction_chain1 $end
$var wire 1 , JCE1 $end
$var wire 1 . JRSTN $end
$var wire 1 / JRTI1 $end
$var wire 1 1 JSHIFT $end
$var wire 1 2 JTCK $end
$var wire 1 S" JTDI $end
$var wire 1 4 JUPDATE $end
$var wire 1 Y" s_ready_to_switch $end
$var wire 1 P" switch_ready $end
$var wire 6 Z" status_reg_out [5:0] $end
$var wire 1 J pp_writeEnable $end
$var wire 1 L pp_switch $end
$var wire 32 [" pp_dataOut [31:0] $end
$var wire 32 \" pp_dataIn [31:0] $end
$var wire 9 ]" pp_address [8:0] $end
$var wire 1 ^" is_operation_running $end
$var wire 1 S dma_readReady $end
$var wire 1 T dma_data_ready $end
$var wire 4 _" dma_byte_enable [3:0] $end
$var wire 32 `" dma_address [31:0] $end
$var wire 1 + JTD1 $end
$var parameter 32 a" IDLE $end
$var parameter 32 b" read_ASK_BUFFER $end
$var parameter 32 c" read_DATA_READY_TO_READ $end
$var parameter 32 d" read_LAUNCH_READ $end
$var parameter 32 e" read_STORE_BUFFER_ANSWER $end
$var parameter 32 f" read_SWITCH_BUFFER $end
$var parameter 32 g" read_WAIT_FOR_SWITCH $end
$var parameter 32 h" write_FILL_BUFFER $end
$var parameter 32 i" write_LAUNCH_WRITE $end
$var parameter 32 j" write_SWITCH_BUFFER $end
$var parameter 32 k" write_WAIT_FOR_SWITCH $end
$var reg 32 l" address_reg [31:0] $end
$var reg 8 m" busrt_size_reg [7:0] $end
$var reg 4 n" byte_enable_reg [3:0] $end
$var reg 5 o" chain1_cur_state [4:0] $end
$var reg 5 p" chain1_nxt_state [4:0] $end
$var reg 32 q" data_reg [31:0] $end
$var reg 8 r" pp_address_reg [7:0] $end
$var reg 1 s" r_data_shifted_in $end
$var reg 1 t" r_data_shifted_out $end
$var reg 1 u" r_launch_read $end
$var reg 32 v" read_data_from_buffer [31:0] $end
$var reg 8 w" remaining_size_reg [7:0] $end
$var reg 36 x" shift_reg [35:0] $end
$var reg 6 y" status_reg [5:0] $end
$upscope $end
$upscope $end
$scope module pingpongbuffer_inst $end
$var wire 9 z" addressA [8:0] $end
$var wire 9 {" addressB [8:0] $end
$var wire 1 2 clockA $end
$var wire 1 < clockB $end
$var wire 32 |" dataInA [31:0] $end
$var wire 32 }" dataInB [31:0] $end
$var wire 1 ~" reset $end
$var wire 1 L switch $end
$var wire 1 J writeEnableA $end
$var wire 1 K writeEnableB $end
$var wire 9 !# s_addressB [8:0] $end
$var wire 9 "# s_addressA [8:0] $end
$var wire 32 ## dataOutB [31:0] $end
$var wire 32 $# dataOutA [31:0] $end
$var reg 1 %# switch_reg $end
$scope module ssram $end
$var wire 9 &# addressA [8:0] $end
$var wire 9 '# addressB [8:0] $end
$var wire 1 2 clockA $end
$var wire 1 < clockB $end
$var wire 32 (# dataInA [31:0] $end
$var wire 32 )# dataInB [31:0] $end
$var wire 1 J writeEnableA $end
$var wire 1 K writeEnableB $end
$var reg 32 *# dataOutA [31:0] $end
$var reg 32 +# dataOutB [31:0] $end
$upscope $end
$upscope $end
$upscope $end
$scope task sendInstruction $end
$var reg 36 ,# instruction [35:0] $end
$upscope $end
$upscope $end
$enddefinitions $end
$comment Show the parameter values. $end
$dumpall
b10 k"
b11 j"
b100 i"
b1 h"
b110 g"
b1000 f"
b1010 e"
b101 d"
b111 c"
b1001 b"
b0 a"
b1010 J"
b10 I"
b1 H"
b11 G"
b101 F"
b1001 E"
b1000 D"
b111 C"
b0 B"
b100 A"
b110 @"
b1000000000000000000000000000000 ?"
b0 2"
b1 1"
b0 /"
b1 ."
b0 ,"
b1 +"
b11 )"
b10 ("
b1 '"
b0 &"
b100 %"
b11111 !"
b11110 ~
b11101 }
b11100 |
b11011 {
b11010 z
b11001 y
b11000 x
b10111 w
b10110 v
b10101 u
b10100 t
b10011 s
b10010 r
b10001 q
b10000 p
b1111 o
b1110 n
b1101 m
b1100 l
b1011 k
b1010 j
b1001 i
b1000 h
b111 g
b110 f
b101 e
b100 d
b11 c
b10 b
b1 a
b0 `
b100000 _
$end
#0
$dumpvars
bx ,#
bx +#
bx *#
bx )#
bx (#
bx00000000 '#
bx &#
x%#
bx $#
bx ##
bx "#
bx00000000 !#
1~"
bx }"
bx |"
b0 {"
b0xxxxxxxx z"
bx y"
bx x"
bx w"
bx v"
xu"
xt"
xs"
bx r"
bx q"
bx p"
bx o"
bx n"
bx m"
bx l"
bx `"
bx _"
x^"
b0xxxxxxxx ]"
bx \"
bx ["
bx Z"
xY"
bx X"
bx W"
b0xxxxxxxx V"
bx U"
bx T"
zS"
zR"
bx Q"
xP"
bx O"
bx N"
b0 M"
bx L"
bx K"
bx >"
b0 ="
bx <"
bx ;"
bx :"
bx 9"
18"
17"
bx 6"
bx 5"
b0 4"
b0 3"
00"
0-"
0*"
bx $"
bx #"
0""
bx ^
bx ]
0\
bx [
b0 Z
bx Y
b0xxxxxx X
bx W
bx V
bx U
xT
xS
xR
b0xxxxxxxx Q
bx P
bx O
bx N
bx M
xL
xK
xJ
bx I
bx H
bx G
xF
xE
xD
0C
b0 B
b0 A
bz @
bz ?
b0 >
bx =
0<
b11011110101011011011111011101111 ;
0:
09
08
07
06
b0 5
04
03
02
01
10
1/
1.
0-
0,
x+
bx *
x)
b0 (
0'
bx &
x%
x$
x#
x"
z!
$end
#1
0$
b0 &
b0 Y
b0 <"
0)
0"
1R
bx00 U
bx00 9"
b0 P
b0 ;"
b0 }"
b0 )#
0K
b0 *
b0 [
b0 >"
0#
0%
b0xxx M"
b0 L"
1<
#2
b0 p"
0t"
0u"
0s"
0<
12
#3
x$
bx &
bx Y
bx <"
x)
x"
xR
bx U
bx 9"
bx *
bx [
bx >"
x%
b0 M"
b0xxx L"
1<
#4
0<
02
#5
b0 *
b0 [
b0 >"
0$
b0 &
b0 Y
b0 <"
0)
0"
1R
bx00 U
bx00 9"
0%
b0xxx M"
b0 L"
1<
#6
bx00000000 "#
bx00000000 &#
b0x11111 X
b0 Q
b0 V"
b0 ]"
b0 z"
0L
b0 W
b0 ^
b0 X"
b0 `"
b0 V
b0 $"
b0 W"
b0 _"
bx00000 I
bx00000 Q"
bx00000 Z"
0J
b0 O
b0 U"
b0 \"
b0 |"
b0 (#
0T
0S
b0 o"
0<
12
#7
x$
bx &
bx Y
bx <"
x)
x"
xR
bx U
bx 9"
bx *
bx [
bx >"
x%
b0 M"
b0xxx L"
1<
#8
0$
b0 H
b0 ]
b0 5"
0^"
0)
0"
1R
b100000000 !#
b100000000 '#
b0 *
b0 [
b0 >"
0%
b0 U
b0 9"
b0 G
b0 #"
b0 6"
0Y"
0P"
b0 "#
b0 &#
b0 &
b0 Y
b0 <"
0F
0E
0D
0+
0%#
b0 L"
b0 O"
b0 N"
b0 K"
b0 v"
b0 r"
b0 w"
b0 m"
b0 n"
b0 l"
b0 y"
b0 x"
0~"
07"
1*"
1-"
1""
1\
10"
1C
0<
02
0.
#9
1<
#10
0<
12
#11
1<
#12
0<
02
#13
1<
#14
0<
12
#15
1<
#16
0*"
0-"
0""
0\
00"
1~"
17"
0C
0<
02
1.
#17
1<
#18
0<
12
#19
1<
#20
0<
02
#21
1<
#22
1Y"
1P"
1D
0<
12
#23
1<
#24
0<
02
0/
b10101010101010101010101010101010001 ,#
#25
1<
#26
0Y"
0P"
0D
0<
12
#27
1<
#28
0<
02
#29
1<
#30
1Y"
1P"
1D
0<
12
#31
1<
#32
0S"
0<
02
1,
#33
1<
#34
0Y"
0P"
0D
0<
12
#35
1<
#36
1S"
0<
02
11
13
b0 =
#37
1<
#38
1Y"
1P"
1D
b100000000000000000000000000000000000 x"
0<
12
#39
1<
#40
0S"
0<
02
03
b1 =
#41
1<
#42
0Y"
0P"
0D
b10000000000000000000000000000000000 x"
0<
12
#43
1<
#44
0<
02
b10 =
#45
1<
#46
1Y"
1P"
1D
b1000000000000000000000000000000000 x"
0<
12
#47
1<
#48
0<
02
b11 =
#49
1<
#50
0Y"
0P"
0D
b100000000000000000000000000000000 x"
0<
12
#51
1<
#52
1S"
0<
02
13
b100 =
#53
1<
#54
1Y"
1P"
1D
b100010000000000000000000000000000000 x"
0<
12
#55
1<
#56
0S"
0<
02
03
b101 =
#57
1<
#58
0Y"
0P"
0D
b10001000000000000000000000000000000 x"
0<
12
#59
1<
#60
1S"
0<
02
13
b110 =
#61
1<
#62
1Y"
1P"
1D
b101000100000000000000000000000000000 x"
0<
12
#63
1<
#64
0S"
0<
02
03
b111 =
#65
1<
#66
0Y"
0P"
0D
b10100010000000000000000000000000000 x"
0<
12
#67
1<
#68
1S"
0<
02
13
b1000 =
#69
1<
#70
1Y"
1P"
1D
b101010001000000000000000000000000000 x"
0<
12
#71
1<
#72
0S"
0<
02
03
b1001 =
#73
1<
#74
0Y"
0P"
0D
b10101000100000000000000000000000000 x"
0<
12
#75
1<
#76
1S"
0<
02
13
b1010 =
#77
1<
#78
1Y"
1P"
1D
b101010100010000000000000000000000000 x"
0<
12
#79
1<
#80
0S"
0<
02
03
b1011 =
#81
1<
#82
0Y"
0P"
0D
b10101010001000000000000000000000000 x"
0<
12
#83
1<
#84
1S"
0<
02
13
b1100 =
#85
1<
#86
1Y"
1P"
1D
b101010101000100000000000000000000000 x"
0<
12
#87
1<
#88
0S"
0<
02
03
b1101 =
#89
1<
#90
0Y"
0P"
0D
b10101010100010000000000000000000000 x"
0<
12
#91
1<
#92
1S"
0<
02
13
b1110 =
#93
1<
#94
1Y"
1P"
1D
b101010101010001000000000000000000000 x"
0<
12
#95
1<
#96
0S"
0<
02
03
b1111 =
#97
1<
#98
0Y"
0P"
0D
b10101010101000100000000000000000000 x"
0<
12
#99
1<
#100
1S"
0<
02
13
b10000 =
#101
1<
#102
1Y"
1P"
1D
b101010101010100010000000000000000000 x"
0<
12
#103
1<
#104
0S"
0<
02
03
b10001 =
#105
1<
#106
0Y"
0P"
0D
b10101010101010001000000000000000000 x"
0<
12
#107
1<
#108
1S"
0<
02
13
b10010 =
#109
1<
#110
1Y"
1P"
1D
b101010101010101000100000000000000000 x"
0<
12
#111
1<
#112
0S"
0<
02
03
b10011 =
#113
1<
#114
0Y"
0P"
0D
b10101010101010100010000000000000000 x"
0<
12
#115
1<
#116
1S"
0<
02
13
b10100 =
#117
1<
#118
1Y"
1P"
1D
b101010101010101010001000000000000000 x"
0<
12
#119
1<
#120
0S"
0<
02
03
b10101 =
#121
1<
#122
0Y"
0P"
0D
b10101010101010101000100000000000000 x"
0<
12
#123
1<
#124
1S"
0<
02
13
b10110 =
#125
1<
#126
1Y"
1P"
1D
b101010101010101010100010000000000000 x"
0<
12
#127
1<
#128
0S"
0<
02
03
b10111 =
#129
1<
#130
0Y"
0P"
0D
b10101010101010101010001000000000000 x"
0<
12
#131
1<
#132
1S"
0<
02
13
b11000 =
#133
1<
#134
1Y"
1P"
1D
b101010101010101010101000100000000000 x"
0<
12
#135
1<
#136
0S"
0<
02
03
b11001 =
#137
1<
#138
0Y"
0P"
0D
b10101010101010101010100010000000000 x"
0<
12
#139
1<
#140
1S"
0<
02
13
b11010 =
#141
1<
#142
1Y"
1P"
1D
b101010101010101010101010001000000000 x"
0<
12
#143
1<
#144
0S"
0<
02
03
b11011 =
#145
1<
#146
0Y"
0P"
0D
b10101010101010101010101000100000000 x"
0<
12
#147
1<
#148
1S"
0<
02
13
b11100 =
#149
1<
#150
1Y"
1P"
1D
b101010101010101010101010100010000000 x"
0<
12
#151
1<
#152
0S"
0<
02
03
b11101 =
#153
1<
#154
0Y"
0P"
0D
b10101010101010101010101010001000000 x"
0<
12
#155
1<
#156
1S"
0<
02
13
b11110 =
#157
1<
#158
1Y"
1P"
1D
b101010101010101010101010101000100000 x"
0<
12
#159
1<
#160
0S"
0<
02
03
b11111 =
#161
1<
#162
0Y"
0P"
0D
b10101010101010101010101010100010000 x"
0<
12
#163
1<
#164
1S"
0<
02
13
b100000 =
#165
1<
#166
1Y"
1P"
1D
b101010101010101010101010101010001000 x"
0<
12
#167
1<
#168
0S"
0<
02
03
b100001 =
#169
1<
#170
0Y"
0P"
0D
b10101010101010101010101010101000100 x"
0<
12
#171
1<
#172
1S"
0<
02
13
b100010 =
#173
1<
#174
1Y"
1P"
1D
b101010101010101010101010101010100010 x"
0<
12
#175
1<
#176
0S"
0<
02
03
b100011 =
#177
1<
#178
0Y"
0P"
0D
1+
b10101010101010101010101010101010001 x"
0<
12
#179
1<
#180
zS"
0<
02
01
0,
b100100 =
#181
1<
#182
1Y"
1P"
1D
0<
12
#183
1<
#184
0<
02
#185
1<
#186
0Y"
0P"
0D
0<
12
#187
1<
#188
0<
02
14
#189
1<
#190
1Y"
1P"
1D
b1 y"
b1010101010101010101010101010101 l"
0<
12
#191
1<
#192
0<
02
1/
04
#193
1<
#194
0Y"
0P"
0D
0<
12
#195
1<
#196
0<
02
0/
b11110010 ,#
#197
1<
#198
1Y"
1P"
1D
0<
12
#199
1<
#200
0<
02
#201
1<
#202
0Y"
0P"
0D
0<
12
#203
1<
#204
0S"
0<
02
1,
#205
1<
#206
1Y"
1P"
1D
b1 x"
0<
12
#207
1<
#208
0<
02
11
b0 =
#209
1<
#210
0Y"
0P"
0D
0+
b0 x"
0<
12
#211
1<
#212
1S"
0<
02
13
b1 =
#213
1<
#214
1Y"
1P"
1D
b100000000000000000000000000000000000 x"
0<
12
#215
1<
#216
0S"
0<
02
03
b10 =
#217
1<
#218
0Y"
0P"
0D
b10000000000000000000000000000000000 x"
0<
12
#219
1<
#220
0<
02
b11 =
#221
1<
#222
1Y"
1P"
1D
b1000000000000000000000000000000000 x"
0<
12
#223
1<
#224
1S"
0<
02
13
b100 =
#225
1<
#226
0Y"
0P"
0D
b100100000000000000000000000000000000 x"
0<
12
#227
1<
#228
0<
02
b101 =
#229
1<
#230
1Y"
1P"
1D
b110010000000000000000000000000000000 x"
0<
12
#231
1<
#232
0<
02
b110 =
#233
1<
#234
0Y"
0P"
0D
b111001000000000000000000000000000000 x"
0<
12
#235
1<
#236
0<
02
b111 =
#237
1<
#238
1Y"
1P"
1D
b111100100000000000000000000000000000 x"
0<
12
#239
1<
#240
0S"
0<
02
03
b1000 =
#241
1<
#242
0Y"
0P"
0D
b11110010000000000000000000000000000 x"
0<
12
#243
1<
#244
0<
02
b1001 =
#245
1<
#246
1Y"
1P"
1D
b1111001000000000000000000000000000 x"
0<
12
#247
1<
#248
0<
02
b1010 =
#249
1<
#250
0Y"
0P"
0D
b111100100000000000000000000000000 x"
0<
12
#251
1<
#252
0<
02
b1011 =
#253
1<
#254
1Y"
1P"
1D
b11110010000000000000000000000000 x"
0<
12
#255
1<
#256
0<
02
b1100 =
#257
1<
#258
0Y"
0P"
0D
b1111001000000000000000000000000 x"
0<
12
#259
1<
#260
0<
02
b1101 =
#261
1<
#262
1Y"
1P"
1D
b111100100000000000000000000000 x"
0<
12
#263
1<
#264
0<
02
b1110 =
#265
1<
#266
0Y"
0P"
0D
b11110010000000000000000000000 x"
0<
12
#267
1<
#268
0<
02
b1111 =
#269
1<
#270
1Y"
1P"
1D
b1111001000000000000000000000 x"
0<
12
#271
1<
#272
0<
02
b10000 =
#273
1<
#274
0Y"
0P"
0D
b111100100000000000000000000 x"
0<
12
#275
1<
#276
0<
02
b10001 =
#277
1<
#278
1Y"
1P"
1D
b11110010000000000000000000 x"
0<
12
#279
1<
#280
0<
02
b10010 =
#281
1<
#282
0Y"
0P"
0D
b1111001000000000000000000 x"
0<
12
#283
1<
#284
0<
02
b10011 =
#285
1<
#286
1Y"
1P"
1D
b111100100000000000000000 x"
0<
12
#287
1<
#288
0<
02
b10100 =
#289
1<
#290
0Y"
0P"
0D
b11110010000000000000000 x"
0<
12
#291
1<
#292
0<
02
b10101 =
#293
1<
#294
1Y"
1P"
1D
b1111001000000000000000 x"
0<
12
#295
1<
#296
0<
02
b10110 =
#297
1<
#298
0Y"
0P"
0D
b111100100000000000000 x"
0<
12
#299
1<
#300
0<
02
b10111 =
#301
1<
#302
1Y"
1P"
1D
b11110010000000000000 x"
0<
12
#303
1<
#304
0<
02
b11000 =
#305
1<
#306
0Y"
0P"
0D
b1111001000000000000 x"
0<
12
#307
1<
#308
0<
02
b11001 =
#309
1<
#310
1Y"
1P"
1D
b111100100000000000 x"
0<
12
#311
1<
#312
0<
02
b11010 =
#313
1<
#314
0Y"
0P"
0D
b11110010000000000 x"
0<
12
#315
1<
#316
0<
02
b11011 =
#317
1<
#318
1Y"
1P"
1D
b1111001000000000 x"
0<
12
#319
1<
#320
0<
02
b11100 =
#321
1<
#322
0Y"
0P"
0D
b111100100000000 x"
0<
12
#323
1<
#324
0<
02
b11101 =
#325
1<
#326
1Y"
1P"
1D
b11110010000000 x"
0<
12
#327
1<
#328
0<
02
b11110 =
#329
1<
#330
0Y"
0P"
0D
b1111001000000 x"
0<
12
#331
1<
#332
0<
02
b11111 =
#333
1<
#334
1Y"
1P"
1D
b111100100000 x"
0<
12
#335
1<
#336
0<
02
b100000 =
#337
1<
#338
0Y"
0P"
0D
b11110010000 x"
0<
12
#339
1<
#340
0<
02
b100001 =
#341
1<
#342
1Y"
1P"
1D
b1111001000 x"
0<
12
#343
1<
#344
0<
02
b100010 =
#345
1<
#346
0Y"
0P"
0D
b111100100 x"
0<
12
#347
1<
#348
0<
02
b100011 =
#349
1<
#350
1Y"
1P"
1D
b11110010 x"
0<
12
#351
1<
#352
zS"
0<
02
01
0,
b100100 =
#353
1<
#354
0Y"
0P"
0D
0<
12
#355
1<
#356
0<
02
#357
1<
#358
1Y"
1P"
1D
0<
12
#359
1<
#360
0<
02
14
#361
1<
#362
0Y"
0P"
0D
b11 y"
b1111 n"
0<
12
#363
1<
#364
0<
02
1/
04
#365
1<
#366
1Y"
1P"
1D
0<
12
#367
1<
#368
0<
02
0/
b11 ,#
#369
1<
#370
0Y"
0P"
0D
0<
12
#371
1<
#372
0<
02
#373
1<
#374
1Y"
1P"
1D
0<
12
#375
1<
#376
0S"
0<
02
1,
#377
1<
#378
0Y"
0P"
0D
1+
b11 x"
0<
12
#379
1<
#380
1S"
0<
02
11
13
b0 =
#381
1<
#382
1Y"
1P"
1D
b100000000000000000000000000000000001 x"
0<
12
#383
1<
#384
0<
02
b1 =
#385
1<
#386
0Y"
0P"
0D
0+
b110000000000000000000000000000000000 x"
0<
12
#387
1<
#388
0S"
0<
02
03
b10 =
#389
1<
#390
1Y"
1P"
1D
b11000000000000000000000000000000000 x"
0<
12
#391
1<
#392
0<
02
b11 =
#393
1<
#394
0Y"
0P"
0D
b1100000000000000000000000000000000 x"
0<
12
#395
1<
#396
0<
02
b100 =
#397
1<
#398
1Y"
1P"
1D
b110000000000000000000000000000000 x"
0<
12
#399
1<
#400
0<
02
b101 =
#401
1<
#402
0Y"
0P"
0D
b11000000000000000000000000000000 x"
0<
12
#403
1<
#404
0<
02
b110 =
#405
1<
#406
1Y"
1P"
1D
b1100000000000000000000000000000 x"
0<
12
#407
1<
#408
0<
02
b111 =
#409
1<
#410
0Y"
0P"
0D
b110000000000000000000000000000 x"
0<
12
#411
1<
#412
0<
02
b1000 =
#413
1<
#414
1Y"
1P"
1D
b11000000000000000000000000000 x"
0<
12
#415
1<
#416
0<
02
b1001 =
#417
1<
#418
0Y"
0P"
0D
b1100000000000000000000000000 x"
0<
12
#419
1<
#420
0<
02
b1010 =
#421
1<
#422
1Y"
1P"
1D
b110000000000000000000000000 x"
0<
12
#423
1<
#424
0<
02
b1011 =
#425
1<
#426
0Y"
0P"
0D
b11000000000000000000000000 x"
0<
12
#427
1<
