project/modules/jtag_interface/testbenches/test_jtagsupport.vcd
$date
	Mon May  5 23:20:23 2025
$end
$version
	Icarus Verilog
$end
$timescale
	1ps
$end
$scope module tb_jtagsupport $end
$var wire 1 ! JTDO2 $end
$var wire 1 " request $end
$var wire 1 # read_n_writeOUT $end
$var wire 1 $ end_transactionOUT $end
$var wire 1 % data_validOUT $end
$var wire 4 & byte_enableOUT [3:0] $end
$var wire 1 ' busyOUT $end
$var wire 8 ( busrt_sizeOUT [7:0] $end
$var wire 1 ) begin_transactionOUT $end
$var wire 32 * address_dataOUT [31:0] $end
$var wire 1 + JTDO1 $end
$var reg 1 , JCE1 $end
$var reg 1 - JCE2 $end
$var reg 1 . JRSTN $end
$var reg 1 / JRTI1 $end
$var reg 1 0 JRTI2 $end
$var reg 1 1 JSHIFT $end
$var reg 1 2 JTCK $end
$var reg 1 3 JTDI $end
$var reg 1 4 JUPDATE $end
$var reg 32 5 address_dataIN [31:0] $end
$var reg 1 6 busyIN $end
$var reg 1 7 data_validIN $end
$var reg 1 8 end_transactionIN $end
$var reg 1 9 errorIN $end
$var reg 1 : granted $end
$var reg 32 ; memory_0x55555555 [31:0] $end
$var reg 1 < system_clock $end
$var integer 32 = i [31:0] $end
$scope module dut $end
$var wire 1 , JCE1 $end
$var wire 1 - JCE2 $end
$var wire 1 . JRSTN $end
$var wire 1 / JRTI1 $end
$var wire 1 0 JRTI2 $end
$var wire 1 1 JSHIFT $end
$var wire 1 2 JTCK $end
$var wire 1 3 JTDI $end
$var wire 1 ! JTDO2 $end
$var wire 1 4 JUPDATE $end
$var wire 32 > address_dataIN [31:0] $end
$var wire 10 ? blue [9:0] $end
$var wire 1 6 busyIN $end
$var wire 1 7 data_validIN $end
$var wire 1 8 end_transactionIN $end
$var wire 1 9 errorIN $end
$var wire 1 : granted $end
$var wire 10 @ red [9:0] $end
$var wire 4 A rgbRow [3:0] $end
$var wire 9 B s_pp_address_dma [8:0] $end
$var wire 1 < system_clock $end
$var wire 1 C system_reset $end
$var wire 1 D sync_switch_ready $end
$var wire 1 E sync_s_dma_readReady $end
$var wire 1 F sync_s_dma_data_ready $end
$var wire 4 G sync_s_dma_byte_enable [3:0] $end
$var wire 32 H sync_s_dma_address [31:0] $end
$var wire 6 I s_status_reg_out [5:0] $end
$var wire 1 J s_pp_writeEnable_ipcore $end
$var wire 1 K s_pp_writeEnable_dma $end
$var wire 1 L s_pp_switch_ipcore $end
$var wire 32 M s_pp_dataOut_ipcore [31:0] $end
$var wire 32 N s_pp_dataOut_dma [31:0] $end
$var wire 32 O s_pp_dataIn_ipcore [31:0] $end
$var wire 32 P s_pp_dataIn_dma [31:0] $end
$var wire 9 Q s_pp_address_ipcore [8:0] $end
$var wire 1 R s_ipcore_switch_ready $end
$var wire 1 S s_dma_readReady $end
$var wire 1 T s_dma_data_ready $end
$var wire 4 U s_dma_cur_state [3:0] $end
$var wire 4 V s_dma_byte_enable [3:0] $end
$var wire 32 W s_dma_address [31:0] $end
$var wire 1 " request $end
$var wire 1 # read_n_writeOUT $end
$var wire 10 X green [9:0] $end
$var wire 1 $ end_transactionOUT $end
$var wire 1 % data_validOUT $end
$var wire 4 Y byte_enableOUT [3:0] $end
$var wire 1 ' busyOUT $end
$var wire 8 Z busrt_sizeOUT [7:0] $end
$var wire 1 ) begin_transactionOUT $end
$var wire 32 [ address_dataOUT [31:0] $end
$var wire 1 + JTDO1 $end
$scope module clock_synchronizer_address $end
$var wire 1 2 clk_in $end
$var wire 1 < clk_out $end
$var wire 1 \ n_reset $end
$var wire 32 ] sync_out [31:0] $end
$var wire 32 ^ to_sync [31:0] $end
$var parameter 32 _ SYNC_WIDTH $end
$var reg 32 ` sync_reg_1 [31:0] $end
$var reg 32 a sync_reg_2 [31:0] $end
$var reg 32 b sync_reg_3 [31:0] $end
$upscope $end
$scope module clock_synchronizer_byteEnable $end
$var wire 1 2 clk_in $end
$var wire 1 < clk_out $end
$var wire 1 c n_reset $end
$var wire 4 d sync_out [3:0] $end
$var wire 4 e to_sync [3:0] $end
$var parameter 32 f SYNC_WIDTH $end
$var reg 4 g sync_reg_1 [3:0] $end
$var reg 4 h sync_reg_2 [3:0] $end
$var reg 4 i sync_reg_3 [3:0] $end
$upscope $end
$scope module clock_synchronizer_dataREady $end
$var wire 1 2 clk_in $end
$var wire 1 < clk_out $end
$var wire 1 j n_reset $end
$var wire 1 F sync_out $end
$var wire 1 T to_sync $end
$var parameter 32 k SYNC_WIDTH $end
$var reg 1 l sync_reg_1 $end
$var reg 1 m sync_reg_2 $end
$var reg 1 n sync_reg_3 $end
$upscope $end
$scope module clock_synchronizer_readReady $end
$var wire 1 2 clk_in $end
$var wire 1 < clk_out $end
$var wire 1 o n_reset $end
$var wire 1 E sync_out $end
$var wire 1 S to_sync $end
$var parameter 32 p SYNC_WIDTH $end
$var reg 1 q sync_reg_1 $end
$var reg 1 r sync_reg_2 $end
$var reg 1 s sync_reg_3 $end
$upscope $end
$scope module clock_synchronizer_switch $end
$var wire 1 < clk_in $end
$var wire 1 2 clk_out $end
$var wire 1 t n_reset $end
$var wire 1 R to_sync $end
$var wire 1 D sync_out $end
$var parameter 32 u SYNC_WIDTH $end
$var reg 1 v sync_reg_1 $end
$var reg 1 w sync_reg_2 $end
$var reg 1 D sync_reg_3 $end
$upscope $end
$scope module dma_inst $end
$var wire 32 x address_dataIN [31:0] $end
$var wire 9 y bufferAddress [8:0] $end
$var wire 1 6 busyIN $end
$var wire 1 < clock $end
$var wire 1 7 data_validIN $end
$var wire 1 8 end_transactionIN $end
$var wire 1 9 errorIN $end
$var wire 1 : granted $end
$var wire 32 z ipcore_address_to_read [31:0] $end
$var wire 4 { ipcore_byteEnable [3:0] $end
$var wire 1 F ipcore_dataReady $end
$var wire 1 E ipcore_readReady $end
$var wire 1 | reset $end
$var wire 1 } s_reading_from_buffer_done $end
$var wire 1 K writeEnable $end
$var wire 4 ~ s_dma_cur_state [3:0] $end
$var wire 1 " request $end
$var wire 1 # read_n_writeOUT $end
$var wire 1 R ipcore_switch_ready $end
$var wire 1 $ end_transactionOUT $end
$var wire 1 % data_validOUT $end
$var wire 32 !" dataOut [31:0] $end
$var wire 32 "" dataIn [31:0] $end
$var wire 4 #" byte_enableOUT [3:0] $end
$var wire 1 ' busyOUT $end
$var wire 8 $" busrt_sizeOUT [7:0] $end
$var wire 1 ) begin_transactionOUT $end
$var wire 32 %" address_dataOUT [31:0] $end
$var parameter 32 &" Base $end
$var parameter 32 '" fsm_asking_for_buffer $end
$var parameter 32 (" fsm_end_transaction $end
$var parameter 32 )" fsm_idle $end
$var parameter 32 *" fsm_read_request $end
$var parameter 32 +" fsm_read_sending_handshake $end
$var parameter 32 ," fsm_reading_data $end
$var parameter 32 -" fsm_reading_from_buffer $end
$var parameter 32 ." fsm_sending_data $end
$var parameter 32 /" fsm_write_request $end
$var parameter 32 0" fsm_write_sending_handshake $end
$var parameter 32 1" fsm_writting_buffer $end
$var reg 32 2" buffer_data [31:0] $end
$var reg 4 3" cur_state [3:0] $end
$var reg 4 4" nxt_state [3:0] $end
$var reg 32 5" s_address [31:0] $end
$var reg 4 6" s_byte_enable [3:0] $end
$upscope $end
$scope module ipcore $end
$var wire 1 , JCE1 $end
$var wire 1 - JCE2 $end
$var wire 1 . JRSTN $end
$var wire 1 / JRTI1 $end
$var wire 1 0 JRTI2 $end
$var wire 1 1 JSHIFT $end
$var wire 1 2 JTCK $end
$var wire 1 ! JTD2 $end
$var wire 1 3 JTDI $end
$var wire 1 4 JUPDATE $end
$var wire 1 7" switch_ready $end
$var wire 6 8" s_status_reg_out [5:0] $end
$var wire 1 9" s_JTDI_2 $end
$var wire 1 :" s_JTDI_1 $end
$var wire 1 J pp_writeEnable $end
$var wire 1 L pp_switch $end
$var wire 32 ;" pp_dataOut [31:0] $end
$var wire 32 <" pp_dataIn [31:0] $end
$var wire 9 =" pp_address [8:0] $end
$var wire 1 S dma_readReady $end
$var wire 1 T dma_data_ready $end
$var wire 4 >" dma_byte_enable [3:0] $end
$var wire 32 ?" dma_address [31:0] $end
$var wire 1 + JTD1 $end
$scope module instruction_chain1 $end
$var wire 1 , JCE1 $end
$var wire 1 . JRSTN $end
$var wire 1 / JRTI1 $end
$var wire 1 1 JSHIFT $end
$var wire 1 2 JTCK $end
$var wire 1 :" JTDI $end
$var wire 1 4 JUPDATE $end
$var wire 1 @" s_ready_to_switch $end
$var wire 1 7" switch_ready $end
$var wire 6 A" status_reg_out [5:0] $end
$var wire 1 J pp_writeEnable $end
$var wire 1 L pp_switch $end
$var wire 32 B" pp_dataOut [31:0] $end
$var wire 32 C" pp_dataIn [31:0] $end
$var wire 9 D" pp_address [8:0] $end
$var wire 1 E" is_operation_running $end
$var wire 1 S dma_readReady $end
$var wire 1 T dma_data_ready $end
$var wire 4 F" dma_byte_enable [3:0] $end
$var wire 32 G" dma_address [31:0] $end
$var wire 1 + JTD1 $end
$var parameter 32 H" IDLE $end
$var parameter 32 I" read_ASK_BUFFER $end
$var parameter 32 J" read_DATA_READY_TO_READ $end
$var parameter 32 K" read_LAUNCH_READ $end
$var parameter 32 L" read_STORE_BUFFER_ANSWER $end
$var parameter 32 M" read_SWITCH_BUFFER $end
$var parameter 32 N" read_WAIT_FOR_SWITCH $end
$var parameter 32 O" write_FILL_BUFFER $end
$var parameter 32 P" write_LAUNCH_WRITE $end
$var parameter 32 Q" write_SWITCH_BUFFER $end
$var parameter 32 R" write_WAIT_FOR_SWITCH $end
$var reg 32 S" address_reg [31:0] $end
$var reg 8 T" busrt_size_reg [7:0] $end
$var reg 4 U" byte_enable_reg [3:0] $end
$var reg 5 V" chain1_cur_state [4:0] $end
$var reg 5 W" chain1_nxt_state [4:0] $end
$var reg 32 X" data_reg [31:0] $end
$var reg 8 Y" pp_address_reg [7:0] $end
$var reg 1 Z" r_data_shifted_in $end
$var reg 1 [" r_data_shifted_out $end
$var reg 1 \" r_launch_read $end
$var reg 32 ]" read_data_from_buffer [31:0] $end
$var reg 8 ^" remaining_size_reg [7:0] $end
$var reg 36 _" shift_reg [35:0] $end
$var reg 6 `" status_reg [5:0] $end
$upscope $end
$upscope $end
$scope module pingpongbuffer_inst $end
$var wire 9 a" addressA [8:0] $end
$var wire 9 b" addressB [8:0] $end
$var wire 1 2 clockA $end
$var wire 1 < clockB $end
$var wire 32 c" dataInA [31:0] $end
$var wire 32 d" dataInB [31:0] $end
$var wire 1 e" reset $end
$var wire 1 L switch $end
$var wire 1 J writeEnableA $end
$var wire 1 K writeEnableB $end
$var wire 9 f" s_addressB [8:0] $end
$var wire 9 g" s_addressA [8:0] $end
$var wire 32 h" dataOutB [31:0] $end
$var wire 32 i" dataOutA [31:0] $end
$var reg 1 j" switch_reg $end
$scope module ssram $end
$var wire 9 k" addressA [8:0] $end
$var wire 9 l" addressB [8:0] $end
$var wire 1 2 clockA $end
$var wire 1 < clockB $end
$var wire 32 m" dataInA [31:0] $end
$var wire 32 n" dataInB [31:0] $end
$var wire 1 J writeEnableA $end
$var wire 1 K writeEnableB $end
$var reg 32 o" dataOutA [31:0] $end
$var reg 32 p" dataOutB [31:0] $end
$upscope $end
$upscope $end
$upscope $end
$scope task sendInstruction $end
$var reg 36 q" instruction [35:0] $end
$upscope $end
$upscope $end
$enddefinitions $end
$comment Show the parameter values. $end
$dumpall
b10 R"
b11 Q"
b100 P"
b1 O"
b110 N"
b1000 M"
b1010 L"
b101 K"
b111 J"
b1001 I"
b0 H"
b1010 1"
b10 0"
b1 /"
b11 ."
b101 -"
b1001 ,"
b1000 +"
b111 *"
b0 )"
b100 ("
b110 '"
b1000000000000000000000000000000 &"
b1 u
b1 p
b1 k
b100 f
b100000 _
$end
#0
$dumpvars
bx q"
bx p"
bx o"
bx n"
bx m"
bx00000000 l"
bx k"
xj"
bx i"
bx h"
bx g"
bx00000000 f"
1e"
bx d"
bx c"
b0 b"
b0xxxxxxxx a"
bx `"
bx _"
bx ^"
bx ]"
x\"
x["
xZ"
bx Y"
bx X"
bx W"
bx V"
bx U"
bx T"
bx S"
bx G"
bx F"
xE"
b0xxxxxxxx D"
bx C"
bx B"
b0xxxxx A"
x@"
bx ?"
bx >"
b0xxxxxxxx ="
bx <"
bx ;"
z:"
z9"
b0xxxxx 8"
x7"
bx 6"
bx 5"
b0 4"
bx 3"
bx 2"
bx %"
b0 $"
bx #"
bx ""
bx !"
bx ~
1}
1|
bx {
bx z
b0 y
b0 x
xw
xv
1t
xs
xr
xq
1o
xn
xm
xl
1j
bx i
bx h
bx g
bx e
bx d
1c
bx b
bx a
bx `
bx ^
bx ]
1\
bx [
b0 Z
bx Y
bx X
bx W
bx V
bx U
xT
xS
xR
b0xxxxxxxx Q
bx P
bx O
bx N
bx M
xL
xK
xJ
b0xxxxx I
bx H
bx G
xF
xE
xD
0C
b0 B
b0 A
bz @
bz ?
b0 >
bx =
0<
b11011110101011011011111011101111 ;
0:
09
08
07
06
b0 5
04
03
02
01
10
1/
1.
0-
0,
x+
bx *
x)
b0 (
0'
bx &
x%
x$
x#
x"
z!
$end
#1
bx0 X
0$
b0 &
b0 Y
b0 #"
0)
0"
1R
b0 P
b0 ""
b0 d"
b0 n"
0K
b0 *
b0 [
b0 %"
0#
0%
b0xxx 4"
b0 3"
1<
#2
b0 W"
0["
0\"
0Z"
0<
12
#3
bx X
x$
bx &
bx Y
bx #"
x)
x"
xR
bx *
bx [
bx %"
x%
b0 4"
1v
b0xxx 3"
1<
#4
0<
02
#5
bx0 X
b0 *
b0 [
b0 %"
0$
b0 &
b0 Y
b0 #"
0)
0"
1R
0%
b0xxx 4"
xv
b0 3"
1<
#6
bx00000000 g"
bx00000000 k"
b11111xxxx0 X
b0 Q
b0 ="
b0 D"
b0 a"
0L
b0 W
b0 ^
b0 ?"
b0 G"
b0 V
b0 e
b0 >"
b0 F"
0J
b0 O
b0 <"
b0 C"
b0 c"
b0 m"
0T
0S
b0 I
b0 8"
b0 A"
b0 V"
0<
12
#7
b11111xxxxx X
x$
bx &
bx Y
bx #"
x)
x"
xR
bx *
bx [
bx %"
x%
b0 4"
1v
b0xxx 3"
1<
#8
0$
b1111111110 X
0E"
0)
0"
1R
b100000000 f"
b100000000 l"
b0 *
b0 [
b0 %"
0%
b0 g"
b0 k"
b0 &
b0 Y
b0 #"
b0 U
b0 ~
0@"
07"
0+
0j"
b0 3"
b0 6"
b0 5"
b0 2"
0F
0n
0m
0l
0E
0s
0r
0q
b0 G
b0 d
b0 {
b0 i
b0 h
b0 g
b0 H
b0 ]
b0 z
b0 b
b0 a
b0 `
0D
0w
0v
b0 ]"
b0 Y"
b0 ^"
b0 T"
b0 U"
b0 S"
b0 `"
b0 _"
0e"
0|
0j
0o
0c
0\
0t
1C
0<
02
0.
#9
1<
#10
0<
12
#11
1<
#12
0<
02
#13
1<
#14
0<
12
#15
1<
#16
1e"
1|
1j
1o
1c
1\
1t
0C
0<
02
1.
#17
1v
1<
#18
1w
0<
12
#19
1<
#20
0<
02
#21
1<
#22
1@"
17"
1D
0<
12
#23
0v
1<
#24
0<
02
0/
b10101010101010101010101010101010001 q"
#25
1<
#26
0@"
07"
0D
0w
0<
12
#27
1v
1<
#28
0<
02
#29
1<
#30
1w
0<
12
#31
1<
#32
0:"
0<
02
1,
#33
1<
#34
1@"
17"
1D
0<
12
#35
0v
1<
#36
1:"
0<
02
11
13
b0 =
#37
1<
#38
0@"
07"
0D
0w
b100000000000000000000000000000000000 _"
0<
12
#39
1v
1<
#40
0:"
0<
02
03
b1 =
#41
1<
#42
1w
b10000000000000000000000000000000000 _"
0<
12
#43
1<
#44
0<
02
b10 =
#45
1<
#46
1@"
17"
1D
b1000000000000000000000000000000000 _"
0<
12
#47
0v
1<
#48
0<
02
b11 =
#49
1<
#50
0@"
07"
0D
0w
b100000000000000000000000000000000 _"
0<
12
#51
1v
1<
#52
1:"
0<
02
13
b100 =
#53
1<
#54
1w
b100010000000000000000000000000000000 _"
0<
12
#55
1<
#56
0:"
0<
02
03
b101 =
#57
1<
#58
1@"
17"
1D
b10001000000000000000000000000000000 _"
0<
12
#59
0v
1<
#60
1:"
0<
02
13
b110 =
#61
1<
#62
0@"
07"
0D
0w
b101000100000000000000000000000000000 _"
0<
12
#63
1v
1<
#64
0:"
0<
02
03
b111 =
#65
1<
#66
1w
b10100010000000000000000000000000000 _"
0<
12
#67
1<
#68
1:"
0<
02
13
b1000 =
#69
1<
#70
1@"
17"
1D
b101010001000000000000000000000000000 _"
0<
12
#71
0v
1<
#72
0:"
0<
02
03
b1001 =
#73
1<
#74
0@"
07"
0D
0w
b10101000100000000000000000000000000 _"
0<
12
#75
1v
1<
#76
1:"
0<
02
13
b1010 =
#77
1<
#78
1w
b101010100010000000000000000000000000 _"
0<
12
#79
1<
#80
0:"
0<
02
03
b1011 =
#81
1<
#82
1@"
17"
1D
b10101010001000000000000000000000000 _"
0<
12
#83
0v
1<
#84
1:"
0<
02
13
b1100 =
#85
1<
#86
0@"
07"
0D
0w
b101010101000100000000000000000000000 _"
0<
12
#87
1v
1<
#88
0:"
0<
02
03
b1101 =
#89
1<
#90
1w
b10101010100010000000000000000000000 _"
0<
12
#91
1<
#92
1:"
0<
02
13
b1110 =
#93
1<
#94
1@"
17"
1D
b101010101010001000000000000000000000 _"
0<
12
#95
0v
1<
#96
0:"
0<
02
03
b1111 =
#97
1<
#98
0@"
07"
0D
0w
b10101010101000100000000000000000000 _"
0<
12
#99
1v
1<
#100
1:"
0<
02
13
b10000 =
#101
1<
#102
1w
b101010101010100010000000000000000000 _"
0<
12
#103
1<
#104
0:"
0<
02
03
b10001 =
#105
1<
#106
1@"
17"
1D
b10101010101010001000000000000000000 _"
0<
12
#107
0v
1<
#108
1:"
0<
02
13
b10010 =
#109
1<
#110
0@"
07"
0D
0w
b101010101010101000100000000000000000 _"
0<
12
#111
1v
1<
#112
0:"
0<
02
03
b10011 =
#113
1<
#114
1w
b10101010101010100010000000000000000 _"
0<
12
#115
1<
#116
1:"
0<
02
13
b10100 =
#117
1<
#118
1@"
17"
1D
b101010101010101010001000000000000000 _"
0<
12
#119
0v
1<
#120
0:"
0<
02
03
b10101 =
#121
1<
#122
0@"
07"
0D
0w
b10101010101010101000100000000000000 _"
0<
12
#123
1v
1<
#124
1:"
0<
02
13
b10110 =
#125
1<
#126
1w
b101010101010101010100010000000000000 _"
0<
12
#127
1<
#128
0:"
0<
02
03
b10111 =
#129
1<
#130
1@"
17"
1D
b10101010101010101010001000000000000 _"
0<
12
#131
0v
1<
#132
1:"
0<
02
13
b11000 =
#133
1<
#134
0@"
07"
0D
0w
b101010101010101010101000100000000000 _"
0<
12
#135
1v
1<
#136
0:"
0<
02
03
b11001 =
#137
1<
#138
1w
b10101010101010101010100010000000000 _"
0<
12
#139
1<
#140
1:"
0<
02
13
b11010 =
#141
1<
#142
1@"
17"
1D
b101010101010101010101010001000000000 _"
0<
12
#143
0v
1<
#144
0:"
0<
02
03
b11011 =
#145
1<
#146
0@"
07"
0D
0w
b10101010101010101010101000100000000 _"
0<
12
#147
1v
1<
#148
1:"
0<
02
13
b11100 =
#149
1<
#150
1w
b101010101010101010101010100010000000 _"
0<
12
#151
1<
#152
0:"
0<
02
03
b11101 =
#153
1<
#154
1@"
17"
1D
b10101010101010101010101010001000000 _"
0<
12
#155
0v
1<
#156
1:"
0<
02
13
b11110 =
#157
1<
#158
0@"
07"
0D
0w
b101010101010101010101010101000100000 _"
0<
12
#159
1v
1<
#160
0:"
0<
02
03
b11111 =
#161
1<
#162
1w
b10101010101010101010101010100010000 _"
0<
12
#163
1<
#164
1:"
0<
02
13
b100000 =
#165
1<
#166
1@"
17"
1D
b101010101010101010101010101010001000 _"
0<
12
#167
0v
1<
#168
0:"
0<
02
03
b100001 =
#169
1<
#170
0@"
07"
0D
0w
b10101010101010101010101010101000100 _"
0<
12
#171
1v
1<
#172
1:"
0<
02
13
b100010 =
#173
1<
#174
1w
b101010101010101010101010101010100010 _"
0<
12
#175
1<
#176
0:"
0<
02
03
b100011 =
#177
1<
#178
1@"
17"
1+
1D
b10101010101010101010101010101010001 _"
0<
12
#179
0v
1<
#180
z:"
0<
02
01
0,
b100100 =
#181
1<
#182
0@"
07"
0D
0w
0<
12
#183
1v
1<
#184
0<
02
#185
1<
#186
1w
0<
12
#187
1<
#188
0<
02
14
#189
1<
#190
1@"
17"
1D
b1 `"
b1010101010101010101010101010101 S"
0<
12
#191
0v
1<
#192
0<
02
1/
04
#193
1<
#194
0@"
07"
0D
0w
0<
12
#195
1v
1<
#196
0<
02
0/
b11110010 q"
#197
1<
#198
1w
0<
12
#199
1<
#200
0<
02
#201
1<
#202
1@"
17"
1D
0<
12
#203
0v
1<
#204
0:"
0<
02
1,
#205
1<
#206
0@"
07"
0D
0w
b1 _"
0<
12
#207
1v
1<
#208
0<
02
11
b0 =
#209
1<
#210
0+
1w
b0 _"
0<
12
#211
1<
#212
1:"
0<
02
13
b1 =
#213
1<
#214
1@"
17"
1D
b100000000000000000000000000000000000 _"
0<
12
#215
0v
1<
#216
0:"
0<
02
03
b10 =
#217
1<
#218
0@"
07"
0D
0w
b10000000000000000000000000000000000 _"
0<
12
#219
1v
1<
#220
0<
02
b11 =
#221
1<
#222
1w
b1000000000000000000000000000000000 _"
0<
12
#223
1<
#224
1:"
0<
02
13
b100 =
#225
1<
#226
1@"
17"
1D
b100100000000000000000000000000000000 _"
0<
12
#227
0v
1<
#228
0<
02
b101 =
#229
1<
#230
0@"
07"
0D
0w
b110010000000000000000000000000000000 _"
0<
12
#231
1v
1<
#232
0<
02
b110 =
#233
1<
#234
1w
b111001000000000000000000000000000000 _"
0<
12
#235
1<
#236
0<
02
b111 =
#237
1<
#238
1@"
17"
1D
b111100100000000000000000000000000000 _"
0<
12
#239
0v
1<
#240
0:"
0<
02
03
b1000 =
#241
1<
#242
0@"
07"
0D
0w
b11110010000000000000000000000000000 _"
0<
12
#243
1v
1<
#244
0<
02
b1001 =
#245
1<
#246
1w
b1111001000000000000000000000000000 _"
0<
12
#247
1<
#248
0<
02
b1010 =
#249
1<
#250
1@"
17"
1D
b111100100000000000000000000000000 _"
0<
12
#251
0v
1<
#252
0<
02
b1011 =
#253
1<
#254
0@"
07"
0D
0w
b11110010000000000000000000000000 _"
0<
12
#255
1v
1<
#256
0<
02
b1100 =
#257
1<
#258
1w
b1111001000000000000000000000000 _"
0<
12
#259
1<
#260
0<
02
b1101 =
#261
1<
#262
1@"
17"
1D
b111100100000000000000000000000 _"
0<
12
#263
0v
1<
#264
0<
02
b1110 =
#265
1<
#266
0@"
07"
0D
0w
b11110010000000000000000000000 _"
0<
12
#267
1v
1<
#268
0<
02
b1111 =
#269
1<
#270
1w
b1111001000000000000000000000 _"
0<
12
#271
1<
#272
0<
02
b10000 =
#273
1<
#274
1@"
17"
1D
b111100100000000000000000000 _"
0<
12
#275
0v
1<
#276
0<
02
b10001 =
#277
1<
#278
0@"
07"
0D
0w
b11110010000000000000000000 _"
0<
12
#279
1v
1<
#280
0<
02
b10010 =
#281
1<
#282
1w
b1111001000000000000000000 _"
0<
12
#283
1<
#284
0<
02
b10011 =
#285
1<
#286
1@"
17"
1D
b111100100000000000000000 _"
0<
12
#287
0v
1<
#288
0<
02
b10100 =
#289
1<
#290
0@"
07"
0D
0w
b11110010000000000000000 _"
0<
12
#291
1v
1<
#292
0<
02
b10101 =
#293
1<
#294
1w
b1111001000000000000000 _"
0<
12
#295
1<
#296
0<
02
b10110 =
#297
1<
#298
1@"
17"
1D
b111100100000000000000 _"
0<
12
#299
0v
1<
#300
0<
02
b10111 =
#301
1<
#302
0@"
07"
0D
0w
b11110010000000000000 _"
0<
12
#303
1v
1<
#304
0<
02
b11000 =
#305
1<
#306
1w
b1111001000000000000 _"
0<
12
#307
1<
#308
0<
02
b11001 =
#309
1<
#310
1@"
17"
1D
b111100100000000000 _"
0<
12
#311
0v
1<
#312
0<
02
b11010 =
#313
1<
#314
0@"
07"
0D
0w
b11110010000000000 _"
0<
12
#315
1v
1<
#316
0<
02
b11011 =
#317
1<
#318
1w
b1111001000000000 _"
0<
12
#319
1<
#320
0<
02
b11100 =
#321
1<
#322
1@"
17"
1D
b111100100000000 _"
0<
12
#323
0v
1<
#324
0<
02
b11101 =
#325
1<
#326
0@"
07"
0D
0w
b11110010000000 _"
0<
12
#327
1v
1<
#328
0<
02
b11110 =
#329
1<
#330
1w
b1111001000000 _"
0<
12
#331
1<
#332
0<
02
b11111 =
#333
1<
#334
1@"
17"
1D
b111100100000 _"
0<
12
#335
0v
1<
#336
0<
02
b100000 =
#337
1<
#338
0@"
07"
0D
0w
b11110010000 _"
0<
12
#339
1v
1<
#340
0<
02
b100001 =
#341
1<
#342
1w
b1111001000 _"
0<
12
#343
1<
#344
0<
02
b100010 =
#345
1<
#346
1@"
17"
1D
b111100100 _"
0<
12
#347
0v
1<
#348
0<
02
b100011 =
#349
1<
#350
0@"
07"
0D
0w
b11110010 _"
0<
12
#351
1v
1<
#352
z:"
0<
02
01
0,
b100100 =
#353
1<
#354
1w
0<
12
#355
1<
#356
0<
02
#357
1<
#358
1@"
17"
1D
0<
12
#359
0v
1<
#360
0<
02
14
#361
1<
#362
0@"
07"
0D
0w
b11 `"
b1111 U"
0<
12
#363
1v
1<
#364
0<
02
1/
04
#365
1<
#366
1w
0<
12
#367
1<
#368
0<
02
0/
b11 q"
#369
1<
#370
1@"
17"
1D
0<
12
#371
0v
1<
#372
0<
02
#373
1<
#374
0@"
07"
0D
0w
0<
12
#375
1v
1<
#376
0:"
0<
02
1,
#377
1<
#378
1+
1w
b11 _"
0<
12
#379
1<
#380
1:"
0<
02
11
13
b0 =
#381
1<
#382
1@"
17"
1D
b100000000000000000000000000000000001 _"
0<
12
#383
0v
1<
#384
0<
02
b1 =
#385
1<
#386
0@"
07"
0+
0D
0w
b110000000000000000000000000000000000 _"
0<
12
#387
1v
1<
#388
0:"
0<
02
03
b10 =
#389
1<
#390
1w
b11000000000000000000000000000000000 _"
0<
12
#391
1<
#392
0<
02
b11 =
#393
1<
#394
1@"
17"
1D
b1100000000000000000000000000000000 _"
0<
12
#395
0v
1<
#396
0<
02
b100 =
#397
1<
#398
0@"
07"
0D
0w
b110000000000000000000000000000000 _"
0<
12
#399
1v
1<
#400
0<
02
b101 =
#401
1<
#402
1w
b11000000000000000000000000000000 _"
0<
12
#403
1<
#404
0<
02
b110 =
#405
1<
#406
1@"
17"
1D
b1100000000000000000000000000000 _"
0<
12
#407
0v
1<
#408
0<
02
b111 =
#409
1<
#410
0@"
07"
0D
0w
b110000000000000000000000000000 _"
0<
12
#411
1v
1<
#412
0<
02
b1000 =
#413
1<
#414
1w
b11000000000000000000000000000 _"
0<
12
#415
1<
#416
0<
02
b1001 =
#417
1<
#418
1@"
17"
1D
b1100000000000000000000000000 _"
0<
12
#419
0v
1<
#420
0<
02
b1010 =
#421
1<
#422
0@"
07"
0D
0w
b110000000000000000000000000 _"
0<
12
#423
1v
1<
#424
0<
02
b1011 =
#425
1<
#426
1w
b11000000000000000000000000 _"
0<
12
#427
1<
#428
0<
02
b1100 =
#429
1<
#430
1@"
17"
1D
b1100000000000000000000000 _"
0<
12
#431
0v
1<
#432
0<
02
b1101 =
#433
1<
#434
0@"
07"
0D
0w
b110000000000000000000000 _"
0<
12
#435
1v
1<
#436
0<
02
b1110 =
#437
1<
#438
1w
b11000000000000000000000 _"
0<
12
#439
1<
#440
0<
02
b1111 =
#441
1<
#442
1@"
17"
1D
b1100000000000000000000 _"
0<
12
#443
0v
1<
#444
0<
02
b10000 =
#445
1<
#446
0@"
07"
0D
0w
b110000000000000000000 _"
0<
12
#447
1v
1<
#448
0<
02
b10001 =
#449
1<
#450
1w
b11000000000000000000 _"
0<
12
#451
1<
#452
0<
02
b10010 =
#453
1<
#454
1@"
17"
1D
b1100000000000000000 _"
0<
12
#455
0v
1<
#456
0<
02
b10011 =
#457
1<
#458
0@"
07"
0D
0w
b110000000000000000 _"
0<
12
#459
1v
1<
#460
0<
02
b10100 =
#461
1<
#462
1w
b11000000000000000 _"
0<
12
#463
1<
#464
0<
02
b10101 =
#465
1<
#466
1@"
17"
1D
b1100000000000000 _"
0<
12
#467
0v
1<
#468
0<
02
b10110 =
#469
1<
#470
0@"
07"
0D
0w
b110000000000000 _"
0<
12
#471
1v
1<
#472
0<
02
b10111 =
#473
1<
#474
1w
b11000000000000 _"
0<
12
#475
1<
#476
0<
02
b11000 =
#477
1<
#478
1@"
17"
1D
b1100000000000 _"
0<
12
#479
0v
1<
#480
0<
02
b11001 =
#481
1<
#482
0@"
07"
0D
0w
b110000000000 _"
0<
12
#483
1v
1<
#484
0<
02
b11010 =
#485
1<
#486
1w
b11000000000 _"
0<
12
#487
1<
#488
0<
02
b11011 =
#489
1<
#490
1@"
17"
1D
b1100000000 _"
0<
12
#491
0v
1<
#492
0<
02
b11100 =
#493
1<
#494
0@"
07"
0D
0w
b110000000 _"
0<
12
#495
1v
1<
#496
0<
02
b11101 =
#497
1<
#498
1w
b11000000 _"
0<
12
#499
1<
#500
0<
02
b11110 =
#501
1<
#502
1@"
17"
1D
b1100000 _"
0<
12
#503
0v
1<
#504
0<
02
b11111 =
#505
1<
#506
0@"
07"
0D
0w
b110000 _"
0<
12
#507
1v
1<
#508
0<
02
b100000 =
#509
1<
#510
1w
b11000 _"
0<
12
#511
1<
#512
0<
02
b100001 =
#513
1<
#514
1@"
17"
1D
b1100 _"
0<
12
#515
0v
1<
#516
0<
02
b100010 =
#517
1<
#518
0@"
07"
0D
0w
b110 _"
0<
12
#519
1v
1<
#520
0<
02
b100011 =
#521
1<
#522
1+
1w
b11 _"
0<
12
#523
1<
